<?xml version="1.0" encoding="UTF-8" standalone="no"?>
<!-- Generator: Adobe Illustrator 19.0.0, SVG Export Plug-In . SVG Version: 6.00 Build 0)  -->

<svg
   version="1.1"
   id="Layer_1"
   x="0px"
   y="0px"
   viewBox="24 80.1 793.7008 1122.5196"
   xml:space="preserve"
   sodipodi:docname="Asset 30 v2 bottom.svg"
   inkscape:version="1.1.2 (b8e25be833, 2022-02-05)"
   width="210mm"
   height="297mm"
   xmlns:inkscape="http://www.inkscape.org/namespaces/inkscape"
   xmlns:sodipodi="http://sodipodi.sourceforge.net/DTD/sodipodi-0.dtd"
   xmlns="http://www.w3.org/2000/svg"
   xmlns:svg="http://www.w3.org/2000/svg"
   xmlns:rdf="http://www.w3.org/1999/02/22-rdf-syntax-ns#"
   xmlns:cc="http://creativecommons.org/ns#"
   xmlns:dc="http://purl.org/dc/elements/1.1/"><defs
   id="defs177">
	
	
	
	
	
	
	
	
	
	
	
	
	
	
	
	
	
	
	
	
	
	
	
	
	
	
	
	
	
	
	
	
	
	
	
	
	
</defs><sodipodi:namedview
   id="namedview175"
   pagecolor="#505050"
   bordercolor="#eeeeee"
   borderopacity="1"
   inkscape:pageshadow="0"
   inkscape:pageopacity="0"
   inkscape:pagecheckerboard="0"
   showgrid="false"
   inkscape:zoom="0.95393024"
   inkscape:cx="293.52251"
   inkscape:cy="396.25539"
   inkscape:window-width="1920"
   inkscape:window-height="1046"
   inkscape:window-x="-11"
   inkscape:window-y="-11"
   inkscape:window-maximized="1"
   inkscape:current-layer="Layer_1"
   showguides="true"
   inkscape:guide-bbox="true"
   units="mm"
   inkscape:document-units="mm" />
<style
   type="text/css"
   id="style94">
	.st0{fill:#FFFFFF;stroke:#231F20;stroke-miterlimit:10;}
	.st1{fill:none;stroke:#231F20;stroke-linecap:round;stroke-linejoin:round;}
	.st2{fill:none;stroke:#231F20;stroke-miterlimit:10;}
</style>
<title
   id="title96">Asset 30</title>
<g
   id="g312"
   transform="matrix(0.9999971,0,0,1.0021748,0.00123144,-0.36759065)"><rect
     x="181.40158"
     y="169.35052"
     class="st0"
     width="485.40439"
     height="496.51779"
     id="rect104"
     style="stroke-width:1.29862" /></g><rect
   x="185.97971"
   y="254.80663"
   class="st0"
   width="11.2597"
   height="57.924805"
   id="rect106"
   style="stroke-width:1.29862" /><rect
   x="185.97971"
   y="521.39703"
   class="st0"
   width="11.2597"
   height="57.924805"
   id="rect108"
   style="stroke-width:1.29862" /><rect
   x="277.1709"
   y="174.80228"
   class="st0"
   width="52.58651"
   height="12.402723"
   id="rect110"
   style="stroke-width:1.29862" /><rect
   x="518.4502"
   y="175.62003"
   class="st0"
   width="52.58651"
   height="12.402723"
   id="rect112"
   style="stroke-width:1.29862" /><rect
   x="277.1709"
   y="648.01385"
   class="st0"
   width="52.58651"
   height="12.402723"
   id="rect114"
   style="stroke-width:1.29862" /><rect
   x="518.4502"
   y="648.01385"
   class="st0"
   width="52.58651"
   height="12.402723"
   id="rect116"
   style="stroke-width:1.29862" /><rect
   x="650.59698"
   y="255.7607"
   class="st0"
   width="11.2597"
   height="57.924805"
   id="rect118"
   style="stroke-width:1.29862" /><rect
   x="650.59698"
   y="521.39703"
   class="st0"
   width="11.2597"
   height="57.924805"
   id="rect120"
   style="stroke-width:1.29862" /><ellipse
   class="st0"
   cx="208.62285"
   cy="216.23553"
   id="circle122"
   rx="5.8154488"
   ry="6.4058018"
   style="stroke-width:1.29862" /><ellipse
   class="st0"
   cx="640.69836"
   cy="216.23553"
   id="circle124"
   rx="5.8154488"
   ry="6.4058018"
   style="stroke-width:1.29862" /><ellipse
   class="st0"
   cx="640.69836"
   cy="618.57446"
   id="circle126"
   rx="5.8154488"
   ry="6.4058018"
   style="stroke-width:1.29862" /><ellipse
   class="st0"
   cx="208.62285"
   cy="618.57446"
   id="circle128"
   rx="5.8154488"
   ry="6.4058018"
   style="stroke-width:1.29862" />
<metadata
   id="metadata8799"><rdf:RDF><cc:Work
       rdf:about=""><dc:title>Asset 30</dc:title></cc:Work></rdf:RDF></metadata></svg>
