G04 EAGLE Gerber RS-274X export*
G75*
%MOMM*%
%FSLAX34Y34*%
%LPD*%
%IN*%
%IPPOS*%
%AMOC8*
5,1,8,0,0,1.08239X$1,22.5*%
G01*
%ADD10C,0.254000*%


D10*
X-318Y318D02*
X1295083Y318D01*
X1295083Y1105218D01*
X-318Y1105218D01*
X-318Y318D01*
X70780Y930529D02*
X70785Y930422D01*
X70799Y930316D01*
X70822Y930211D01*
X70854Y930109D01*
X70895Y930010D01*
X70945Y929915D01*
X71002Y929824D01*
X71068Y929739D01*
X71140Y929660D01*
X71219Y929588D01*
X71304Y929522D01*
X71395Y929465D01*
X71490Y929415D01*
X71589Y929374D01*
X71691Y929342D01*
X71796Y929319D01*
X71902Y929305D01*
X72009Y929300D01*
X90551Y929300D01*
X90658Y929305D01*
X90764Y929319D01*
X90869Y929342D01*
X90971Y929374D01*
X91070Y929415D01*
X91166Y929465D01*
X91256Y929522D01*
X91341Y929588D01*
X91420Y929660D01*
X91492Y929739D01*
X91558Y929824D01*
X91615Y929915D01*
X91665Y930010D01*
X91706Y930109D01*
X91738Y930211D01*
X91761Y930316D01*
X91775Y930422D01*
X91780Y930529D01*
X91780Y949071D01*
X91775Y949178D01*
X91761Y949284D01*
X91738Y949389D01*
X91706Y949491D01*
X91665Y949590D01*
X91615Y949686D01*
X91558Y949776D01*
X91492Y949861D01*
X91420Y949940D01*
X91341Y950012D01*
X91256Y950078D01*
X91166Y950135D01*
X91070Y950185D01*
X90971Y950226D01*
X90869Y950258D01*
X90764Y950281D01*
X90658Y950295D01*
X90551Y950300D01*
X72009Y950300D01*
X71902Y950295D01*
X71796Y950281D01*
X71691Y950258D01*
X71589Y950226D01*
X71490Y950185D01*
X71395Y950135D01*
X71304Y950078D01*
X71219Y950012D01*
X71140Y949940D01*
X71068Y949861D01*
X71002Y949776D01*
X70945Y949686D01*
X70895Y949590D01*
X70854Y949491D01*
X70822Y949389D01*
X70799Y949284D01*
X70785Y949178D01*
X70780Y949071D01*
X70780Y930529D01*
X68240Y821309D02*
X68245Y821202D01*
X68259Y821096D01*
X68282Y820991D01*
X68314Y820889D01*
X68355Y820790D01*
X68405Y820695D01*
X68462Y820604D01*
X68528Y820519D01*
X68600Y820440D01*
X68679Y820368D01*
X68764Y820302D01*
X68855Y820245D01*
X68950Y820195D01*
X69049Y820154D01*
X69151Y820122D01*
X69256Y820099D01*
X69362Y820085D01*
X69469Y820080D01*
X88011Y820080D01*
X88118Y820085D01*
X88224Y820099D01*
X88329Y820122D01*
X88431Y820154D01*
X88530Y820195D01*
X88626Y820245D01*
X88716Y820302D01*
X88801Y820368D01*
X88880Y820440D01*
X88952Y820519D01*
X89018Y820604D01*
X89075Y820695D01*
X89125Y820790D01*
X89166Y820889D01*
X89198Y820991D01*
X89221Y821096D01*
X89235Y821202D01*
X89240Y821309D01*
X89240Y839851D01*
X89235Y839958D01*
X89221Y840064D01*
X89198Y840169D01*
X89166Y840271D01*
X89125Y840370D01*
X89075Y840466D01*
X89018Y840556D01*
X88952Y840641D01*
X88880Y840720D01*
X88801Y840792D01*
X88716Y840858D01*
X88626Y840915D01*
X88530Y840965D01*
X88431Y841006D01*
X88329Y841038D01*
X88224Y841061D01*
X88118Y841075D01*
X88011Y841080D01*
X69469Y841080D01*
X69362Y841075D01*
X69256Y841061D01*
X69151Y841038D01*
X69049Y841006D01*
X68950Y840965D01*
X68855Y840915D01*
X68764Y840858D01*
X68679Y840792D01*
X68600Y840720D01*
X68528Y840641D01*
X68462Y840556D01*
X68405Y840466D01*
X68355Y840370D01*
X68314Y840271D01*
X68282Y840169D01*
X68259Y840064D01*
X68245Y839958D01*
X68240Y839851D01*
X68240Y821309D01*
X230800Y927989D02*
X230805Y927882D01*
X230819Y927776D01*
X230842Y927671D01*
X230874Y927569D01*
X230915Y927470D01*
X230965Y927375D01*
X231022Y927284D01*
X231088Y927199D01*
X231160Y927120D01*
X231239Y927048D01*
X231324Y926982D01*
X231415Y926925D01*
X231510Y926875D01*
X231609Y926834D01*
X231711Y926802D01*
X231816Y926779D01*
X231922Y926765D01*
X232029Y926760D01*
X250571Y926760D01*
X250678Y926765D01*
X250784Y926779D01*
X250889Y926802D01*
X250991Y926834D01*
X251090Y926875D01*
X251186Y926925D01*
X251276Y926982D01*
X251361Y927048D01*
X251440Y927120D01*
X251512Y927199D01*
X251578Y927284D01*
X251635Y927375D01*
X251685Y927470D01*
X251726Y927569D01*
X251758Y927671D01*
X251781Y927776D01*
X251795Y927882D01*
X251800Y927989D01*
X251800Y946531D01*
X251795Y946638D01*
X251781Y946744D01*
X251758Y946849D01*
X251726Y946951D01*
X251685Y947050D01*
X251635Y947146D01*
X251578Y947236D01*
X251512Y947321D01*
X251440Y947400D01*
X251361Y947472D01*
X251276Y947538D01*
X251186Y947595D01*
X251090Y947645D01*
X250991Y947686D01*
X250889Y947718D01*
X250784Y947741D01*
X250678Y947755D01*
X250571Y947760D01*
X232029Y947760D01*
X231922Y947755D01*
X231816Y947741D01*
X231711Y947718D01*
X231609Y947686D01*
X231510Y947645D01*
X231415Y947595D01*
X231324Y947538D01*
X231239Y947472D01*
X231160Y947400D01*
X231088Y947321D01*
X231022Y947236D01*
X230965Y947146D01*
X230915Y947050D01*
X230874Y946951D01*
X230842Y946849D01*
X230819Y946744D01*
X230805Y946638D01*
X230800Y946531D01*
X230800Y927989D01*
X662283Y557467D02*
X662287Y557359D01*
X662301Y557253D01*
X662324Y557148D01*
X662357Y557046D01*
X662398Y556947D01*
X662447Y556852D01*
X662505Y556762D01*
X662570Y556677D01*
X662642Y556597D01*
X662722Y556525D01*
X662807Y556460D01*
X662897Y556402D01*
X662992Y556353D01*
X663091Y556312D01*
X663193Y556279D01*
X663298Y556256D01*
X663404Y556242D01*
X663512Y556238D01*
X682054Y556238D01*
X682161Y556242D01*
X682267Y556256D01*
X682372Y556279D01*
X682474Y556312D01*
X682573Y556353D01*
X682668Y556402D01*
X682758Y556460D01*
X682844Y556525D01*
X682923Y556597D01*
X682995Y556677D01*
X683060Y556762D01*
X683118Y556852D01*
X683167Y556947D01*
X683208Y557046D01*
X683241Y557148D01*
X683264Y557253D01*
X683278Y557359D01*
X683283Y557467D01*
X683283Y576009D01*
X683278Y576116D01*
X683264Y576222D01*
X683241Y576327D01*
X683208Y576429D01*
X683167Y576528D01*
X683118Y576623D01*
X683060Y576713D01*
X682995Y576799D01*
X682923Y576878D01*
X682844Y576950D01*
X682758Y577015D01*
X682668Y577073D01*
X682573Y577122D01*
X682474Y577163D01*
X682372Y577196D01*
X682267Y577219D01*
X682161Y577233D01*
X682054Y577238D01*
X663512Y577238D01*
X663404Y577233D01*
X663298Y577219D01*
X663193Y577196D01*
X663091Y577163D01*
X662992Y577122D01*
X662897Y577073D01*
X662807Y577015D01*
X662722Y576950D01*
X662642Y576878D01*
X662570Y576799D01*
X662505Y576713D01*
X662447Y576623D01*
X662398Y576528D01*
X662357Y576429D01*
X662324Y576327D01*
X662301Y576222D01*
X662287Y576116D01*
X662283Y576009D01*
X662283Y557467D01*
X726100Y821309D02*
X726105Y821202D01*
X726119Y821096D01*
X726142Y820991D01*
X726174Y820889D01*
X726215Y820790D01*
X726265Y820695D01*
X726322Y820604D01*
X726388Y820519D01*
X726460Y820440D01*
X726539Y820368D01*
X726624Y820302D01*
X726715Y820245D01*
X726810Y820195D01*
X726909Y820154D01*
X727011Y820122D01*
X727116Y820099D01*
X727222Y820085D01*
X727329Y820080D01*
X745871Y820080D01*
X745978Y820085D01*
X746084Y820099D01*
X746189Y820122D01*
X746291Y820154D01*
X746390Y820195D01*
X746486Y820245D01*
X746576Y820302D01*
X746661Y820368D01*
X746740Y820440D01*
X746812Y820519D01*
X746878Y820604D01*
X746935Y820695D01*
X746985Y820790D01*
X747026Y820889D01*
X747058Y820991D01*
X747081Y821096D01*
X747095Y821202D01*
X747100Y821309D01*
X747100Y839851D01*
X747095Y839958D01*
X747081Y840064D01*
X747058Y840169D01*
X747026Y840271D01*
X746985Y840370D01*
X746935Y840466D01*
X746878Y840556D01*
X746812Y840641D01*
X746740Y840720D01*
X746661Y840792D01*
X746576Y840858D01*
X746486Y840915D01*
X746390Y840965D01*
X746291Y841006D01*
X746189Y841038D01*
X746084Y841061D01*
X745978Y841075D01*
X745871Y841080D01*
X727329Y841080D01*
X727222Y841075D01*
X727116Y841061D01*
X727011Y841038D01*
X726909Y841006D01*
X726810Y840965D01*
X726715Y840915D01*
X726624Y840858D01*
X726539Y840792D01*
X726460Y840720D01*
X726388Y840641D01*
X726322Y840556D01*
X726265Y840466D01*
X726215Y840370D01*
X726174Y840271D01*
X726142Y840169D01*
X726119Y840064D01*
X726105Y839958D01*
X726100Y839851D01*
X726100Y821309D01*
X395900Y927989D02*
X395905Y927882D01*
X395919Y927776D01*
X395942Y927671D01*
X395974Y927569D01*
X396015Y927470D01*
X396065Y927375D01*
X396122Y927284D01*
X396188Y927199D01*
X396260Y927120D01*
X396339Y927048D01*
X396424Y926982D01*
X396515Y926925D01*
X396610Y926875D01*
X396709Y926834D01*
X396811Y926802D01*
X396916Y926779D01*
X397022Y926765D01*
X397129Y926760D01*
X415671Y926760D01*
X415778Y926765D01*
X415884Y926779D01*
X415989Y926802D01*
X416091Y926834D01*
X416190Y926875D01*
X416286Y926925D01*
X416376Y926982D01*
X416461Y927048D01*
X416540Y927120D01*
X416612Y927199D01*
X416678Y927284D01*
X416735Y927375D01*
X416785Y927470D01*
X416826Y927569D01*
X416858Y927671D01*
X416881Y927776D01*
X416895Y927882D01*
X416900Y927989D01*
X416900Y946531D01*
X416895Y946638D01*
X416881Y946744D01*
X416858Y946849D01*
X416826Y946951D01*
X416785Y947050D01*
X416735Y947146D01*
X416678Y947236D01*
X416612Y947321D01*
X416540Y947400D01*
X416461Y947472D01*
X416376Y947538D01*
X416286Y947595D01*
X416190Y947645D01*
X416091Y947686D01*
X415989Y947718D01*
X415884Y947741D01*
X415778Y947755D01*
X415671Y947760D01*
X397129Y947760D01*
X397022Y947755D01*
X396916Y947741D01*
X396811Y947718D01*
X396709Y947686D01*
X396610Y947645D01*
X396515Y947595D01*
X396424Y947538D01*
X396339Y947472D01*
X396260Y947400D01*
X396188Y947321D01*
X396122Y947236D01*
X396065Y947146D01*
X396015Y947050D01*
X395974Y946951D01*
X395942Y946849D01*
X395919Y946744D01*
X395905Y946638D01*
X395900Y946531D01*
X395900Y927989D01*
X807063Y397447D02*
X807067Y397339D01*
X807081Y397233D01*
X807104Y397128D01*
X807137Y397026D01*
X807178Y396927D01*
X807227Y396832D01*
X807285Y396742D01*
X807350Y396657D01*
X807422Y396577D01*
X807502Y396505D01*
X807587Y396440D01*
X807677Y396382D01*
X807772Y396333D01*
X807871Y396292D01*
X807973Y396259D01*
X808078Y396236D01*
X808184Y396222D01*
X808292Y396218D01*
X826834Y396218D01*
X826941Y396222D01*
X827047Y396236D01*
X827152Y396259D01*
X827254Y396292D01*
X827353Y396333D01*
X827448Y396382D01*
X827538Y396440D01*
X827624Y396505D01*
X827703Y396577D01*
X827775Y396657D01*
X827840Y396742D01*
X827898Y396832D01*
X827947Y396927D01*
X827988Y397026D01*
X828021Y397128D01*
X828044Y397233D01*
X828058Y397339D01*
X828063Y397447D01*
X828063Y415989D01*
X828058Y416096D01*
X828044Y416202D01*
X828021Y416307D01*
X827988Y416409D01*
X827947Y416508D01*
X827898Y416603D01*
X827840Y416693D01*
X827775Y416779D01*
X827703Y416858D01*
X827624Y416930D01*
X827538Y416995D01*
X827448Y417053D01*
X827353Y417102D01*
X827254Y417143D01*
X827152Y417176D01*
X827047Y417199D01*
X826941Y417213D01*
X826834Y417218D01*
X808292Y417218D01*
X808184Y417213D01*
X808078Y417199D01*
X807973Y417176D01*
X807871Y417143D01*
X807772Y417102D01*
X807677Y417053D01*
X807587Y416995D01*
X807502Y416930D01*
X807422Y416858D01*
X807350Y416779D01*
X807285Y416693D01*
X807227Y416603D01*
X807178Y416508D01*
X807137Y416409D01*
X807104Y416307D01*
X807081Y416202D01*
X807067Y416096D01*
X807063Y415989D01*
X807063Y397447D01*
X723560Y925449D02*
X723565Y925342D01*
X723579Y925236D01*
X723602Y925131D01*
X723634Y925029D01*
X723675Y924930D01*
X723725Y924835D01*
X723782Y924744D01*
X723848Y924659D01*
X723920Y924580D01*
X723999Y924508D01*
X724084Y924442D01*
X724175Y924385D01*
X724270Y924335D01*
X724369Y924294D01*
X724471Y924262D01*
X724576Y924239D01*
X724682Y924225D01*
X724789Y924220D01*
X743331Y924220D01*
X743438Y924225D01*
X743544Y924239D01*
X743649Y924262D01*
X743751Y924294D01*
X743850Y924335D01*
X743946Y924385D01*
X744036Y924442D01*
X744121Y924508D01*
X744200Y924580D01*
X744272Y924659D01*
X744338Y924744D01*
X744395Y924835D01*
X744445Y924930D01*
X744486Y925029D01*
X744518Y925131D01*
X744541Y925236D01*
X744555Y925342D01*
X744560Y925449D01*
X744560Y943991D01*
X744555Y944098D01*
X744541Y944204D01*
X744518Y944309D01*
X744486Y944411D01*
X744445Y944510D01*
X744395Y944606D01*
X744338Y944696D01*
X744272Y944781D01*
X744200Y944860D01*
X744121Y944932D01*
X744036Y944998D01*
X743946Y945055D01*
X743850Y945105D01*
X743751Y945146D01*
X743649Y945178D01*
X743544Y945201D01*
X743438Y945215D01*
X743331Y945220D01*
X724789Y945220D01*
X724682Y945215D01*
X724576Y945201D01*
X724471Y945178D01*
X724369Y945146D01*
X724270Y945105D01*
X724175Y945055D01*
X724084Y944998D01*
X723999Y944932D01*
X723920Y944860D01*
X723848Y944781D01*
X723782Y944696D01*
X723725Y944606D01*
X723675Y944510D01*
X723634Y944411D01*
X723602Y944309D01*
X723579Y944204D01*
X723565Y944098D01*
X723560Y943991D01*
X723560Y925449D01*
X1216320Y209169D02*
X1216325Y209062D01*
X1216339Y208956D01*
X1216362Y208851D01*
X1216394Y208749D01*
X1216435Y208650D01*
X1216485Y208555D01*
X1216542Y208464D01*
X1216608Y208379D01*
X1216680Y208300D01*
X1216759Y208228D01*
X1216844Y208162D01*
X1216935Y208105D01*
X1217030Y208055D01*
X1217129Y208014D01*
X1217231Y207982D01*
X1217336Y207959D01*
X1217442Y207945D01*
X1217549Y207940D01*
X1236091Y207940D01*
X1236198Y207945D01*
X1236304Y207959D01*
X1236409Y207982D01*
X1236511Y208014D01*
X1236610Y208055D01*
X1236706Y208105D01*
X1236796Y208162D01*
X1236881Y208228D01*
X1236960Y208300D01*
X1237032Y208379D01*
X1237098Y208464D01*
X1237155Y208555D01*
X1237205Y208650D01*
X1237246Y208749D01*
X1237278Y208851D01*
X1237301Y208956D01*
X1237315Y209062D01*
X1237320Y209169D01*
X1237320Y227711D01*
X1237315Y227818D01*
X1237301Y227924D01*
X1237278Y228029D01*
X1237246Y228131D01*
X1237205Y228230D01*
X1237155Y228326D01*
X1237098Y228416D01*
X1237032Y228501D01*
X1236960Y228580D01*
X1236881Y228652D01*
X1236796Y228718D01*
X1236706Y228775D01*
X1236610Y228825D01*
X1236511Y228866D01*
X1236409Y228898D01*
X1236304Y228921D01*
X1236198Y228935D01*
X1236091Y228940D01*
X1217549Y228940D01*
X1217442Y228935D01*
X1217336Y228921D01*
X1217231Y228898D01*
X1217129Y228866D01*
X1217030Y228825D01*
X1216935Y228775D01*
X1216844Y228718D01*
X1216759Y228652D01*
X1216680Y228580D01*
X1216608Y228501D01*
X1216542Y228416D01*
X1216485Y228326D01*
X1216435Y228230D01*
X1216394Y228131D01*
X1216362Y228029D01*
X1216339Y227924D01*
X1216325Y227818D01*
X1216320Y227711D01*
X1216320Y209169D01*
X561000Y816229D02*
X561005Y816122D01*
X561019Y816016D01*
X561042Y815911D01*
X561074Y815809D01*
X561115Y815710D01*
X561165Y815615D01*
X561222Y815524D01*
X561288Y815439D01*
X561360Y815360D01*
X561439Y815288D01*
X561524Y815222D01*
X561615Y815165D01*
X561710Y815115D01*
X561809Y815074D01*
X561911Y815042D01*
X562016Y815019D01*
X562122Y815005D01*
X562229Y815000D01*
X580771Y815000D01*
X580878Y815005D01*
X580984Y815019D01*
X581089Y815042D01*
X581191Y815074D01*
X581290Y815115D01*
X581386Y815165D01*
X581476Y815222D01*
X581561Y815288D01*
X581640Y815360D01*
X581712Y815439D01*
X581778Y815524D01*
X581835Y815615D01*
X581885Y815710D01*
X581926Y815809D01*
X581958Y815911D01*
X581981Y816016D01*
X581995Y816122D01*
X582000Y816229D01*
X582000Y834771D01*
X581995Y834878D01*
X581981Y834984D01*
X581958Y835089D01*
X581926Y835191D01*
X581885Y835290D01*
X581835Y835386D01*
X581778Y835476D01*
X581712Y835561D01*
X581640Y835640D01*
X581561Y835712D01*
X581476Y835778D01*
X581386Y835835D01*
X581290Y835885D01*
X581191Y835926D01*
X581089Y835958D01*
X580984Y835981D01*
X580878Y835995D01*
X580771Y836000D01*
X562229Y836000D01*
X562122Y835995D01*
X562016Y835981D01*
X561911Y835958D01*
X561809Y835926D01*
X561710Y835885D01*
X561615Y835835D01*
X561524Y835778D01*
X561439Y835712D01*
X561360Y835640D01*
X561288Y835561D01*
X561222Y835476D01*
X561165Y835386D01*
X561115Y835290D01*
X561074Y835191D01*
X561042Y835089D01*
X561019Y834984D01*
X561005Y834878D01*
X561000Y834771D01*
X561000Y816229D01*
X561000Y206629D02*
X561005Y206522D01*
X561019Y206416D01*
X561042Y206311D01*
X561074Y206209D01*
X561115Y206110D01*
X561165Y206015D01*
X561222Y205924D01*
X561288Y205839D01*
X561360Y205760D01*
X561439Y205688D01*
X561524Y205622D01*
X561615Y205565D01*
X561710Y205515D01*
X561809Y205474D01*
X561911Y205442D01*
X562016Y205419D01*
X562122Y205405D01*
X562229Y205400D01*
X580771Y205400D01*
X580878Y205405D01*
X580984Y205419D01*
X581089Y205442D01*
X581191Y205474D01*
X581290Y205515D01*
X581386Y205565D01*
X581476Y205622D01*
X581561Y205688D01*
X581640Y205760D01*
X581712Y205839D01*
X581778Y205924D01*
X581835Y206015D01*
X581885Y206110D01*
X581926Y206209D01*
X581958Y206311D01*
X581981Y206416D01*
X581995Y206522D01*
X582000Y206629D01*
X582000Y225171D01*
X581995Y225278D01*
X581981Y225384D01*
X581958Y225489D01*
X581926Y225591D01*
X581885Y225690D01*
X581835Y225786D01*
X581778Y225876D01*
X581712Y225961D01*
X581640Y226040D01*
X581561Y226112D01*
X581476Y226178D01*
X581386Y226235D01*
X581290Y226285D01*
X581191Y226326D01*
X581089Y226358D01*
X580984Y226381D01*
X580878Y226395D01*
X580771Y226400D01*
X562229Y226400D01*
X562122Y226395D01*
X562016Y226381D01*
X561911Y226358D01*
X561809Y226326D01*
X561710Y226285D01*
X561615Y226235D01*
X561524Y226178D01*
X561439Y226112D01*
X561360Y226040D01*
X561288Y225961D01*
X561222Y225876D01*
X561165Y225786D01*
X561115Y225690D01*
X561074Y225591D01*
X561042Y225489D01*
X561019Y225384D01*
X561005Y225278D01*
X561000Y225171D01*
X561000Y206629D01*
X233340Y818769D02*
X233345Y818662D01*
X233359Y818556D01*
X233382Y818451D01*
X233414Y818349D01*
X233455Y818250D01*
X233505Y818155D01*
X233562Y818064D01*
X233628Y817979D01*
X233700Y817900D01*
X233779Y817828D01*
X233864Y817762D01*
X233955Y817705D01*
X234050Y817655D01*
X234149Y817614D01*
X234251Y817582D01*
X234356Y817559D01*
X234462Y817545D01*
X234569Y817540D01*
X253111Y817540D01*
X253218Y817545D01*
X253324Y817559D01*
X253429Y817582D01*
X253531Y817614D01*
X253630Y817655D01*
X253726Y817705D01*
X253816Y817762D01*
X253901Y817828D01*
X253980Y817900D01*
X254052Y817979D01*
X254118Y818064D01*
X254175Y818155D01*
X254225Y818250D01*
X254266Y818349D01*
X254298Y818451D01*
X254321Y818556D01*
X254335Y818662D01*
X254340Y818769D01*
X254340Y837311D01*
X254335Y837418D01*
X254321Y837524D01*
X254298Y837629D01*
X254266Y837731D01*
X254225Y837830D01*
X254175Y837926D01*
X254118Y838016D01*
X254052Y838101D01*
X253980Y838180D01*
X253901Y838252D01*
X253816Y838318D01*
X253726Y838375D01*
X253630Y838425D01*
X253531Y838466D01*
X253429Y838498D01*
X253324Y838521D01*
X253218Y838535D01*
X253111Y838540D01*
X234569Y838540D01*
X234462Y838535D01*
X234356Y838521D01*
X234251Y838498D01*
X234149Y838466D01*
X234050Y838425D01*
X233955Y838375D01*
X233864Y838318D01*
X233779Y838252D01*
X233700Y838180D01*
X233628Y838101D01*
X233562Y838016D01*
X233505Y837926D01*
X233455Y837830D01*
X233414Y837731D01*
X233382Y837629D01*
X233359Y837524D01*
X233345Y837418D01*
X233340Y837311D01*
X233340Y818769D01*
X561000Y927989D02*
X561005Y927882D01*
X561019Y927776D01*
X561042Y927671D01*
X561074Y927569D01*
X561115Y927470D01*
X561165Y927375D01*
X561222Y927284D01*
X561288Y927199D01*
X561360Y927120D01*
X561439Y927048D01*
X561524Y926982D01*
X561615Y926925D01*
X561710Y926875D01*
X561809Y926834D01*
X561911Y926802D01*
X562016Y926779D01*
X562122Y926765D01*
X562229Y926760D01*
X580771Y926760D01*
X580878Y926765D01*
X580984Y926779D01*
X581089Y926802D01*
X581191Y926834D01*
X581290Y926875D01*
X581386Y926925D01*
X581476Y926982D01*
X581561Y927048D01*
X581640Y927120D01*
X581712Y927199D01*
X581778Y927284D01*
X581835Y927375D01*
X581885Y927470D01*
X581926Y927569D01*
X581958Y927671D01*
X581981Y927776D01*
X581995Y927882D01*
X582000Y927989D01*
X582000Y946531D01*
X581995Y946638D01*
X581981Y946744D01*
X581958Y946849D01*
X581926Y946951D01*
X581885Y947050D01*
X581835Y947146D01*
X581778Y947236D01*
X581712Y947321D01*
X581640Y947400D01*
X581561Y947472D01*
X581476Y947538D01*
X581386Y947595D01*
X581290Y947645D01*
X581191Y947686D01*
X581089Y947718D01*
X580984Y947741D01*
X580878Y947755D01*
X580771Y947760D01*
X562229Y947760D01*
X562122Y947755D01*
X562016Y947741D01*
X561911Y947718D01*
X561809Y947686D01*
X561710Y947645D01*
X561615Y947595D01*
X561524Y947538D01*
X561439Y947472D01*
X561360Y947400D01*
X561288Y947321D01*
X561222Y947236D01*
X561165Y947146D01*
X561115Y947050D01*
X561074Y946951D01*
X561042Y946849D01*
X561019Y946744D01*
X561005Y946638D01*
X561000Y946531D01*
X561000Y927989D01*
X789283Y557467D02*
X789287Y557359D01*
X789301Y557253D01*
X789324Y557148D01*
X789357Y557046D01*
X789398Y556947D01*
X789447Y556852D01*
X789505Y556762D01*
X789570Y556677D01*
X789642Y556597D01*
X789722Y556525D01*
X789807Y556460D01*
X789897Y556402D01*
X789992Y556353D01*
X790091Y556312D01*
X790193Y556279D01*
X790298Y556256D01*
X790404Y556242D01*
X790512Y556238D01*
X809054Y556238D01*
X809161Y556242D01*
X809267Y556256D01*
X809372Y556279D01*
X809474Y556312D01*
X809573Y556353D01*
X809668Y556402D01*
X809758Y556460D01*
X809844Y556525D01*
X809923Y556597D01*
X809995Y556677D01*
X810060Y556762D01*
X810118Y556852D01*
X810167Y556947D01*
X810208Y557046D01*
X810241Y557148D01*
X810264Y557253D01*
X810278Y557359D01*
X810283Y557467D01*
X810283Y576009D01*
X810278Y576116D01*
X810264Y576222D01*
X810241Y576327D01*
X810208Y576429D01*
X810167Y576528D01*
X810118Y576623D01*
X810060Y576713D01*
X809995Y576799D01*
X809923Y576878D01*
X809844Y576950D01*
X809758Y577015D01*
X809668Y577073D01*
X809573Y577122D01*
X809474Y577163D01*
X809372Y577196D01*
X809267Y577219D01*
X809161Y577233D01*
X809054Y577238D01*
X790512Y577238D01*
X790404Y577233D01*
X790298Y577219D01*
X790193Y577196D01*
X790091Y577163D01*
X789992Y577122D01*
X789897Y577073D01*
X789807Y577015D01*
X789722Y576950D01*
X789642Y576878D01*
X789570Y576799D01*
X789505Y576713D01*
X789447Y576623D01*
X789398Y576528D01*
X789357Y576429D01*
X789324Y576327D01*
X789301Y576222D01*
X789287Y576116D01*
X789283Y576009D01*
X789283Y557467D01*
X725783Y570167D02*
X725787Y570059D01*
X725801Y569953D01*
X725824Y569848D01*
X725857Y569746D01*
X725898Y569647D01*
X725947Y569552D01*
X726005Y569462D01*
X726070Y569377D01*
X726142Y569297D01*
X726222Y569225D01*
X726307Y569160D01*
X726397Y569102D01*
X726492Y569053D01*
X726591Y569012D01*
X726693Y568979D01*
X726798Y568956D01*
X726904Y568942D01*
X727012Y568938D01*
X745554Y568938D01*
X745661Y568942D01*
X745767Y568956D01*
X745872Y568979D01*
X745974Y569012D01*
X746073Y569053D01*
X746168Y569102D01*
X746258Y569160D01*
X746344Y569225D01*
X746423Y569297D01*
X746495Y569377D01*
X746560Y569462D01*
X746618Y569552D01*
X746667Y569647D01*
X746708Y569746D01*
X746741Y569848D01*
X746764Y569953D01*
X746778Y570059D01*
X746783Y570167D01*
X746783Y588709D01*
X746778Y588816D01*
X746764Y588922D01*
X746741Y589027D01*
X746708Y589129D01*
X746667Y589228D01*
X746618Y589323D01*
X746560Y589413D01*
X746495Y589499D01*
X746423Y589578D01*
X746344Y589650D01*
X746258Y589715D01*
X746168Y589773D01*
X746073Y589822D01*
X745974Y589863D01*
X745872Y589896D01*
X745767Y589919D01*
X745661Y589933D01*
X745554Y589938D01*
X727012Y589938D01*
X726904Y589933D01*
X726798Y589919D01*
X726693Y589896D01*
X726591Y589863D01*
X726492Y589822D01*
X726397Y589773D01*
X726307Y589715D01*
X726222Y589650D01*
X726142Y589578D01*
X726070Y589499D01*
X726005Y589413D01*
X725947Y589323D01*
X725898Y589228D01*
X725857Y589129D01*
X725824Y589027D01*
X725801Y588922D01*
X725787Y588816D01*
X725783Y588709D01*
X725783Y570167D01*
X395900Y821309D02*
X395905Y821202D01*
X395919Y821096D01*
X395942Y820991D01*
X395974Y820889D01*
X396015Y820790D01*
X396065Y820695D01*
X396122Y820604D01*
X396188Y820519D01*
X396260Y820440D01*
X396339Y820368D01*
X396424Y820302D01*
X396515Y820245D01*
X396610Y820195D01*
X396709Y820154D01*
X396811Y820122D01*
X396916Y820099D01*
X397022Y820085D01*
X397129Y820080D01*
X415671Y820080D01*
X415778Y820085D01*
X415884Y820099D01*
X415989Y820122D01*
X416091Y820154D01*
X416190Y820195D01*
X416286Y820245D01*
X416376Y820302D01*
X416461Y820368D01*
X416540Y820440D01*
X416612Y820519D01*
X416678Y820604D01*
X416735Y820695D01*
X416785Y820790D01*
X416826Y820889D01*
X416858Y820991D01*
X416881Y821096D01*
X416895Y821202D01*
X416900Y821309D01*
X416900Y839851D01*
X416895Y839958D01*
X416881Y840064D01*
X416858Y840169D01*
X416826Y840271D01*
X416785Y840370D01*
X416735Y840466D01*
X416678Y840556D01*
X416612Y840641D01*
X416540Y840720D01*
X416461Y840792D01*
X416376Y840858D01*
X416286Y840915D01*
X416190Y840965D01*
X416091Y841006D01*
X415989Y841038D01*
X415884Y841061D01*
X415778Y841075D01*
X415671Y841080D01*
X397129Y841080D01*
X397022Y841075D01*
X396916Y841061D01*
X396811Y841038D01*
X396709Y841006D01*
X396610Y840965D01*
X396515Y840915D01*
X396424Y840858D01*
X396339Y840792D01*
X396260Y840720D01*
X396188Y840641D01*
X396122Y840556D01*
X396065Y840466D01*
X396015Y840370D01*
X395974Y840271D01*
X395942Y840169D01*
X395919Y840064D01*
X395905Y839958D01*
X395900Y839851D01*
X395900Y821309D01*
X395900Y206629D02*
X395905Y206522D01*
X395919Y206416D01*
X395942Y206311D01*
X395974Y206209D01*
X396015Y206110D01*
X396065Y206015D01*
X396122Y205924D01*
X396188Y205839D01*
X396260Y205760D01*
X396339Y205688D01*
X396424Y205622D01*
X396515Y205565D01*
X396610Y205515D01*
X396709Y205474D01*
X396811Y205442D01*
X396916Y205419D01*
X397022Y205405D01*
X397129Y205400D01*
X415671Y205400D01*
X415778Y205405D01*
X415884Y205419D01*
X415989Y205442D01*
X416091Y205474D01*
X416190Y205515D01*
X416286Y205565D01*
X416376Y205622D01*
X416461Y205688D01*
X416540Y205760D01*
X416612Y205839D01*
X416678Y205924D01*
X416735Y206015D01*
X416785Y206110D01*
X416826Y206209D01*
X416858Y206311D01*
X416881Y206416D01*
X416895Y206522D01*
X416900Y206629D01*
X416900Y225171D01*
X416895Y225278D01*
X416881Y225384D01*
X416858Y225489D01*
X416826Y225591D01*
X416785Y225690D01*
X416735Y225786D01*
X416678Y225876D01*
X416612Y225961D01*
X416540Y226040D01*
X416461Y226112D01*
X416376Y226178D01*
X416286Y226235D01*
X416190Y226285D01*
X416091Y226326D01*
X415989Y226358D01*
X415884Y226381D01*
X415778Y226395D01*
X415671Y226400D01*
X397129Y226400D01*
X397022Y226395D01*
X396916Y226381D01*
X396811Y226358D01*
X396709Y226326D01*
X396610Y226285D01*
X396515Y226235D01*
X396424Y226178D01*
X396339Y226112D01*
X396260Y226040D01*
X396188Y225961D01*
X396122Y225876D01*
X396065Y225786D01*
X396015Y225690D01*
X395974Y225591D01*
X395942Y225489D01*
X395919Y225384D01*
X395905Y225278D01*
X395900Y225171D01*
X395900Y206629D01*
X230800Y206629D02*
X230805Y206522D01*
X230819Y206416D01*
X230842Y206311D01*
X230874Y206209D01*
X230915Y206110D01*
X230965Y206015D01*
X231022Y205924D01*
X231088Y205839D01*
X231160Y205760D01*
X231239Y205688D01*
X231324Y205622D01*
X231415Y205565D01*
X231510Y205515D01*
X231609Y205474D01*
X231711Y205442D01*
X231816Y205419D01*
X231922Y205405D01*
X232029Y205400D01*
X250571Y205400D01*
X250678Y205405D01*
X250784Y205419D01*
X250889Y205442D01*
X250991Y205474D01*
X251090Y205515D01*
X251186Y205565D01*
X251276Y205622D01*
X251361Y205688D01*
X251440Y205760D01*
X251512Y205839D01*
X251578Y205924D01*
X251635Y206015D01*
X251685Y206110D01*
X251726Y206209D01*
X251758Y206311D01*
X251781Y206416D01*
X251795Y206522D01*
X251800Y206629D01*
X251800Y225171D01*
X251795Y225278D01*
X251781Y225384D01*
X251758Y225489D01*
X251726Y225591D01*
X251685Y225690D01*
X251635Y225786D01*
X251578Y225876D01*
X251512Y225961D01*
X251440Y226040D01*
X251361Y226112D01*
X251276Y226178D01*
X251186Y226235D01*
X251090Y226285D01*
X250991Y226326D01*
X250889Y226358D01*
X250784Y226381D01*
X250678Y226395D01*
X250571Y226400D01*
X232029Y226400D01*
X231922Y226395D01*
X231816Y226381D01*
X231711Y226358D01*
X231609Y226326D01*
X231510Y226285D01*
X231415Y226235D01*
X231324Y226178D01*
X231239Y226112D01*
X231160Y226040D01*
X231088Y225961D01*
X231022Y225876D01*
X230965Y225786D01*
X230915Y225690D01*
X230874Y225591D01*
X230842Y225489D01*
X230819Y225384D01*
X230805Y225278D01*
X230800Y225171D01*
X230800Y206629D01*
X891200Y206629D02*
X891205Y206522D01*
X891219Y206416D01*
X891242Y206311D01*
X891274Y206209D01*
X891315Y206110D01*
X891365Y206015D01*
X891422Y205924D01*
X891488Y205839D01*
X891560Y205760D01*
X891639Y205688D01*
X891724Y205622D01*
X891815Y205565D01*
X891910Y205515D01*
X892009Y205474D01*
X892111Y205442D01*
X892216Y205419D01*
X892322Y205405D01*
X892429Y205400D01*
X910971Y205400D01*
X911078Y205405D01*
X911184Y205419D01*
X911289Y205442D01*
X911391Y205474D01*
X911490Y205515D01*
X911586Y205565D01*
X911676Y205622D01*
X911761Y205688D01*
X911840Y205760D01*
X911912Y205839D01*
X911978Y205924D01*
X912035Y206015D01*
X912085Y206110D01*
X912126Y206209D01*
X912158Y206311D01*
X912181Y206416D01*
X912195Y206522D01*
X912200Y206629D01*
X912200Y225171D01*
X912195Y225278D01*
X912181Y225384D01*
X912158Y225489D01*
X912126Y225591D01*
X912085Y225690D01*
X912035Y225786D01*
X911978Y225876D01*
X911912Y225961D01*
X911840Y226040D01*
X911761Y226112D01*
X911676Y226178D01*
X911586Y226235D01*
X911490Y226285D01*
X911391Y226326D01*
X911289Y226358D01*
X911184Y226381D01*
X911078Y226395D01*
X910971Y226400D01*
X892429Y226400D01*
X892322Y226395D01*
X892216Y226381D01*
X892111Y226358D01*
X892009Y226326D01*
X891910Y226285D01*
X891815Y226235D01*
X891724Y226178D01*
X891639Y226112D01*
X891560Y226040D01*
X891488Y225961D01*
X891422Y225876D01*
X891365Y225786D01*
X891315Y225690D01*
X891274Y225591D01*
X891242Y225489D01*
X891219Y225384D01*
X891205Y225278D01*
X891200Y225171D01*
X891200Y206629D01*
X903583Y493967D02*
X903587Y493859D01*
X903601Y493753D01*
X903624Y493648D01*
X903657Y493546D01*
X903698Y493447D01*
X903747Y493352D01*
X903805Y493262D01*
X903870Y493177D01*
X903942Y493097D01*
X904022Y493025D01*
X904107Y492960D01*
X904197Y492902D01*
X904292Y492853D01*
X904391Y492812D01*
X904493Y492779D01*
X904598Y492756D01*
X904704Y492742D01*
X904812Y492738D01*
X923354Y492738D01*
X923461Y492742D01*
X923567Y492756D01*
X923672Y492779D01*
X923774Y492812D01*
X923873Y492853D01*
X923968Y492902D01*
X924058Y492960D01*
X924144Y493025D01*
X924223Y493097D01*
X924295Y493177D01*
X924360Y493262D01*
X924418Y493352D01*
X924467Y493447D01*
X924508Y493546D01*
X924541Y493648D01*
X924564Y493753D01*
X924578Y493859D01*
X924583Y493967D01*
X924583Y512509D01*
X924578Y512616D01*
X924564Y512722D01*
X924541Y512827D01*
X924508Y512929D01*
X924467Y513028D01*
X924418Y513123D01*
X924360Y513213D01*
X924295Y513299D01*
X924223Y513378D01*
X924144Y513450D01*
X924058Y513515D01*
X923968Y513573D01*
X923873Y513622D01*
X923774Y513663D01*
X923672Y513696D01*
X923567Y513719D01*
X923461Y513733D01*
X923354Y513738D01*
X904812Y513738D01*
X904704Y513733D01*
X904598Y513719D01*
X904493Y513696D01*
X904391Y513663D01*
X904292Y513622D01*
X904197Y513573D01*
X904107Y513515D01*
X904022Y513450D01*
X903942Y513378D01*
X903870Y513299D01*
X903805Y513213D01*
X903747Y513123D01*
X903698Y513028D01*
X903657Y512929D01*
X903624Y512827D01*
X903601Y512722D01*
X903587Y512616D01*
X903583Y512509D01*
X903583Y493967D01*
X560683Y397447D02*
X560687Y397339D01*
X560701Y397233D01*
X560724Y397128D01*
X560757Y397026D01*
X560798Y396927D01*
X560847Y396832D01*
X560905Y396742D01*
X560970Y396657D01*
X561042Y396577D01*
X561122Y396505D01*
X561207Y396440D01*
X561297Y396382D01*
X561392Y396333D01*
X561491Y396292D01*
X561593Y396259D01*
X561698Y396236D01*
X561804Y396222D01*
X561912Y396218D01*
X580454Y396218D01*
X580561Y396222D01*
X580667Y396236D01*
X580772Y396259D01*
X580874Y396292D01*
X580973Y396333D01*
X581068Y396382D01*
X581158Y396440D01*
X581244Y396505D01*
X581323Y396577D01*
X581395Y396657D01*
X581460Y396742D01*
X581518Y396832D01*
X581567Y396927D01*
X581608Y397026D01*
X581641Y397128D01*
X581664Y397233D01*
X581678Y397339D01*
X581683Y397447D01*
X581683Y415989D01*
X581678Y416096D01*
X581664Y416202D01*
X581641Y416307D01*
X581608Y416409D01*
X581567Y416508D01*
X581518Y416603D01*
X581460Y416693D01*
X581395Y416779D01*
X581323Y416858D01*
X581244Y416930D01*
X581158Y416995D01*
X581068Y417053D01*
X580973Y417102D01*
X580874Y417143D01*
X580772Y417176D01*
X580667Y417199D01*
X580561Y417213D01*
X580454Y417218D01*
X561912Y417218D01*
X561804Y417213D01*
X561698Y417199D01*
X561593Y417176D01*
X561491Y417143D01*
X561392Y417102D01*
X561297Y417053D01*
X561207Y416995D01*
X561122Y416930D01*
X561042Y416858D01*
X560970Y416779D01*
X560905Y416693D01*
X560847Y416603D01*
X560798Y416508D01*
X560757Y416409D01*
X560724Y416307D01*
X560701Y416202D01*
X560687Y416096D01*
X560683Y415989D01*
X560683Y397447D01*
X547983Y493967D02*
X547987Y493859D01*
X548001Y493753D01*
X548024Y493648D01*
X548057Y493546D01*
X548098Y493447D01*
X548147Y493352D01*
X548205Y493262D01*
X548270Y493177D01*
X548342Y493097D01*
X548422Y493025D01*
X548507Y492960D01*
X548597Y492902D01*
X548692Y492853D01*
X548791Y492812D01*
X548893Y492779D01*
X548998Y492756D01*
X549104Y492742D01*
X549212Y492738D01*
X567754Y492738D01*
X567861Y492742D01*
X567967Y492756D01*
X568072Y492779D01*
X568174Y492812D01*
X568273Y492853D01*
X568368Y492902D01*
X568458Y492960D01*
X568544Y493025D01*
X568623Y493097D01*
X568695Y493177D01*
X568760Y493262D01*
X568818Y493352D01*
X568867Y493447D01*
X568908Y493546D01*
X568941Y493648D01*
X568964Y493753D01*
X568978Y493859D01*
X568983Y493967D01*
X568983Y512509D01*
X568978Y512616D01*
X568964Y512722D01*
X568941Y512827D01*
X568908Y512929D01*
X568867Y513028D01*
X568818Y513123D01*
X568760Y513213D01*
X568695Y513299D01*
X568623Y513378D01*
X568544Y513450D01*
X568458Y513515D01*
X568368Y513573D01*
X568273Y513622D01*
X568174Y513663D01*
X568072Y513696D01*
X567967Y513719D01*
X567861Y513733D01*
X567754Y513738D01*
X549212Y513738D01*
X549104Y513733D01*
X548998Y513719D01*
X548893Y513696D01*
X548791Y513663D01*
X548692Y513622D01*
X548597Y513573D01*
X548507Y513515D01*
X548422Y513450D01*
X548342Y513378D01*
X548270Y513299D01*
X548205Y513213D01*
X548147Y513123D01*
X548098Y513028D01*
X548057Y512929D01*
X548024Y512827D01*
X548001Y512722D01*
X547987Y512616D01*
X547983Y512509D01*
X547983Y493967D01*
X65700Y206629D02*
X65705Y206522D01*
X65719Y206416D01*
X65742Y206311D01*
X65774Y206209D01*
X65815Y206110D01*
X65865Y206015D01*
X65922Y205924D01*
X65988Y205839D01*
X66060Y205760D01*
X66139Y205688D01*
X66224Y205622D01*
X66315Y205565D01*
X66410Y205515D01*
X66509Y205474D01*
X66611Y205442D01*
X66716Y205419D01*
X66822Y205405D01*
X66929Y205400D01*
X85471Y205400D01*
X85578Y205405D01*
X85684Y205419D01*
X85789Y205442D01*
X85891Y205474D01*
X85990Y205515D01*
X86086Y205565D01*
X86176Y205622D01*
X86261Y205688D01*
X86340Y205760D01*
X86412Y205839D01*
X86478Y205924D01*
X86535Y206015D01*
X86585Y206110D01*
X86626Y206209D01*
X86658Y206311D01*
X86681Y206416D01*
X86695Y206522D01*
X86700Y206629D01*
X86700Y225171D01*
X86695Y225278D01*
X86681Y225384D01*
X86658Y225489D01*
X86626Y225591D01*
X86585Y225690D01*
X86535Y225786D01*
X86478Y225876D01*
X86412Y225961D01*
X86340Y226040D01*
X86261Y226112D01*
X86176Y226178D01*
X86086Y226235D01*
X85990Y226285D01*
X85891Y226326D01*
X85789Y226358D01*
X85684Y226381D01*
X85578Y226395D01*
X85471Y226400D01*
X66929Y226400D01*
X66822Y226395D01*
X66716Y226381D01*
X66611Y226358D01*
X66509Y226326D01*
X66410Y226285D01*
X66315Y226235D01*
X66224Y226178D01*
X66139Y226112D01*
X66060Y226040D01*
X65988Y225961D01*
X65922Y225876D01*
X65865Y225786D01*
X65815Y225690D01*
X65774Y225591D01*
X65742Y225489D01*
X65719Y225384D01*
X65705Y225278D01*
X65700Y225171D01*
X65700Y206629D01*
X1048680Y209169D02*
X1048685Y209062D01*
X1048699Y208956D01*
X1048722Y208851D01*
X1048754Y208749D01*
X1048795Y208650D01*
X1048845Y208555D01*
X1048902Y208464D01*
X1048968Y208379D01*
X1049040Y208300D01*
X1049119Y208228D01*
X1049204Y208162D01*
X1049295Y208105D01*
X1049390Y208055D01*
X1049489Y208014D01*
X1049591Y207982D01*
X1049696Y207959D01*
X1049802Y207945D01*
X1049909Y207940D01*
X1068451Y207940D01*
X1068558Y207945D01*
X1068664Y207959D01*
X1068769Y207982D01*
X1068871Y208014D01*
X1068970Y208055D01*
X1069066Y208105D01*
X1069156Y208162D01*
X1069241Y208228D01*
X1069320Y208300D01*
X1069392Y208379D01*
X1069458Y208464D01*
X1069515Y208555D01*
X1069565Y208650D01*
X1069606Y208749D01*
X1069638Y208851D01*
X1069661Y208956D01*
X1069675Y209062D01*
X1069680Y209169D01*
X1069680Y227711D01*
X1069675Y227818D01*
X1069661Y227924D01*
X1069638Y228029D01*
X1069606Y228131D01*
X1069565Y228230D01*
X1069515Y228326D01*
X1069458Y228416D01*
X1069392Y228501D01*
X1069320Y228580D01*
X1069241Y228652D01*
X1069156Y228718D01*
X1069066Y228775D01*
X1068970Y228825D01*
X1068871Y228866D01*
X1068769Y228898D01*
X1068664Y228921D01*
X1068558Y228935D01*
X1068451Y228940D01*
X1049909Y228940D01*
X1049802Y228935D01*
X1049696Y228921D01*
X1049591Y228898D01*
X1049489Y228866D01*
X1049390Y228825D01*
X1049295Y228775D01*
X1049204Y228718D01*
X1049119Y228652D01*
X1049040Y228580D01*
X1048968Y228501D01*
X1048902Y228416D01*
X1048845Y228326D01*
X1048795Y228230D01*
X1048754Y228131D01*
X1048722Y228029D01*
X1048699Y227924D01*
X1048685Y227818D01*
X1048680Y227711D01*
X1048680Y209169D01*
X598783Y532067D02*
X598787Y531959D01*
X598801Y531853D01*
X598824Y531748D01*
X598857Y531646D01*
X598898Y531547D01*
X598947Y531452D01*
X599005Y531362D01*
X599070Y531277D01*
X599142Y531197D01*
X599222Y531125D01*
X599307Y531060D01*
X599397Y531002D01*
X599492Y530953D01*
X599591Y530912D01*
X599693Y530879D01*
X599798Y530856D01*
X599904Y530842D01*
X600012Y530838D01*
X618554Y530838D01*
X618661Y530842D01*
X618767Y530856D01*
X618872Y530879D01*
X618974Y530912D01*
X619073Y530953D01*
X619168Y531002D01*
X619258Y531060D01*
X619344Y531125D01*
X619423Y531197D01*
X619495Y531277D01*
X619560Y531362D01*
X619618Y531452D01*
X619667Y531547D01*
X619708Y531646D01*
X619741Y531748D01*
X619764Y531853D01*
X619778Y531959D01*
X619783Y532067D01*
X619783Y550609D01*
X619778Y550716D01*
X619764Y550822D01*
X619741Y550927D01*
X619708Y551029D01*
X619667Y551128D01*
X619618Y551223D01*
X619560Y551313D01*
X619495Y551399D01*
X619423Y551478D01*
X619344Y551550D01*
X619258Y551615D01*
X619168Y551673D01*
X619073Y551722D01*
X618974Y551763D01*
X618872Y551796D01*
X618767Y551819D01*
X618661Y551833D01*
X618554Y551838D01*
X600012Y551838D01*
X599904Y551833D01*
X599798Y551819D01*
X599693Y551796D01*
X599591Y551763D01*
X599492Y551722D01*
X599397Y551673D01*
X599307Y551615D01*
X599222Y551550D01*
X599142Y551478D01*
X599070Y551399D01*
X599005Y551313D01*
X598947Y551223D01*
X598898Y551128D01*
X598857Y551029D01*
X598824Y550927D01*
X598801Y550822D01*
X598787Y550716D01*
X598783Y550609D01*
X598783Y532067D01*
X726100Y206629D02*
X726105Y206522D01*
X726119Y206416D01*
X726142Y206311D01*
X726174Y206209D01*
X726215Y206110D01*
X726265Y206015D01*
X726322Y205924D01*
X726388Y205839D01*
X726460Y205760D01*
X726539Y205688D01*
X726624Y205622D01*
X726715Y205565D01*
X726810Y205515D01*
X726909Y205474D01*
X727011Y205442D01*
X727116Y205419D01*
X727222Y205405D01*
X727329Y205400D01*
X745871Y205400D01*
X745978Y205405D01*
X746084Y205419D01*
X746189Y205442D01*
X746291Y205474D01*
X746390Y205515D01*
X746486Y205565D01*
X746576Y205622D01*
X746661Y205688D01*
X746740Y205760D01*
X746812Y205839D01*
X746878Y205924D01*
X746935Y206015D01*
X746985Y206110D01*
X747026Y206209D01*
X747058Y206311D01*
X747081Y206416D01*
X747095Y206522D01*
X747100Y206629D01*
X747100Y225171D01*
X747095Y225278D01*
X747081Y225384D01*
X747058Y225489D01*
X747026Y225591D01*
X746985Y225690D01*
X746935Y225786D01*
X746878Y225876D01*
X746812Y225961D01*
X746740Y226040D01*
X746661Y226112D01*
X746576Y226178D01*
X746486Y226235D01*
X746390Y226285D01*
X746291Y226326D01*
X746189Y226358D01*
X746084Y226381D01*
X745978Y226395D01*
X745871Y226400D01*
X727329Y226400D01*
X727222Y226395D01*
X727116Y226381D01*
X727011Y226358D01*
X726909Y226326D01*
X726810Y226285D01*
X726715Y226235D01*
X726624Y226178D01*
X726539Y226112D01*
X726460Y226040D01*
X726388Y225961D01*
X726322Y225876D01*
X726265Y225786D01*
X726215Y225690D01*
X726174Y225591D01*
X726142Y225489D01*
X726119Y225384D01*
X726105Y225278D01*
X726100Y225171D01*
X726100Y206629D01*
X852783Y532067D02*
X852787Y531959D01*
X852801Y531853D01*
X852824Y531748D01*
X852857Y531646D01*
X852898Y531547D01*
X852947Y531452D01*
X853005Y531362D01*
X853070Y531277D01*
X853142Y531197D01*
X853222Y531125D01*
X853307Y531060D01*
X853397Y531002D01*
X853492Y530953D01*
X853591Y530912D01*
X853693Y530879D01*
X853798Y530856D01*
X853904Y530842D01*
X854012Y530838D01*
X872554Y530838D01*
X872661Y530842D01*
X872767Y530856D01*
X872872Y530879D01*
X872974Y530912D01*
X873073Y530953D01*
X873168Y531002D01*
X873258Y531060D01*
X873344Y531125D01*
X873423Y531197D01*
X873495Y531277D01*
X873560Y531362D01*
X873618Y531452D01*
X873667Y531547D01*
X873708Y531646D01*
X873741Y531748D01*
X873764Y531853D01*
X873778Y531959D01*
X873783Y532067D01*
X873783Y550609D01*
X873778Y550716D01*
X873764Y550822D01*
X873741Y550927D01*
X873708Y551029D01*
X873667Y551128D01*
X873618Y551223D01*
X873560Y551313D01*
X873495Y551399D01*
X873423Y551478D01*
X873344Y551550D01*
X873258Y551615D01*
X873168Y551673D01*
X873073Y551722D01*
X872974Y551763D01*
X872872Y551796D01*
X872767Y551819D01*
X872661Y551833D01*
X872554Y551838D01*
X854012Y551838D01*
X853904Y551833D01*
X853798Y551819D01*
X853693Y551796D01*
X853591Y551763D01*
X853492Y551722D01*
X853397Y551673D01*
X853307Y551615D01*
X853222Y551550D01*
X853142Y551478D01*
X853070Y551399D01*
X853005Y551313D01*
X852947Y551223D01*
X852898Y551128D01*
X852857Y551029D01*
X852824Y550927D01*
X852801Y550822D01*
X852787Y550716D01*
X852783Y550609D01*
X852783Y532067D01*
X1278333Y1072932D02*
X1278256Y1071863D01*
X1278104Y1070803D01*
X1277876Y1069756D01*
X1277574Y1068728D01*
X1277200Y1067724D01*
X1276754Y1066749D01*
X1276241Y1065809D01*
X1275662Y1064907D01*
X1275020Y1064049D01*
X1274318Y1063240D01*
X1273560Y1062482D01*
X1272751Y1061780D01*
X1271893Y1061138D01*
X1270991Y1060559D01*
X1270051Y1060046D01*
X1269076Y1059600D01*
X1268073Y1059226D01*
X1267044Y1058924D01*
X1265998Y1058696D01*
X1264937Y1058544D01*
X1263868Y1058468D01*
X1262797Y1058468D01*
X1261728Y1058544D01*
X1260668Y1058696D01*
X1259621Y1058924D01*
X1258593Y1059226D01*
X1257589Y1059600D01*
X1256614Y1060046D01*
X1255674Y1060559D01*
X1254772Y1061138D01*
X1253914Y1061780D01*
X1253105Y1062482D01*
X1252347Y1063240D01*
X1251645Y1064049D01*
X1251003Y1064907D01*
X1250424Y1065809D01*
X1249911Y1066749D01*
X1249465Y1067724D01*
X1249091Y1068728D01*
X1248789Y1069756D01*
X1248561Y1070803D01*
X1248409Y1071863D01*
X1248333Y1072932D01*
X1248333Y1074003D01*
X1248409Y1075072D01*
X1248561Y1076133D01*
X1248789Y1077179D01*
X1249091Y1078208D01*
X1249465Y1079211D01*
X1249911Y1080186D01*
X1250424Y1081126D01*
X1251003Y1082028D01*
X1251645Y1082886D01*
X1252347Y1083695D01*
X1253105Y1084453D01*
X1253914Y1085155D01*
X1254772Y1085797D01*
X1255674Y1086376D01*
X1256614Y1086889D01*
X1257589Y1087335D01*
X1258593Y1087709D01*
X1259621Y1088011D01*
X1260668Y1088239D01*
X1261728Y1088391D01*
X1262797Y1088468D01*
X1263868Y1088468D01*
X1264937Y1088391D01*
X1265998Y1088239D01*
X1267044Y1088011D01*
X1268073Y1087709D01*
X1269076Y1087335D01*
X1270051Y1086889D01*
X1270991Y1086376D01*
X1271893Y1085797D01*
X1272751Y1085155D01*
X1273560Y1084453D01*
X1274318Y1083695D01*
X1275020Y1082886D01*
X1275662Y1082028D01*
X1276241Y1081126D01*
X1276754Y1080186D01*
X1277200Y1079211D01*
X1277574Y1078208D01*
X1277876Y1077179D01*
X1278104Y1076133D01*
X1278256Y1075072D01*
X1278333Y1074003D01*
X1278333Y1072932D01*
X46433Y1072932D02*
X46356Y1071863D01*
X46204Y1070803D01*
X45976Y1069756D01*
X45674Y1068728D01*
X45300Y1067724D01*
X44854Y1066749D01*
X44341Y1065809D01*
X43762Y1064907D01*
X43120Y1064049D01*
X42418Y1063240D01*
X41660Y1062482D01*
X40851Y1061780D01*
X39993Y1061138D01*
X39091Y1060559D01*
X38151Y1060046D01*
X37176Y1059600D01*
X36173Y1059226D01*
X35144Y1058924D01*
X34098Y1058696D01*
X33037Y1058544D01*
X31968Y1058468D01*
X30897Y1058468D01*
X29828Y1058544D01*
X28768Y1058696D01*
X27721Y1058924D01*
X26693Y1059226D01*
X25689Y1059600D01*
X24714Y1060046D01*
X23774Y1060559D01*
X22872Y1061138D01*
X22014Y1061780D01*
X21205Y1062482D01*
X20447Y1063240D01*
X19745Y1064049D01*
X19103Y1064907D01*
X18524Y1065809D01*
X18011Y1066749D01*
X17565Y1067724D01*
X17191Y1068728D01*
X16889Y1069756D01*
X16661Y1070803D01*
X16509Y1071863D01*
X16433Y1072932D01*
X16433Y1074003D01*
X16509Y1075072D01*
X16661Y1076133D01*
X16889Y1077179D01*
X17191Y1078208D01*
X17565Y1079211D01*
X18011Y1080186D01*
X18524Y1081126D01*
X19103Y1082028D01*
X19745Y1082886D01*
X20447Y1083695D01*
X21205Y1084453D01*
X22014Y1085155D01*
X22872Y1085797D01*
X23774Y1086376D01*
X24714Y1086889D01*
X25689Y1087335D01*
X26693Y1087709D01*
X27721Y1088011D01*
X28768Y1088239D01*
X29828Y1088391D01*
X30897Y1088468D01*
X31968Y1088468D01*
X33037Y1088391D01*
X34098Y1088239D01*
X35144Y1088011D01*
X36173Y1087709D01*
X37176Y1087335D01*
X38151Y1086889D01*
X39091Y1086376D01*
X39993Y1085797D01*
X40851Y1085155D01*
X41660Y1084453D01*
X42418Y1083695D01*
X43120Y1082886D01*
X43762Y1082028D01*
X44341Y1081126D01*
X44854Y1080186D01*
X45300Y1079211D01*
X45674Y1078208D01*
X45976Y1077179D01*
X46204Y1076133D01*
X46356Y1075072D01*
X46433Y1074003D01*
X46433Y1072932D01*
X46433Y31532D02*
X46356Y30463D01*
X46204Y29403D01*
X45976Y28356D01*
X45674Y27328D01*
X45300Y26324D01*
X44854Y25349D01*
X44341Y24409D01*
X43762Y23507D01*
X43120Y22649D01*
X42418Y21840D01*
X41660Y21082D01*
X40851Y20380D01*
X39993Y19738D01*
X39091Y19159D01*
X38151Y18646D01*
X37176Y18200D01*
X36173Y17826D01*
X35144Y17524D01*
X34098Y17296D01*
X33037Y17144D01*
X31968Y17068D01*
X30897Y17068D01*
X29828Y17144D01*
X28768Y17296D01*
X27721Y17524D01*
X26693Y17826D01*
X25689Y18200D01*
X24714Y18646D01*
X23774Y19159D01*
X22872Y19738D01*
X22014Y20380D01*
X21205Y21082D01*
X20447Y21840D01*
X19745Y22649D01*
X19103Y23507D01*
X18524Y24409D01*
X18011Y25349D01*
X17565Y26324D01*
X17191Y27328D01*
X16889Y28356D01*
X16661Y29403D01*
X16509Y30463D01*
X16433Y31532D01*
X16433Y32603D01*
X16509Y33672D01*
X16661Y34733D01*
X16889Y35779D01*
X17191Y36808D01*
X17565Y37811D01*
X18011Y38786D01*
X18524Y39726D01*
X19103Y40628D01*
X19745Y41486D01*
X20447Y42295D01*
X21205Y43053D01*
X22014Y43755D01*
X22872Y44397D01*
X23774Y44976D01*
X24714Y45489D01*
X25689Y45935D01*
X26693Y46309D01*
X27721Y46611D01*
X28768Y46839D01*
X29828Y46991D01*
X30897Y47068D01*
X31968Y47068D01*
X33037Y46991D01*
X34098Y46839D01*
X35144Y46611D01*
X36173Y46309D01*
X37176Y45935D01*
X38151Y45489D01*
X39091Y44976D01*
X39993Y44397D01*
X40851Y43755D01*
X41660Y43053D01*
X42418Y42295D01*
X43120Y41486D01*
X43762Y40628D01*
X44341Y39726D01*
X44854Y38786D01*
X45300Y37811D01*
X45674Y36808D01*
X45976Y35779D01*
X46204Y34733D01*
X46356Y33672D01*
X46433Y32603D01*
X46433Y31532D01*
X1156413Y216952D02*
X1156336Y215883D01*
X1156184Y214823D01*
X1155956Y213776D01*
X1155654Y212748D01*
X1155280Y211744D01*
X1154834Y210769D01*
X1154321Y209829D01*
X1153742Y208927D01*
X1153100Y208069D01*
X1152398Y207260D01*
X1151640Y206502D01*
X1150831Y205800D01*
X1149973Y205158D01*
X1149071Y204579D01*
X1148131Y204066D01*
X1147156Y203620D01*
X1146153Y203246D01*
X1145124Y202944D01*
X1144078Y202716D01*
X1143017Y202564D01*
X1141948Y202488D01*
X1140877Y202488D01*
X1139808Y202564D01*
X1138748Y202716D01*
X1137701Y202944D01*
X1136673Y203246D01*
X1135669Y203620D01*
X1134694Y204066D01*
X1133754Y204579D01*
X1132852Y205158D01*
X1131994Y205800D01*
X1131185Y206502D01*
X1130427Y207260D01*
X1129725Y208069D01*
X1129083Y208927D01*
X1128504Y209829D01*
X1127991Y210769D01*
X1127545Y211744D01*
X1127171Y212748D01*
X1126869Y213776D01*
X1126641Y214823D01*
X1126489Y215883D01*
X1126413Y216952D01*
X1126413Y218023D01*
X1126489Y219092D01*
X1126641Y220153D01*
X1126869Y221199D01*
X1127171Y222228D01*
X1127545Y223231D01*
X1127991Y224206D01*
X1128504Y225146D01*
X1129083Y226048D01*
X1129725Y226906D01*
X1130427Y227715D01*
X1131185Y228473D01*
X1131994Y229175D01*
X1132852Y229817D01*
X1133754Y230396D01*
X1134694Y230909D01*
X1135669Y231355D01*
X1136673Y231729D01*
X1137701Y232031D01*
X1138748Y232259D01*
X1139808Y232411D01*
X1140877Y232488D01*
X1141948Y232488D01*
X1143017Y232411D01*
X1144078Y232259D01*
X1145124Y232031D01*
X1146153Y231729D01*
X1147156Y231355D01*
X1148131Y230909D01*
X1149071Y230396D01*
X1149973Y229817D01*
X1150831Y229175D01*
X1151640Y228473D01*
X1152398Y227715D01*
X1153100Y226906D01*
X1153742Y226048D01*
X1154321Y225146D01*
X1154834Y224206D01*
X1155280Y223231D01*
X1155654Y222228D01*
X1155956Y221199D01*
X1156184Y220153D01*
X1156336Y219092D01*
X1156413Y218023D01*
X1156413Y216952D01*
X90842Y89298D02*
X90284Y89360D01*
X89736Y89485D01*
X89206Y89671D01*
X88700Y89915D01*
X88225Y90213D01*
X87786Y90563D01*
X87388Y90961D01*
X87038Y91400D01*
X86740Y91875D01*
X86496Y92381D01*
X86310Y92911D01*
X86185Y93459D01*
X86123Y94017D01*
X86123Y94578D01*
X86185Y95136D01*
X86310Y95684D01*
X86496Y96214D01*
X86740Y96720D01*
X87038Y97195D01*
X87388Y97634D01*
X87786Y98032D01*
X88225Y98382D01*
X88700Y98681D01*
X89206Y98924D01*
X89736Y99110D01*
X90284Y99235D01*
X90842Y99298D01*
X91403Y99298D01*
X91961Y99235D01*
X92509Y99110D01*
X93039Y98924D01*
X93545Y98681D01*
X94020Y98382D01*
X94459Y98032D01*
X94857Y97634D01*
X95207Y97195D01*
X95506Y96720D01*
X95749Y96214D01*
X95935Y95684D01*
X96060Y95136D01*
X96123Y94578D01*
X96123Y94017D01*
X96060Y93459D01*
X95935Y92911D01*
X95749Y92381D01*
X95506Y91875D01*
X95207Y91400D01*
X94857Y90961D01*
X94459Y90563D01*
X94020Y90213D01*
X93545Y89915D01*
X93039Y89671D01*
X92509Y89485D01*
X91961Y89360D01*
X91403Y89298D01*
X90842Y89298D01*
X40042Y165498D02*
X39484Y165560D01*
X38936Y165685D01*
X38406Y165871D01*
X37900Y166115D01*
X37425Y166413D01*
X36986Y166763D01*
X36588Y167161D01*
X36238Y167600D01*
X35940Y168075D01*
X35696Y168581D01*
X35510Y169111D01*
X35385Y169659D01*
X35323Y170217D01*
X35323Y170778D01*
X35385Y171336D01*
X35510Y171884D01*
X35696Y172414D01*
X35940Y172920D01*
X36238Y173395D01*
X36588Y173834D01*
X36986Y174232D01*
X37425Y174582D01*
X37900Y174881D01*
X38406Y175124D01*
X38936Y175310D01*
X39484Y175435D01*
X40042Y175498D01*
X40603Y175498D01*
X41161Y175435D01*
X41709Y175310D01*
X42239Y175124D01*
X42745Y174881D01*
X43220Y174582D01*
X43659Y174232D01*
X44057Y173834D01*
X44407Y173395D01*
X44706Y172920D01*
X44949Y172414D01*
X45135Y171884D01*
X45260Y171336D01*
X45323Y170778D01*
X45323Y170217D01*
X45260Y169659D01*
X45135Y169111D01*
X44949Y168581D01*
X44706Y168075D01*
X44407Y167600D01*
X44057Y167161D01*
X43659Y166763D01*
X43220Y166413D01*
X42745Y166115D01*
X42239Y165871D01*
X41709Y165685D01*
X41161Y165560D01*
X40603Y165498D01*
X40042Y165498D01*
X253402Y89298D02*
X252844Y89360D01*
X252296Y89485D01*
X251766Y89671D01*
X251260Y89915D01*
X250785Y90213D01*
X250346Y90563D01*
X249948Y90961D01*
X249598Y91400D01*
X249300Y91875D01*
X249056Y92381D01*
X248870Y92911D01*
X248745Y93459D01*
X248683Y94017D01*
X248683Y94578D01*
X248745Y95136D01*
X248870Y95684D01*
X249056Y96214D01*
X249300Y96720D01*
X249598Y97195D01*
X249948Y97634D01*
X250346Y98032D01*
X250785Y98382D01*
X251260Y98681D01*
X251766Y98924D01*
X252296Y99110D01*
X252844Y99235D01*
X253402Y99298D01*
X253963Y99298D01*
X254521Y99235D01*
X255069Y99110D01*
X255599Y98924D01*
X256105Y98681D01*
X256580Y98382D01*
X257019Y98032D01*
X257417Y97634D01*
X257767Y97195D01*
X258066Y96720D01*
X258309Y96214D01*
X258495Y95684D01*
X258620Y95136D01*
X258683Y94578D01*
X258683Y94017D01*
X258620Y93459D01*
X258495Y92911D01*
X258309Y92381D01*
X258066Y91875D01*
X257767Y91400D01*
X257417Y90961D01*
X257019Y90563D01*
X256580Y90213D01*
X256105Y89915D01*
X255599Y89671D01*
X255069Y89485D01*
X254521Y89360D01*
X253963Y89298D01*
X253402Y89298D01*
X202602Y165498D02*
X202044Y165560D01*
X201496Y165685D01*
X200966Y165871D01*
X200460Y166115D01*
X199985Y166413D01*
X199546Y166763D01*
X199148Y167161D01*
X198798Y167600D01*
X198500Y168075D01*
X198256Y168581D01*
X198070Y169111D01*
X197945Y169659D01*
X197883Y170217D01*
X197883Y170778D01*
X197945Y171336D01*
X198070Y171884D01*
X198256Y172414D01*
X198500Y172920D01*
X198798Y173395D01*
X199148Y173834D01*
X199546Y174232D01*
X199985Y174582D01*
X200460Y174881D01*
X200966Y175124D01*
X201496Y175310D01*
X202044Y175435D01*
X202602Y175498D01*
X203163Y175498D01*
X203721Y175435D01*
X204269Y175310D01*
X204799Y175124D01*
X205305Y174881D01*
X205780Y174582D01*
X206219Y174232D01*
X206617Y173834D01*
X206967Y173395D01*
X207266Y172920D01*
X207509Y172414D01*
X207695Y171884D01*
X207820Y171336D01*
X207883Y170778D01*
X207883Y170217D01*
X207820Y169659D01*
X207695Y169111D01*
X207509Y168581D01*
X207266Y168075D01*
X206967Y167600D01*
X206617Y167161D01*
X206219Y166763D01*
X205780Y166413D01*
X205305Y166115D01*
X204799Y165871D01*
X204269Y165685D01*
X203721Y165560D01*
X203163Y165498D01*
X202602Y165498D01*
X418502Y89298D02*
X417944Y89360D01*
X417396Y89485D01*
X416866Y89671D01*
X416360Y89915D01*
X415885Y90213D01*
X415446Y90563D01*
X415048Y90961D01*
X414698Y91400D01*
X414400Y91875D01*
X414156Y92381D01*
X413970Y92911D01*
X413845Y93459D01*
X413783Y94017D01*
X413783Y94578D01*
X413845Y95136D01*
X413970Y95684D01*
X414156Y96214D01*
X414400Y96720D01*
X414698Y97195D01*
X415048Y97634D01*
X415446Y98032D01*
X415885Y98382D01*
X416360Y98681D01*
X416866Y98924D01*
X417396Y99110D01*
X417944Y99235D01*
X418502Y99298D01*
X419063Y99298D01*
X419621Y99235D01*
X420169Y99110D01*
X420699Y98924D01*
X421205Y98681D01*
X421680Y98382D01*
X422119Y98032D01*
X422517Y97634D01*
X422867Y97195D01*
X423166Y96720D01*
X423409Y96214D01*
X423595Y95684D01*
X423720Y95136D01*
X423783Y94578D01*
X423783Y94017D01*
X423720Y93459D01*
X423595Y92911D01*
X423409Y92381D01*
X423166Y91875D01*
X422867Y91400D01*
X422517Y90961D01*
X422119Y90563D01*
X421680Y90213D01*
X421205Y89915D01*
X420699Y89671D01*
X420169Y89485D01*
X419621Y89360D01*
X419063Y89298D01*
X418502Y89298D01*
X367702Y165498D02*
X367144Y165560D01*
X366596Y165685D01*
X366066Y165871D01*
X365560Y166115D01*
X365085Y166413D01*
X364646Y166763D01*
X364248Y167161D01*
X363898Y167600D01*
X363600Y168075D01*
X363356Y168581D01*
X363170Y169111D01*
X363045Y169659D01*
X362983Y170217D01*
X362983Y170778D01*
X363045Y171336D01*
X363170Y171884D01*
X363356Y172414D01*
X363600Y172920D01*
X363898Y173395D01*
X364248Y173834D01*
X364646Y174232D01*
X365085Y174582D01*
X365560Y174881D01*
X366066Y175124D01*
X366596Y175310D01*
X367144Y175435D01*
X367702Y175498D01*
X368263Y175498D01*
X368821Y175435D01*
X369369Y175310D01*
X369899Y175124D01*
X370405Y174881D01*
X370880Y174582D01*
X371319Y174232D01*
X371717Y173834D01*
X372067Y173395D01*
X372366Y172920D01*
X372609Y172414D01*
X372795Y171884D01*
X372920Y171336D01*
X372983Y170778D01*
X372983Y170217D01*
X372920Y169659D01*
X372795Y169111D01*
X372609Y168581D01*
X372366Y168075D01*
X372067Y167600D01*
X371717Y167161D01*
X371319Y166763D01*
X370880Y166413D01*
X370405Y166115D01*
X369899Y165871D01*
X369369Y165685D01*
X368821Y165560D01*
X368263Y165498D01*
X367702Y165498D01*
X583602Y89298D02*
X583044Y89360D01*
X582496Y89485D01*
X581966Y89671D01*
X581460Y89915D01*
X580985Y90213D01*
X580546Y90563D01*
X580148Y90961D01*
X579798Y91400D01*
X579500Y91875D01*
X579256Y92381D01*
X579070Y92911D01*
X578945Y93459D01*
X578883Y94017D01*
X578883Y94578D01*
X578945Y95136D01*
X579070Y95684D01*
X579256Y96214D01*
X579500Y96720D01*
X579798Y97195D01*
X580148Y97634D01*
X580546Y98032D01*
X580985Y98382D01*
X581460Y98681D01*
X581966Y98924D01*
X582496Y99110D01*
X583044Y99235D01*
X583602Y99298D01*
X584163Y99298D01*
X584721Y99235D01*
X585269Y99110D01*
X585799Y98924D01*
X586305Y98681D01*
X586780Y98382D01*
X587219Y98032D01*
X587617Y97634D01*
X587967Y97195D01*
X588266Y96720D01*
X588509Y96214D01*
X588695Y95684D01*
X588820Y95136D01*
X588883Y94578D01*
X588883Y94017D01*
X588820Y93459D01*
X588695Y92911D01*
X588509Y92381D01*
X588266Y91875D01*
X587967Y91400D01*
X587617Y90961D01*
X587219Y90563D01*
X586780Y90213D01*
X586305Y89915D01*
X585799Y89671D01*
X585269Y89485D01*
X584721Y89360D01*
X584163Y89298D01*
X583602Y89298D01*
X532802Y165498D02*
X532244Y165560D01*
X531696Y165685D01*
X531166Y165871D01*
X530660Y166115D01*
X530185Y166413D01*
X529746Y166763D01*
X529348Y167161D01*
X528998Y167600D01*
X528700Y168075D01*
X528456Y168581D01*
X528270Y169111D01*
X528145Y169659D01*
X528083Y170217D01*
X528083Y170778D01*
X528145Y171336D01*
X528270Y171884D01*
X528456Y172414D01*
X528700Y172920D01*
X528998Y173395D01*
X529348Y173834D01*
X529746Y174232D01*
X530185Y174582D01*
X530660Y174881D01*
X531166Y175124D01*
X531696Y175310D01*
X532244Y175435D01*
X532802Y175498D01*
X533363Y175498D01*
X533921Y175435D01*
X534469Y175310D01*
X534999Y175124D01*
X535505Y174881D01*
X535980Y174582D01*
X536419Y174232D01*
X536817Y173834D01*
X537167Y173395D01*
X537466Y172920D01*
X537709Y172414D01*
X537895Y171884D01*
X538020Y171336D01*
X538083Y170778D01*
X538083Y170217D01*
X538020Y169659D01*
X537895Y169111D01*
X537709Y168581D01*
X537466Y168075D01*
X537167Y167600D01*
X536817Y167161D01*
X536419Y166763D01*
X535980Y166413D01*
X535505Y166115D01*
X534999Y165871D01*
X534469Y165685D01*
X533921Y165560D01*
X533363Y165498D01*
X532802Y165498D01*
X749019Y88980D02*
X748461Y89043D01*
X747914Y89168D01*
X747384Y89353D01*
X746878Y89597D01*
X746402Y89896D01*
X745963Y90246D01*
X745566Y90643D01*
X745216Y91082D01*
X744917Y91558D01*
X744673Y92064D01*
X744488Y92594D01*
X744363Y93141D01*
X744300Y93699D01*
X744300Y94261D01*
X744363Y94819D01*
X744488Y95366D01*
X744673Y95896D01*
X744917Y96402D01*
X745216Y96878D01*
X745566Y97317D01*
X745963Y97714D01*
X746402Y98064D01*
X746878Y98363D01*
X747384Y98607D01*
X747914Y98792D01*
X748461Y98917D01*
X749019Y98980D01*
X749581Y98980D01*
X750139Y98917D01*
X750686Y98792D01*
X751216Y98607D01*
X751722Y98363D01*
X752198Y98064D01*
X752637Y97714D01*
X753034Y97317D01*
X753384Y96878D01*
X753683Y96402D01*
X753927Y95896D01*
X754112Y95366D01*
X754237Y94819D01*
X754300Y94261D01*
X754300Y93699D01*
X754237Y93141D01*
X754112Y92594D01*
X753927Y92064D01*
X753683Y91558D01*
X753384Y91082D01*
X753034Y90643D01*
X752637Y90246D01*
X752198Y89896D01*
X751722Y89597D01*
X751216Y89353D01*
X750686Y89168D01*
X750139Y89043D01*
X749581Y88980D01*
X749019Y88980D01*
X698219Y165180D02*
X697661Y165243D01*
X697114Y165368D01*
X696584Y165553D01*
X696078Y165797D01*
X695602Y166096D01*
X695163Y166446D01*
X694766Y166843D01*
X694416Y167282D01*
X694117Y167758D01*
X693873Y168264D01*
X693688Y168794D01*
X693563Y169341D01*
X693500Y169899D01*
X693500Y170461D01*
X693563Y171019D01*
X693688Y171566D01*
X693873Y172096D01*
X694117Y172602D01*
X694416Y173078D01*
X694766Y173517D01*
X695163Y173914D01*
X695602Y174264D01*
X696078Y174563D01*
X696584Y174807D01*
X697114Y174992D01*
X697661Y175117D01*
X698219Y175180D01*
X698781Y175180D01*
X699339Y175117D01*
X699886Y174992D01*
X700416Y174807D01*
X700922Y174563D01*
X701398Y174264D01*
X701837Y173914D01*
X702234Y173517D01*
X702584Y173078D01*
X702883Y172602D01*
X703127Y172096D01*
X703312Y171566D01*
X703437Y171019D01*
X703500Y170461D01*
X703500Y169899D01*
X703437Y169341D01*
X703312Y168794D01*
X703127Y168264D01*
X702883Y167758D01*
X702584Y167282D01*
X702234Y166843D01*
X701837Y166446D01*
X701398Y166096D01*
X700922Y165797D01*
X700416Y165553D01*
X699886Y165368D01*
X699339Y165243D01*
X698781Y165180D01*
X698219Y165180D01*
X913802Y89298D02*
X913244Y89360D01*
X912696Y89485D01*
X912166Y89671D01*
X911660Y89915D01*
X911185Y90213D01*
X910746Y90563D01*
X910348Y90961D01*
X909998Y91400D01*
X909700Y91875D01*
X909456Y92381D01*
X909270Y92911D01*
X909145Y93459D01*
X909083Y94017D01*
X909083Y94578D01*
X909145Y95136D01*
X909270Y95684D01*
X909456Y96214D01*
X909700Y96720D01*
X909998Y97195D01*
X910348Y97634D01*
X910746Y98032D01*
X911185Y98382D01*
X911660Y98681D01*
X912166Y98924D01*
X912696Y99110D01*
X913244Y99235D01*
X913802Y99298D01*
X914363Y99298D01*
X914921Y99235D01*
X915469Y99110D01*
X915999Y98924D01*
X916505Y98681D01*
X916980Y98382D01*
X917419Y98032D01*
X917817Y97634D01*
X918167Y97195D01*
X918466Y96720D01*
X918709Y96214D01*
X918895Y95684D01*
X919020Y95136D01*
X919083Y94578D01*
X919083Y94017D01*
X919020Y93459D01*
X918895Y92911D01*
X918709Y92381D01*
X918466Y91875D01*
X918167Y91400D01*
X917817Y90961D01*
X917419Y90563D01*
X916980Y90213D01*
X916505Y89915D01*
X915999Y89671D01*
X915469Y89485D01*
X914921Y89360D01*
X914363Y89298D01*
X913802Y89298D01*
X863002Y165498D02*
X862444Y165560D01*
X861896Y165685D01*
X861366Y165871D01*
X860860Y166115D01*
X860385Y166413D01*
X859946Y166763D01*
X859548Y167161D01*
X859198Y167600D01*
X858900Y168075D01*
X858656Y168581D01*
X858470Y169111D01*
X858345Y169659D01*
X858283Y170217D01*
X858283Y170778D01*
X858345Y171336D01*
X858470Y171884D01*
X858656Y172414D01*
X858900Y172920D01*
X859198Y173395D01*
X859548Y173834D01*
X859946Y174232D01*
X860385Y174582D01*
X860860Y174881D01*
X861366Y175124D01*
X861896Y175310D01*
X862444Y175435D01*
X863002Y175498D01*
X863563Y175498D01*
X864121Y175435D01*
X864669Y175310D01*
X865199Y175124D01*
X865705Y174881D01*
X866180Y174582D01*
X866619Y174232D01*
X867017Y173834D01*
X867367Y173395D01*
X867666Y172920D01*
X867909Y172414D01*
X868095Y171884D01*
X868220Y171336D01*
X868283Y170778D01*
X868283Y170217D01*
X868220Y169659D01*
X868095Y169111D01*
X867909Y168581D01*
X867666Y168075D01*
X867367Y167600D01*
X867017Y167161D01*
X866619Y166763D01*
X866180Y166413D01*
X865705Y166115D01*
X865199Y165871D01*
X864669Y165685D01*
X864121Y165560D01*
X863563Y165498D01*
X863002Y165498D01*
M02*
