  0
SECTION
  2
HEADER
  9
$ACADVER
  1
AC1009
  9
$FILLMODE
 70
1
  9
$EXTMIN
 10
-47.9661
 20
-2.1547
 30
0.0000
  9
$EXTMAX
 10
140.7223
 20
112.5665
 30
0.0000
  0
ENDSEC
  0
SECTION
  2
TABLES
  0
TABLE
  2
LTYPE
 70
1
  0
LTYPE
  2
CONTINUOUS
 70
64
  3
Solid line
 72
65
 73
0
 40
0
  0
ENDTAB
  0
TABLE
  2
LAYER
 70
255
  0
LAYER
  2
20
 70
64
 62
178
  6
CONTINUOUS
  0
LAYER
  2
44
 70
64
 62
250
  6
CONTINUOUS
  0
ENDTAB
  0
ENDSEC
  0
SECTION
  2
BLOCKS
  0
BLOCK
  8
0
  2
RECT
 70
64
 10
0.0000
 20
0.0000
 30
0.0000
  3
RECT
  0
SOLID
  8
0
 10
-0.5000
 20
-0.5000
 30
0.0000
 11
0.5000
 21
-0.5000
 31
0.0000
 12
-0.5000
 22
0.5000
 32
0.0000
 13
0.5000
 23
0.5000
 33
0.0000
  0
ENDBLK
  8
0
  0
BLOCK
  8
0
  2
PIE
 70
64
 10
0.0000
 20
0.0000
 30
0.0000
  3
PIE
  0
POLYLINE
  8
0
 66
1
 10
0.0000
 20
0.0000
 30
0.0000
 40
0.5000
 41
0.5000
 70
0
  0
VERTEX
  8
0
 10
0.0000
 20
-0.2500
 30
0.0000
 42
1.0000
  0
VERTEX
  8
0
 10
0.0000
 20
0.2500
 30
0.0000
 42
1.0000
  0
VERTEX
  8
0
 10
0.0000
 20
-0.2500
 30
0.0000
  0
SEQEND
  8
0
  0
ENDBLK
  8
0
  0
BLOCK
  8
0
  2
OCTAGONP
 70
64
 10
0.0000
 20
0.0000
 30
0.0000
  3
OCTAGONP
  0
POLYLINE
  8
0
 66
1
 10
0.0000
 20
0.0000
 30
0.0000
 40
0.5000
 41
0.5000
 70
0
  0
VERTEX
  8
0
 10
-0.2500
 20
-0.1036
 30
0.0000
  0
VERTEX
  8
0
 10
-0.2500
 20
0.1036
 30
0.0000
  0
VERTEX
  8
0
 10
-0.1036
 20
0.2500
 30
0.0000
  0
VERTEX
  8
0
 10
0.1036
 20
0.2500
 30
0.0000
  0
VERTEX
  8
0
 10
0.2500
 20
0.1036
 30
0.0000
  0
VERTEX
  8
0
 10
0.2500
 20
-0.1036
 30
0.0000
  0
VERTEX
  8
0
 10
0.1036
 20
-0.2500
 30
0.0000
  0
VERTEX
  8
0
 10
-0.1036
 20
-0.2500
 30
0.0000
  0
VERTEX
  8
0
 10
-0.2500
 20
-0.1036
 30
0.0000
  0
VERTEX
  8
0
 10
-0.2500
 20
0.1036
 30
0.0000
  0
SEQEND
  8
0
  0
ENDBLK
  8
0
  0
BLOCK
  8
0
  2
SQUAREP
 70
64
 10
0.0000
 20
0.0000
 30
0.0000
  3
SQUAREP
  0
SOLID
  8
0
 10
-0.5000
 20
-0.5000
 30
0.0000
 11
0.5000
 21
-0.5000
 31
0.0000
 12
-0.5000
 22
0.5000
 32
0.0000
 13
0.5000
 23
0.5000
 33
0.0000
  0
ENDBLK
  8
0
  0
BLOCK
  8
0
  2
ROUNDP
 70
64
 10
0.0000
 20
0.0000
 30
0.0000
  3
ROUNDP
  0
POLYLINE
  8
0
 66
1
 10
0.0000
 20
0.0000
 30
0.0000
 40
0.5000
 41
0.5000
 70
0
  0
VERTEX
  8
0
 10
0.0000
 20
-0.2500
 30
0.0000
 42
1.0000
  0
VERTEX
  8
0
 10
0.0000
 20
0.2500
 30
0.0000
 42
1.0000
  0
VERTEX
  8
0
 10
0.0000
 20
-0.2500
 30
0.0000
  0
SEQEND
  8
0
  0
ENDBLK
  8
0
  0
BLOCK
  8
0
  2
ANNULUSP
 70
64
 10
0.0000
 20
0.0000
 30
0.0000
  3
ANNULUSP
  0
POLYLINE
  8
0
 66
1
 10
0.0000
 20
0.0000
 30
0.0000
 40
0.5000
 41
0.5000
 70
0
  0
VERTEX
  8
0
 10
0.0000
 20
-0.2500
 30
0.0000
 42
1.0000
  0
VERTEX
  8
0
 10
0.0000
 20
0.2500
 30
0.0000
 42
1.0000
  0
VERTEX
  8
0
 10
0.0000
 20
-0.2500
 30
0.0000
  0
SEQEND
  8
0
  0
ENDBLK
  8
0
  0
BLOCK
  8
0
  2
THERMALP
 70
64
 10
0.0000
 20
0.0000
 30
0.0000
  3
THERMALP
  0
POLYLINE
  8
0
 66
1
 10
0.0000
 20
0.0000
 30
0.0000
 40
0.1000
 41
0.1000
 70
0
  0
VERTEX
  8
0
 10
-0.2379
 20
0.4500
 30
0.0000
  0
VERTEX
  8
0
 10
0.2379
 20
0.4500
 30
0.0000
  0
SEQEND
  8
0
  0
POLYLINE
  8
0
 66
1
 10
0.0000
 20
0.0000
 30
0.0000
 40
0.0500
 41
0.0500
 70
0
  0
VERTEX
  8
0
 10
0.2379
 20
0.4250
 30
0.0000
 42
1.0000
  0
VERTEX
  8
0
 10
0.2379
 20
0.4750
 30
0.0000
  0
SEQEND
  8
0
  0
POLYLINE
  8
0
 66
1
 10
0.0000
 20
0.0000
 30
0.0000
 40
0.0500
 41
0.0500
 70
0
  0
VERTEX
  8
0
 10
-0.2379
 20
0.4750
 30
0.0000
 42
1.0000
  0
VERTEX
  8
0
 10
-0.2379
 20
0.4250
 30
0.0000
  0
SEQEND
  8
0
  0
POLYLINE
  8
0
 66
1
 10
0.0000
 20
0.0000
 30
0.0000
 40
0.1000
 41
0.1000
 70
0
  0
VERTEX
  8
0
 10
0.4500
 20
0.2379
 30
0.0000
  0
VERTEX
  8
0
 10
0.4500
 20
-0.2379
 30
0.0000
  0
SEQEND
  8
0
  0
POLYLINE
  8
0
 66
1
 10
0.0000
 20
0.0000
 30
0.0000
 40
0.0500
 41
0.0500
 70
0
  0
VERTEX
  8
0
 10
0.4250
 20
-0.2379
 30
0.0000
 42
1.0000
  0
VERTEX
  8
0
 10
0.4750
 20
-0.2379
 30
0.0000
  0
SEQEND
  8
0
  0
POLYLINE
  8
0
 66
1
 10
0.0000
 20
0.0000
 30
0.0000
 40
0.0500
 41
0.0500
 70
0
  0
VERTEX
  8
0
 10
0.4750
 20
0.2379
 30
0.0000
 42
1.0000
  0
VERTEX
  8
0
 10
0.4250
 20
0.2379
 30
0.0000
  0
SEQEND
  8
0
  0
POLYLINE
  8
0
 66
1
 10
0.0000
 20
0.0000
 30
0.0000
 40
0.1000
 41
0.1000
 70
0
  0
VERTEX
  8
0
 10
0.2379
 20
-0.4500
 30
0.0000
  0
VERTEX
  8
0
 10
-0.2379
 20
-0.4500
 30
0.0000
  0
SEQEND
  8
0
  0
POLYLINE
  8
0
 66
1
 10
0.0000
 20
0.0000
 30
0.0000
 40
0.0500
 41
0.0500
 70
0
  0
VERTEX
  8
0
 10
-0.2379
 20
-0.4250
 30
0.0000
 42
1.0000
  0
VERTEX
  8
0
 10
-0.2379
 20
-0.4750
 30
0.0000
  0
SEQEND
  8
0
  0
POLYLINE
  8
0
 66
1
 10
0.0000
 20
0.0000
 30
0.0000
 40
0.0500
 41
0.0500
 70
0
  0
VERTEX
  8
0
 10
0.2379
 20
-0.4750
 30
0.0000
 42
1.0000
  0
VERTEX
  8
0
 10
0.2379
 20
-0.4250
 30
0.0000
  0
SEQEND
  8
0
  0
POLYLINE
  8
0
 66
1
 10
0.0000
 20
0.0000
 30
0.0000
 40
0.1000
 41
0.1000
 70
0
  0
VERTEX
  8
0
 10
-0.4500
 20
-0.2379
 30
0.0000
  0
VERTEX
  8
0
 10
-0.4500
 20
0.2379
 30
0.0000
  0
SEQEND
  8
0
  0
POLYLINE
  8
0
 66
1
 10
0.0000
 20
0.0000
 30
0.0000
 40
0.0500
 41
0.0500
 70
0
  0
VERTEX
  8
0
 10
-0.4250
 20
0.2379
 30
0.0000
 42
1.0000
  0
VERTEX
  8
0
 10
-0.4750
 20
0.2379
 30
0.0000
  0
SEQEND
  8
0
  0
POLYLINE
  8
0
 66
1
 10
0.0000
 20
0.0000
 30
0.0000
 40
0.0500
 41
0.0500
 70
0
  0
VERTEX
  8
0
 10
-0.4750
 20
-0.2379
 30
0.0000
 42
1.0000
  0
VERTEX
  8
0
 10
-0.4250
 20
-0.2379
 30
0.0000
  0
SEQEND
  8
0
  0
ENDBLK
  8
0
  0
BLOCK
  8
0
  2
OCTAGONV
 70
64
 10
0.0000
 20
0.0000
 30
0.0000
  3
OCTAGONV
  0
POLYLINE
  8
0
 66
1
 10
0.0000
 20
0.0000
 30
0.0000
 40
0.5000
 41
0.5000
 70
0
  0
VERTEX
  8
0
 10
-0.2500
 20
-0.1036
 30
0.0000
  0
VERTEX
  8
0
 10
-0.2500
 20
0.1036
 30
0.0000
  0
VERTEX
  8
0
 10
-0.1036
 20
0.2500
 30
0.0000
  0
VERTEX
  8
0
 10
0.1036
 20
0.2500
 30
0.0000
  0
VERTEX
  8
0
 10
0.2500
 20
0.1036
 30
0.0000
  0
VERTEX
  8
0
 10
0.2500
 20
-0.1036
 30
0.0000
  0
VERTEX
  8
0
 10
0.1036
 20
-0.2500
 30
0.0000
  0
VERTEX
  8
0
 10
-0.1036
 20
-0.2500
 30
0.0000
  0
VERTEX
  8
0
 10
-0.2500
 20
-0.1036
 30
0.0000
  0
VERTEX
  8
0
 10
-0.2500
 20
0.1036
 30
0.0000
  0
SEQEND
  8
0
  0
ENDBLK
  8
0
  0
BLOCK
  8
0
  2
SQUAREV
 70
64
 10
0.0000
 20
0.0000
 30
0.0000
  3
SQUAREV
  0
SOLID
  8
0
 10
-0.5000
 20
-0.5000
 30
0.0000
 11
0.5000
 21
-0.5000
 31
0.0000
 12
-0.5000
 22
0.5000
 32
0.0000
 13
0.5000
 23
0.5000
 33
0.0000
  0
ENDBLK
  8
0
  0
BLOCK
  8
0
  2
ROUNDV
 70
64
 10
0.0000
 20
0.0000
 30
0.0000
  3
ROUNDV
  0
POLYLINE
  8
0
 66
1
 10
0.0000
 20
0.0000
 30
0.0000
 40
0.5000
 41
0.5000
 70
0
  0
VERTEX
  8
0
 10
0.0000
 20
-0.2500
 30
0.0000
 42
1.0000
  0
VERTEX
  8
0
 10
0.0000
 20
0.2500
 30
0.0000
 42
1.0000
  0
VERTEX
  8
0
 10
0.0000
 20
-0.2500
 30
0.0000
  0
SEQEND
  8
0
  0
ENDBLK
  8
0
  0
BLOCK
  8
0
  2
ANNULUSV
 70
64
 10
0.0000
 20
0.0000
 30
0.0000
  3
ANNULUSV
  0
POLYLINE
  8
0
 66
1
 10
0.0000
 20
0.0000
 30
0.0000
 40
0.5000
 41
0.5000
 70
0
  0
VERTEX
  8
0
 10
0.0000
 20
-0.2500
 30
0.0000
 42
1.0000
  0
VERTEX
  8
0
 10
0.0000
 20
0.2500
 30
0.0000
 42
1.0000
  0
VERTEX
  8
0
 10
0.0000
 20
-0.2500
 30
0.0000
  0
SEQEND
  8
0
  0
ENDBLK
  8
0
  0
BLOCK
  8
0
  2
THERMALV
 70
64
 10
0.0000
 20
0.0000
 30
0.0000
  3
THERMALV
  0
POLYLINE
  8
0
 66
1
 10
0.0000
 20
0.0000
 30
0.0000
 40
0.1000
 41
0.1000
 70
0
  0
VERTEX
  8
0
 10
-0.2379
 20
0.4500
 30
0.0000
  0
VERTEX
  8
0
 10
0.2379
 20
0.4500
 30
0.0000
  0
SEQEND
  8
0
  0
POLYLINE
  8
0
 66
1
 10
0.0000
 20
0.0000
 30
0.0000
 40
0.0500
 41
0.0500
 70
0
  0
VERTEX
  8
0
 10
0.2379
 20
0.4250
 30
0.0000
 42
1.0000
  0
VERTEX
  8
0
 10
0.2379
 20
0.4750
 30
0.0000
  0
SEQEND
  8
0
  0
POLYLINE
  8
0
 66
1
 10
0.0000
 20
0.0000
 30
0.0000
 40
0.0500
 41
0.0500
 70
0
  0
VERTEX
  8
0
 10
-0.2379
 20
0.4750
 30
0.0000
 42
1.0000
  0
VERTEX
  8
0
 10
-0.2379
 20
0.4250
 30
0.0000
  0
SEQEND
  8
0
  0
POLYLINE
  8
0
 66
1
 10
0.0000
 20
0.0000
 30
0.0000
 40
0.1000
 41
0.1000
 70
0
  0
VERTEX
  8
0
 10
0.4500
 20
0.2379
 30
0.0000
  0
VERTEX
  8
0
 10
0.4500
 20
-0.2379
 30
0.0000
  0
SEQEND
  8
0
  0
POLYLINE
  8
0
 66
1
 10
0.0000
 20
0.0000
 30
0.0000
 40
0.0500
 41
0.0500
 70
0
  0
VERTEX
  8
0
 10
0.4250
 20
-0.2379
 30
0.0000
 42
1.0000
  0
VERTEX
  8
0
 10
0.4750
 20
-0.2379
 30
0.0000
  0
SEQEND
  8
0
  0
POLYLINE
  8
0
 66
1
 10
0.0000
 20
0.0000
 30
0.0000
 40
0.0500
 41
0.0500
 70
0
  0
VERTEX
  8
0
 10
0.4750
 20
0.2379
 30
0.0000
 42
1.0000
  0
VERTEX
  8
0
 10
0.4250
 20
0.2379
 30
0.0000
  0
SEQEND
  8
0
  0
POLYLINE
  8
0
 66
1
 10
0.0000
 20
0.0000
 30
0.0000
 40
0.1000
 41
0.1000
 70
0
  0
VERTEX
  8
0
 10
0.2379
 20
-0.4500
 30
0.0000
  0
VERTEX
  8
0
 10
-0.2379
 20
-0.4500
 30
0.0000
  0
SEQEND
  8
0
  0
POLYLINE
  8
0
 66
1
 10
0.0000
 20
0.0000
 30
0.0000
 40
0.0500
 41
0.0500
 70
0
  0
VERTEX
  8
0
 10
-0.2379
 20
-0.4250
 30
0.0000
 42
1.0000
  0
VERTEX
  8
0
 10
-0.2379
 20
-0.4750
 30
0.0000
  0
SEQEND
  8
0
  0
POLYLINE
  8
0
 66
1
 10
0.0000
 20
0.0000
 30
0.0000
 40
0.0500
 41
0.0500
 70
0
  0
VERTEX
  8
0
 10
0.2379
 20
-0.4750
 30
0.0000
 42
1.0000
  0
VERTEX
  8
0
 10
0.2379
 20
-0.4250
 30
0.0000
  0
SEQEND
  8
0
  0
POLYLINE
  8
0
 66
1
 10
0.0000
 20
0.0000
 30
0.0000
 40
0.1000
 41
0.1000
 70
0
  0
VERTEX
  8
0
 10
-0.4500
 20
-0.2379
 30
0.0000
  0
VERTEX
  8
0
 10
-0.4500
 20
0.2379
 30
0.0000
  0
SEQEND
  8
0
  0
POLYLINE
  8
0
 66
1
 10
0.0000
 20
0.0000
 30
0.0000
 40
0.0500
 41
0.0500
 70
0
  0
VERTEX
  8
0
 10
-0.4250
 20
0.2379
 30
0.0000
 42
1.0000
  0
VERTEX
  8
0
 10
-0.4750
 20
0.2379
 30
0.0000
  0
SEQEND
  8
0
  0
POLYLINE
  8
0
 66
1
 10
0.0000
 20
0.0000
 30
0.0000
 40
0.0500
 41
0.0500
 70
0
  0
VERTEX
  8
0
 10
-0.4750
 20
-0.2379
 30
0.0000
 42
1.0000
  0
VERTEX
  8
0
 10
-0.4250
 20
-0.2379
 30
0.0000
  0
SEQEND
  8
0
  0
ENDBLK
  8
0
  0
BLOCK
  8
0
  2
LONGP100
 70
64
 10
0.0000
 20
0.0000
 30
0.0000
  3
LONGP100
  0
POLYLINE
  8
0
 66
1
 10
0.0000
 20
0.0000
 30
0.0000
 40
1.0000
 41
1.0000
 70
0
  0
VERTEX
  8
0
 10
-0.5000
 20
0.0000
 30
0.0000
  0
VERTEX
  8
0
 10
0.5000
 20
0.0000
 30
0.0000
  0
SEQEND
  8
0
  0
POLYLINE
  8
0
 66
1
 10
0.0000
 20
0.0000
 30
0.0000
 40
0.5000
 41
0.5000
 70
0
  0
VERTEX
  8
0
 10
0.5000
 20
-0.2500
 30
0.0000
 42
1.0000
  0
VERTEX
  8
0
 10
0.5000
 20
0.2500
 30
0.0000
  0
SEQEND
  8
0
  0
POLYLINE
  8
0
 66
1
 10
0.0000
 20
0.0000
 30
0.0000
 40
0.5000
 41
0.5000
 70
0
  0
VERTEX
  8
0
 10
-0.5000
 20
0.2500
 30
0.0000
 42
1.0000
  0
VERTEX
  8
0
 10
-0.5000
 20
-0.2500
 30
0.0000
  0
SEQEND
  8
0
  0
ENDBLK
  8
0
  0
ENDSEC
  0
SECTION
  2
ENTITIES
  0
LINE
  8
20
 10
-0.0318
 20
110.5218
 30
0.0000
 11
-0.0318
 21
0.0318
 31
0.0000
  0
LINE
  8
20
 10
-0.0318
 20
0.0318
 30
0.0000
 11
129.5083
 21
0.0318
 31
0.0000
  0
LINE
  8
20
 10
129.5083
 20
0.0318
 30
0.0000
 11
129.5083
 21
110.5218
 31
0.0000
  0
LINE
  8
20
 10
129.5083
 20
110.5218
 30
0.0000
 11
-0.0318
 21
110.5218
 31
0.0000
  0
CIRCLE
  8
20
 10
8.8582
 20
12.7317
 30
0.0000
 40
0.5000
  0
CIRCLE
  8
20
 10
3.7783
 20
20.3518
 30
0.0000
 40
0.5000
  0
CIRCLE
  8
20
 10
25.3682
 20
12.7317
 30
0.0000
 40
0.5000
  0
CIRCLE
  8
20
 10
20.2883
 20
20.3518
 30
0.0000
 40
0.5000
  0
CIRCLE
  8
20
 10
41.8783
 20
12.7317
 30
0.0000
 40
0.5000
  0
CIRCLE
  8
20
 10
36.7983
 20
20.3518
 30
0.0000
 40
0.5000
  0
CIRCLE
  8
20
 10
58.3882
 20
12.7317
 30
0.0000
 40
0.5000
  0
CIRCLE
  8
20
 10
53.3083
 20
20.3518
 30
0.0000
 40
0.5000
  0
CIRCLE
  8
20
 10
74.8983
 20
12.7317
 30
0.0000
 40
0.5000
  0
CIRCLE
  8
20
 10
69.8183
 20
20.3518
 30
0.0000
 40
0.5000
  0
CIRCLE
  8
20
 10
91.4083
 20
12.7317
 30
0.0000
 40
0.5000
  0
CIRCLE
  8
20
 10
86.3282
 20
20.3518
 30
0.0000
 40
0.5000
  0
CIRCLE
  8
20
 10
114.9032
 20
62.9603
 30
0.0000
 40
1.6510
  0
CIRCLE
  8
20
 10
126.3333
 20
107.3468
 30
0.0000
 40
1.5000
  0
CIRCLE
  8
20
 10
3.1433
 20
107.3468
 30
0.0000
 40
1.5000
  0
CIRCLE
  8
20
 10
3.1433
 20
3.2067
 30
0.0000
 40
1.5000
  0
CIRCLE
  8
20
 10
126.3333
 20
3.2067
 30
0.0000
 40
1.5000
  0
CIRCLE
  8
44
 10
94.5833
 20
93.3768
 30
0.0000
 40
0.3048
  0
CIRCLE
  8
44
 10
66.0083
 20
62.2618
 30
0.0000
 40
0.3048
  0
CIRCLE
  8
44
 10
100.2983
 20
96.5517
 30
0.0000
 40
0.3048
  0
CIRCLE
  8
44
 10
44.4183
 20
4.4768
 30
0.0000
 40
0.3048
  0
CIRCLE
  8
44
 10
69.1833
 20
3.8418
 30
0.0000
 40
0.3048
  0
CIRCLE
  8
44
 10
72.3582
 20
3.8418
 30
0.0000
 40
0.3048
  0
CIRCLE
  8
44
 10
87.5983
 20
90.8368
 30
0.0000
 40
0.3048
  0
CIRCLE
  8
44
 10
59.2519
 20
81.9468
 30
0.0000
 40
0.3048
  0
CIRCLE
  8
44
 10
78.7083
 20
101.6318
 30
0.0000
 40
0.3048
  0
CIRCLE
  8
44
 10
86.5568
 20
89.5667
 30
0.0000
 40
0.3048
  0
CIRCLE
  8
44
 10
12.9223
 20
7.6518
 30
0.0000
 40
0.3048
  0
CIRCLE
  8
44
 10
19.6532
 20
11.4618
 30
0.0000
 40
0.3048
  0
CIRCLE
  8
44
 10
22.1933
 20
18.4468
 30
0.0000
 40
0.3048
  0
CIRCLE
  8
44
 10
27.9083
 20
17.8117
 30
0.0000
 40
0.3048
  0
CIRCLE
  8
44
 10
33.6232
 20
19.7168
 30
0.0000
 40
0.3048
  0
CIRCLE
  8
44
 10
39.9733
 20
21.6218
 30
0.0000
 40
0.3048
  0
CIRCLE
  8
44
 10
45.0533
 20
17.1768
 30
0.0000
 40
0.3048
  0
CIRCLE
  8
44
 10
53.9432
 20
11.4618
 30
0.0000
 40
0.3048
  0
CIRCLE
  8
44
 10
25.3682
 20
7.6518
 30
0.0000
 40
0.3048
  0
CIRCLE
  8
44
 10
27.2733
 20
9.5568
 30
0.0000
 40
0.3048
  0
CIRCLE
  8
44
 10
29.1783
 20
12.7317
 30
0.0000
 40
0.3048
  0
CIRCLE
  8
44
 10
35.5282
 20
15.2718
 30
0.0000
 40
0.3048
  0
CIRCLE
  8
44
 10
40.6083
 20
17.1768
 30
0.0000
 40
0.3048
  0
CIRCLE
  8
44
 10
24.0983
 20
31.7818
 30
0.0000
 40
0.3048
  0
CIRCLE
  8
44
 10
26.6383
 20
36.2268
 30
0.0000
 40
0.3048
  0
CIRCLE
  8
44
 10
37.4333
 20
38.7668
 30
0.0000
 40
0.3048
  0
CIRCLE
  8
44
 10
8.8582
 20
34.9567
 30
0.0000
 40
0.3048
  0
CIRCLE
  8
44
 10
9.4932
 20
27.3368
 30
0.0000
 40
0.3048
  0
CIRCLE
  8
44
 10
5.6833
 20
27.3368
 30
0.0000
 40
0.3048
  0
CIRCLE
  8
44
 10
4.4133
 20
40.0368
 30
0.0000
 40
0.3048
  0
CIRCLE
  8
44
 10
13.9383
 20
43.8468
 30
0.0000
 40
0.3048
  0
CIRCLE
  8
44
 10
13.3033
 20
47.6568
 30
0.0000
 40
0.3048
  0
CIRCLE
  8
44
 10
8.8582
 20
54.6418
 30
0.0000
 40
0.3048
  0
CIRCLE
  8
44
 10
21.5583
 20
54.6418
 30
0.0000
 40
0.3048
  0
CIRCLE
  8
44
 10
18.3833
 20
64.1668
 30
0.0000
 40
0.3048
  0
CIRCLE
  8
44
 10
13.3033
 20
63.5318
 30
0.0000
 40
0.3048
  0
CIRCLE
  8
44
 10
6.9533
 20
64.8017
 30
0.0000
 40
0.3048
  0
CIRCLE
  8
44
 10
2.5083
 20
63.5318
 30
0.0000
 40
0.3048
  0
CIRCLE
  8
44
 10
8.2233
 20
82.5817
 30
0.0000
 40
0.3048
  0
CIRCLE
  8
44
 10
4.4133
 20
73.6917
 30
0.0000
 40
0.3048
  0
CIRCLE
  8
44
 10
8.8582
 20
88.9318
 30
0.0000
 40
0.3048
  0
CIRCLE
  8
44
 10
23.4633
 20
90.8368
 30
0.0000
 40
0.3048
  0
CIRCLE
  8
44
 10
5.6833
 20
101.6318
 30
0.0000
 40
0.3048
  0
CIRCLE
  8
44
 10
22.8283
 20
101.6318
 30
0.0000
 40
0.3048
  0
CIRCLE
  8
44
 10
36.7983
 20
91.4718
 30
0.0000
 40
0.3048
  0
CIRCLE
  8
44
 10
38.7033
 20
81.9468
 30
0.0000
 40
0.3048
  0
CIRCLE
  8
44
 10
33.6232
 20
80.6767
 30
0.0000
 40
0.3048
  0
CIRCLE
  8
44
 10
41.2433
 20
103.5368
 30
0.0000
 40
0.3048
  0
CIRCLE
  8
44
 10
50.1333
 20
103.5368
 30
0.0000
 40
0.3048
  0
CIRCLE
  8
44
 10
56.4833
 20
97.1868
 30
0.0000
 40
0.3048
  0
CIRCLE
  8
44
 10
55.8483
 20
81.9468
 30
0.0000
 40
0.3048
  0
CIRCLE
  8
44
 10
58.3882
 20
104.1718
 30
0.0000
 40
0.3048
  0
CIRCLE
  8
44
 10
62.1983
 20
103.5368
 30
0.0000
 40
0.3048
  0
CIRCLE
  8
44
 10
61.5633
 20
95.9168
 30
0.0000
 40
0.3048
  0
CIRCLE
  8
44
 10
70.4532
 20
96.5517
 30
0.0000
 40
0.3048
  0
CIRCLE
  8
44
 10
73.6283
 20
99.7268
 30
0.0000
 40
0.3048
  0
CIRCLE
  8
44
 10
71.7233
 20
103.5368
 30
0.0000
 40
0.3048
  0
CIRCLE
  8
44
 10
77.4383
 20
103.5368
 30
0.0000
 40
0.3048
  0
CIRCLE
  8
44
 10
81.2482
 20
105.4417
 30
0.0000
 40
0.3048
  0
CIRCLE
  8
44
 10
80.6133
 20
99.0918
 30
0.0000
 40
0.3048
  0
CIRCLE
  8
44
 10
78.7083
 20
96.5517
 30
0.0000
 40
0.3048
  0
CIRCLE
  8
44
 10
80.2957
 20
90.9955
 30
0.0000
 40
0.3048
  0
CIRCLE
  8
44
 10
95.2182
 20
84.4868
 30
0.0000
 40
0.3048
  0
CIRCLE
  8
44
 10
74.2632
 20
87.6617
 30
0.0000
 40
0.3048
  0
CIRCLE
  8
44
 10
74.2632
 20
82.5817
 30
0.0000
 40
0.3048
  0
CIRCLE
  8
44
 10
65.3732
 20
78.1368
 30
0.0000
 40
0.3048
  0
CIRCLE
  8
44
 10
73.6283
 20
69.5643
 30
0.0000
 40
0.3048
  0
CIRCLE
  8
44
 10
69.8183
 20
67.3418
 30
0.0000
 40
0.3048
  0
CIRCLE
  8
44
 10
62.3570
 20
67.3418
 30
0.0000
 40
0.3048
  0
CIRCLE
  8
44
 10
49.0220
 20
65.4368
 30
0.0000
 40
0.3048
  0
CIRCLE
  8
44
 10
61.7220
 20
53.3718
 30
0.0000
 40
0.3048
  0
CIRCLE
  8
44
 10
72.3582
 20
57.6580
 30
0.0000
 40
0.3048
  0
CIRCLE
  8
44
 10
84.4233
 20
52.5780
 30
0.0000
 40
0.3048
  0
CIRCLE
  8
44
 10
91.4083
 20
48.7680
 30
0.0000
 40
0.3048
  0
CIRCLE
  8
44
 10
98.3933
 20
52.5780
 30
0.0000
 40
0.3048
  0
CIRCLE
  8
44
 10
101.5683
 20
52.5780
 30
0.0000
 40
0.3048
  0
CIRCLE
  8
44
 10
106.0132
 20
72.8980
 30
0.0000
 40
0.3048
  0
CIRCLE
  8
44
 10
105.3783
 20
97.6630
 30
0.0000
 40
0.3048
  0
CIRCLE
  8
44
 10
102.2033
 20
98.7743
 30
0.0000
 40
0.3048
  0
CIRCLE
  8
44
 10
99.8220
 20
102.9018
 30
0.0000
 40
0.3048
  0
CIRCLE
  8
44
 10
86.6458
 20
96.3930
 30
0.0000
 40
0.3048
  0
CIRCLE
  8
44
 10
84.1058
 20
96.2343
 30
0.0000
 40
0.3048
  0
CIRCLE
  8
44
 10
89.0270
 20
107.0293
 30
0.0000
 40
0.3048
  0
CIRCLE
  8
44
 10
95.3770
 20
105.2830
 30
0.0000
 40
0.3048
  0
CIRCLE
  8
44
 10
113.1570
 20
101.4730
 30
0.0000
 40
0.3048
  0
CIRCLE
  8
44
 10
112.5220
 20
106.8705
 30
0.0000
 40
0.3048
  0
CIRCLE
  8
44
 10
121.0945
 20
107.1880
 30
0.0000
 40
0.3048
  0
CIRCLE
  8
44
 10
122.3645
 20
100.2030
 30
0.0000
 40
0.3048
  0
CIRCLE
  8
44
 10
122.3645
 20
95.1230
 30
0.0000
 40
0.3048
  0
CIRCLE
  8
44
 10
116.4908
 20
94.8055
 30
0.0000
 40
0.3048
  0
CIRCLE
  8
44
 10
117.9195
 20
90.2018
 30
0.0000
 40
0.3048
  0
CIRCLE
  8
44
 10
105.5370
 20
85.2805
 30
0.0000
 40
0.3048
  0
CIRCLE
  8
44
 10
123.3170
 20
84.8043
 30
0.0000
 40
0.3048
  0
CIRCLE
  8
44
 10
127.1270
 20
80.9943
 30
0.0000
 40
0.3048
  0
CIRCLE
  8
44
 10
119.8245
 20
83.6930
 30
0.0000
 40
0.3048
  0
CIRCLE
  8
44
 10
119.6658
 20
73.2155
 30
0.0000
 40
0.3048
  0
CIRCLE
  8
44
 10
110.6170
 20
72.5805
 30
0.0000
 40
0.3048
  0
CIRCLE
  8
44
 10
122.6820
 20
59.8805
 30
0.0000
 40
0.3048
  0
CIRCLE
  8
44
 10
117.6020
 20
56.0705
 30
0.0000
 40
0.3048
  0
CIRCLE
  8
44
 10
120.7770
 20
47.8155
 30
0.0000
 40
0.3048
  0
CIRCLE
  8
44
 10
114.4270
 20
52.2605
 30
0.0000
 40
0.3048
  0
CIRCLE
  8
44
 10
115.0620
 20
44.6405
 30
0.0000
 40
0.3048
  0
CIRCLE
  8
44
 10
106.8070
 20
40.1955
 30
0.0000
 40
0.3048
  0
CIRCLE
  8
44
 10
105.5370
 20
46.5455
 30
0.0000
 40
0.3048
  0
CIRCLE
  8
44
 10
106.8070
 20
33.2105
 30
0.0000
 40
0.3048
  0
CIRCLE
  8
44
 10
93.4720
 20
28.7655
 30
0.0000
 40
0.3048
  0
CIRCLE
  8
44
 10
98.5520
 20
34.4805
 30
0.0000
 40
0.3048
  0
CIRCLE
  8
44
 10
114.7445
 20
12.5730
 30
0.0000
 40
0.3048
  0
CIRCLE
  8
44
 10
91.3130
 20
7.5565
 30
0.0000
 40
0.3048
  0
CIRCLE
  8
44
 10
75.0570
 20
4.0005
 30
0.0000
 40
0.3048
  0
CIRCLE
  8
44
 10
75.6920
 20
6.5405
 30
0.0000
 40
0.3048
  0
CIRCLE
  8
44
 10
67.7545
 20
3.6830
 30
0.0000
 40
0.3048
  0
CIRCLE
  8
44
 10
68.8658
 20
6.0643
 30
0.0000
 40
0.3048
  0
CIRCLE
  8
44
 10
39.4970
 20
4.6355
 30
0.0000
 40
0.3048
  0
CIRCLE
  8
44
 10
35.0520
 20
5.2705
 30
0.0000
 40
0.3048
  0
CIRCLE
  8
44
 10
42.9895
 20
4.3180
 30
0.0000
 40
0.3048
  0
CIRCLE
  8
44
 10
20.1295
 20
3.0480
 30
0.0000
 40
0.3048
  0
CIRCLE
  8
44
 10
39.8145
 20
62.1030
 30
0.0000
 40
0.3048
  0
CIRCLE
  8
44
 10
25.2095
 20
63.3730
 30
0.0000
 40
0.3048
  0
CIRCLE
  8
44
 10
40.4495
 20
72.8980
 30
0.0000
 40
0.3048
  0
CIRCLE
  8
44
 10
43.6245
 20
73.5330
 30
0.0000
 40
0.3048
  0
CIRCLE
  8
44
 10
49.9745
 20
82.4230
 30
0.0000
 40
0.3048
  0
CIRCLE
  8
44
 10
98.3933
 20
25.7492
 30
0.0000
 40
0.3048
  0
CIRCLE
  8
44
 10
98.3933
 20
29.5593
 30
0.0000
 40
0.3048
  0
CIRCLE
  8
44
 10
101.5683
 20
29.7180
 30
0.0000
 40
0.3048
  0
CIRCLE
  8
44
 10
106.8070
 20
28.9243
 30
0.0000
 40
0.3048
  0
CIRCLE
  8
44
 10
91.7258
 20
71.3105
 30
0.0000
 40
0.3048
  0
CIRCLE
  8
44
 10
95.6945
 20
71.3105
 30
0.0000
 40
0.3048
  0
CIRCLE
  8
44
 10
66.1670
 20
53.3718
 30
0.0000
 40
0.3048
  0
CIRCLE
  8
44
 10
68.7070
 20
57.1818
 30
0.0000
 40
0.3048
  0
CIRCLE
  8
44
 10
41.8783
 20
5.5182
 30
0.0000
 40
0.3048
  0
CIRCLE
  8
44
 10
95.2182
 20
90.2018
 30
0.0000
 40
0.3048
  0
CIRCLE
  8
44
 10
71.0883
 20
12.0968
 30
0.0000
 40
0.3048
  0
CIRCLE
  8
44
 10
66.3257
 20
5.1118
 30
0.0000
 40
0.3048
  0
CIRCLE
  8
44
 10
52.0383
 20
30.5118
 30
0.0000
 40
0.3048
  0
CIRCLE
  8
44
 10
104.1082
 20
26.0668
 30
0.0000
 40
0.3048
  0
CIRCLE
  8
44
 10
102.2033
 20
24.1618
 30
0.0000
 40
0.3048
  0
CIRCLE
  8
44
 10
5.0483
 20
57.1818
 30
0.0000
 40
0.3048
  0
CIRCLE
  8
44
 10
67.2782
 20
38.1318
 30
0.0000
 40
0.3048
  0
CIRCLE
  8
44
 10
80.6133
 20
38.7668
 30
0.0000
 40
0.3048
  0
CIRCLE
  8
44
 10
66.6433
 20
32.4168
 30
0.0000
 40
0.3048
  0
CIRCLE
  8
44
 10
94.5833
 20
41.3068
 30
0.0000
 40
0.3048
  0
CIRCLE
  8
44
 10
121.8882
 20
34.3218
 30
0.0000
 40
0.3048
  0
CIRCLE
  8
44
 10
81.2482
 20
67.3418
 30
0.0000
 40
0.3048
  0
CIRCLE
  8
44
 10
109.1883
 20
60.9918
 30
0.0000
 40
0.3048
  0
CIRCLE
  8
44
 10
99.0282
 20
82.5817
 30
0.0000
 40
0.3048
  0
CIRCLE
  8
44
 10
114.9032
 20
102.9018
 30
0.0000
 40
0.3048
  0
CIRCLE
  8
44
 10
88.4618
 20
94.2404
 30
0.0000
 40
0.3048
  0
CIRCLE
  8
44
 10
85.9219
 20
99.7268
 30
0.0000
 40
0.3048
  0
CIRCLE
  8
44
 10
99.6633
 20
21.6218
 30
0.0000
 40
0.3048
  0
CIRCLE
  8
44
 10
97.1232
 20
25.4318
 30
0.0000
 40
0.3048
  0
CIRCLE
  8
44
 10
97.1232
 20
39.4017
 30
0.0000
 40
0.3048
  0
CIRCLE
  8
44
 10
79.9783
 20
62.8968
 30
0.0000
 40
0.3048
  0
CIRCLE
  8
44
 10
85.6933
 20
78.1368
 30
0.0000
 40
0.3048
  0
CIRCLE
  8
44
 10
88.2332
 20
81.3118
 30
0.0000
 40
0.3048
  0
CIRCLE
  8
44
 10
79.3432
 20
87.6617
 30
0.0000
 40
0.3048
  0
CIRCLE
  8
44
 10
126.3333
 20
40.6718
 30
0.0000
 40
0.3048
  0
CIRCLE
  8
44
 10
94.5833
 20
67.5450
 30
0.0000
 40
0.3048
  0
CIRCLE
  8
44
 10
127.9843
 20
19.0398
 30
0.0000
 40
0.3048
  0
CIRCLE
  8
44
 10
94.8585
 20
65.7120
 30
0.0000
 40
0.3048
  0
ENDSEC
  0
EOF
