G04 EAGLE Gerber RS-274X export*
G75*
%MOMM*%
%FSLAX34Y34*%
%LPD*%
%INPasteb*%
%IPPOS*%
%AMOC8*
5,1,8,0,0,1.08239X$1,22.5*%
G01*
%ADD10R,0.900000X1.000000*%
%ADD11R,1.600000X0.600000*%
%ADD12R,1.400000X3.000000*%
%ADD13R,4.826000X5.715000*%
%ADD14R,0.600000X1.600000*%
%ADD15R,1.500000X1.600000*%
%ADD16R,1.450000X0.900000*%
%ADD17R,1.500000X2.500000*%
%ADD18R,1.050000X1.200000*%
%ADD19R,2.600000X1.200000*%
%ADD20R,1.200000X1.050000*%
%ADD21R,1.200000X2.600000*%
%ADD22R,1.000000X1.800000*%
%ADD23R,0.800000X1.800000*%
%ADD24R,1.000000X1.100000*%


D10*
X230909Y479743D03*
X215496Y479743D03*
X335194Y287020D03*
X350606Y287020D03*
D11*
X296898Y415608D03*
X296898Y428308D03*
X296898Y441008D03*
X296898Y453708D03*
X348898Y453708D03*
X348898Y441008D03*
X348898Y428308D03*
X348898Y415608D03*
D10*
X249006Y718820D03*
X233594Y718820D03*
X297266Y937260D03*
X281854Y937260D03*
X253914Y440690D03*
X269326Y440690D03*
X292014Y307340D03*
X307426Y307340D03*
X159934Y1066800D03*
X175346Y1066800D03*
D12*
X1166753Y525703D03*
X1121153Y525703D03*
D13*
X1143953Y594683D03*
D14*
X689293Y499110D03*
X701993Y499110D03*
X714693Y499110D03*
X727393Y499110D03*
X740093Y499110D03*
X752793Y499110D03*
X765493Y499110D03*
X778193Y499110D03*
X778193Y446405D03*
X765493Y446405D03*
X752793Y446405D03*
X740093Y446405D03*
X727393Y446405D03*
X714693Y446405D03*
X701993Y446405D03*
X689293Y446405D03*
X280353Y82550D03*
X293053Y82550D03*
X305753Y82550D03*
X318453Y82550D03*
X331153Y82550D03*
X343853Y82550D03*
X356553Y82550D03*
X369253Y82550D03*
X369253Y29845D03*
X356553Y29845D03*
X343853Y29845D03*
X331153Y29845D03*
X318453Y29845D03*
X305753Y29845D03*
X293053Y29845D03*
X280353Y29845D03*
X775653Y85090D03*
X788353Y85090D03*
X801053Y85090D03*
X813753Y85090D03*
X826453Y85090D03*
X839153Y85090D03*
X851853Y85090D03*
X864553Y85090D03*
X864553Y32385D03*
X851853Y32385D03*
X839153Y32385D03*
X826453Y32385D03*
X813753Y32385D03*
X801053Y32385D03*
X788353Y32385D03*
X775653Y32385D03*
D15*
X576483Y503238D03*
X540483Y503238D03*
X627283Y541338D03*
X591283Y541338D03*
X690783Y566738D03*
X654783Y566738D03*
X754283Y579438D03*
X718283Y579438D03*
X817783Y566738D03*
X781783Y566738D03*
X881283Y541338D03*
X845283Y541338D03*
X919700Y215900D03*
X883700Y215900D03*
X754600Y215900D03*
X718600Y215900D03*
X589500Y215900D03*
X553500Y215900D03*
X424400Y215900D03*
X388400Y215900D03*
X259300Y215900D03*
X223300Y215900D03*
X94200Y215900D03*
X58200Y215900D03*
D11*
X78140Y420370D03*
X78140Y433070D03*
X78140Y445770D03*
X78140Y458470D03*
X130140Y458470D03*
X130140Y445770D03*
X130140Y433070D03*
X130140Y420370D03*
D10*
X279314Y718820D03*
X294726Y718820D03*
X205826Y718820D03*
X190414Y718820D03*
X378374Y447040D03*
X393786Y447040D03*
X335194Y309880D03*
X350606Y309880D03*
X337734Y510540D03*
X353146Y510540D03*
X462366Y937260D03*
X446954Y937260D03*
X337734Y487680D03*
X353146Y487680D03*
X378374Y401320D03*
X393786Y401320D03*
X337734Y1066800D03*
X353146Y1066800D03*
X444586Y718820D03*
X429174Y718820D03*
X386166Y718820D03*
X370754Y718820D03*
X586826Y749300D03*
X571414Y749300D03*
X546186Y749300D03*
X530774Y749300D03*
X497754Y1066800D03*
X513166Y1066800D03*
X667934Y1066800D03*
X683346Y1066800D03*
X764626Y749300D03*
X749214Y749300D03*
X706034Y749300D03*
X721446Y749300D03*
X792566Y937260D03*
X777154Y937260D03*
X792884Y912178D03*
X777471Y912178D03*
X624926Y914400D03*
X609514Y914400D03*
X624609Y937578D03*
X609196Y937578D03*
X693506Y937260D03*
X678094Y937260D03*
X777154Y960120D03*
X792566Y960120D03*
X345526Y396240D03*
X330114Y396240D03*
X121834Y398780D03*
X137246Y398780D03*
X1219286Y909320D03*
X1203874Y909320D03*
X1272626Y909320D03*
X1257214Y909320D03*
D16*
X113983Y118538D03*
X113983Y100538D03*
X197803Y118538D03*
X197803Y100538D03*
X441643Y121078D03*
X441643Y103078D03*
X528003Y118538D03*
X528003Y100538D03*
X695643Y118538D03*
X695643Y100538D03*
X936943Y118538D03*
X936943Y100538D03*
X27623Y311578D03*
X27623Y293578D03*
X621983Y377618D03*
X621983Y359618D03*
X853123Y367458D03*
X853123Y349458D03*
X997903Y494458D03*
X997903Y476458D03*
X1234123Y491918D03*
X1234123Y473918D03*
X1231583Y367458D03*
X1231583Y349458D03*
X998220Y367140D03*
X998220Y349140D03*
D17*
X1114800Y889000D03*
X1145800Y889000D03*
D18*
X1113761Y914400D03*
X1146839Y914400D03*
D10*
X1216574Y579120D03*
X1231986Y579120D03*
D19*
X1201240Y533400D03*
X1242240Y533400D03*
X1198383Y404178D03*
X1239383Y404178D03*
D10*
X581429Y611823D03*
X566016Y611823D03*
X297266Y828040D03*
X281854Y828040D03*
X462366Y830580D03*
X446954Y830580D03*
X627466Y828040D03*
X612054Y828040D03*
X525694Y530860D03*
X541106Y530860D03*
D15*
X1077180Y218440D03*
X1041180Y218440D03*
X1244820Y218440D03*
X1208820Y218440D03*
X589183Y406718D03*
X553183Y406718D03*
X835563Y406718D03*
X799563Y406718D03*
D10*
X109134Y718820D03*
X124546Y718820D03*
X157394Y485140D03*
X172806Y485140D03*
X172806Y439420D03*
X157394Y439420D03*
X50886Y474980D03*
X35474Y474980D03*
X137246Y939800D03*
X121834Y939800D03*
X609514Y749300D03*
X624926Y749300D03*
D20*
X650240Y814041D03*
X650240Y847119D03*
D10*
X662854Y749300D03*
X678266Y749300D03*
D20*
X662940Y692121D03*
X662940Y725199D03*
D10*
X665566Y444500D03*
X650154Y444500D03*
X1168314Y347980D03*
X1183726Y347980D03*
X1224366Y665480D03*
X1208954Y665480D03*
X399011Y28258D03*
X414424Y28258D03*
X573954Y574040D03*
X589366Y574040D03*
X662854Y538480D03*
X678266Y538480D03*
X713654Y538480D03*
X729066Y538480D03*
X861146Y574040D03*
X845734Y574040D03*
X919566Y541020D03*
X904154Y541020D03*
X23091Y215583D03*
X38504Y215583D03*
X185651Y215583D03*
X201064Y215583D03*
X353291Y215583D03*
X368704Y215583D03*
X515851Y215583D03*
X531264Y215583D03*
X792566Y215900D03*
X777154Y215900D03*
X960206Y215900D03*
X944794Y215900D03*
X1054014Y271780D03*
X1069426Y271780D03*
X1132754Y271780D03*
X1148166Y271780D03*
X876386Y406400D03*
X860974Y406400D03*
X515534Y406400D03*
X530946Y406400D03*
D16*
X1231583Y621458D03*
X1231583Y603458D03*
X997903Y573198D03*
X997903Y555198D03*
X1081723Y705278D03*
X1081723Y687278D03*
D10*
X1160694Y297180D03*
X1176106Y297180D03*
X1226734Y297180D03*
X1242146Y297180D03*
D14*
X605473Y656590D03*
X618173Y656590D03*
X630873Y656590D03*
X643573Y656590D03*
X656273Y656590D03*
X668973Y656590D03*
X681673Y656590D03*
X694373Y656590D03*
X694373Y603885D03*
X681673Y603885D03*
X668973Y603885D03*
X656273Y603885D03*
X643573Y603885D03*
X630873Y603885D03*
X618173Y603885D03*
X605473Y603885D03*
D12*
X1168340Y378700D03*
X1122740Y378700D03*
D13*
X1145540Y447680D03*
D10*
X932094Y688340D03*
X947506Y688340D03*
X1122766Y347980D03*
X1107354Y347980D03*
D16*
X27623Y380158D03*
X27623Y362158D03*
D10*
X157394Y416560D03*
X172806Y416560D03*
X157394Y393700D03*
X172806Y393700D03*
X137246Y830580D03*
X121834Y830580D03*
X50886Y431800D03*
X35474Y431800D03*
X932094Y711200D03*
X947506Y711200D03*
X1097366Y523240D03*
X1081954Y523240D03*
X904326Y27940D03*
X888914Y27940D03*
D15*
X932083Y503238D03*
X896083Y503238D03*
D10*
X970366Y502920D03*
X954954Y502920D03*
D19*
X58558Y625158D03*
X99558Y625158D03*
D21*
X137478Y338318D03*
X137478Y297318D03*
D10*
X175346Y269240D03*
X159934Y269240D03*
X157394Y462280D03*
X172806Y462280D03*
X50886Y454660D03*
X35474Y454660D03*
X50886Y408940D03*
X35474Y408940D03*
X378374Y424180D03*
X393786Y424180D03*
X253914Y414020D03*
X269326Y414020D03*
X238846Y256540D03*
X223434Y256540D03*
X401406Y261620D03*
X385994Y261620D03*
D18*
X1207741Y252730D03*
X1240819Y252730D03*
X1207741Y275590D03*
X1240819Y275590D03*
D10*
X1262466Y642620D03*
X1247054Y642620D03*
X1270086Y805180D03*
X1254674Y805180D03*
D22*
X1245940Y732070D03*
X1273740Y732070D03*
X1273740Y664920D03*
D23*
X1259840Y664920D03*
D22*
X1245940Y664920D03*
D24*
X1253880Y782320D03*
X1270880Y782320D03*
D10*
X1196254Y853440D03*
X1211666Y853440D03*
X764626Y723900D03*
X749214Y723900D03*
X586826Y726440D03*
X571414Y726440D03*
X792566Y830580D03*
X777154Y830580D03*
D15*
X261840Y828040D03*
X225840Y828040D03*
D10*
X200746Y828040D03*
X185334Y828040D03*
D15*
X424400Y830580D03*
X388400Y830580D03*
D10*
X368386Y830580D03*
X352974Y830580D03*
D15*
X589500Y937260D03*
X553500Y937260D03*
D10*
X512994Y937260D03*
X528406Y937260D03*
D15*
X589500Y825500D03*
X553500Y825500D03*
D10*
X515534Y828040D03*
X530946Y828040D03*
D15*
X752060Y934720D03*
X716060Y934720D03*
D10*
X678094Y914400D03*
X693506Y914400D03*
D15*
X754600Y830580D03*
X718600Y830580D03*
D10*
X680634Y830580D03*
X696046Y830580D03*
D15*
X424400Y937260D03*
X388400Y937260D03*
D10*
X363306Y937260D03*
X347894Y937260D03*
D15*
X259300Y937260D03*
X223300Y937260D03*
D10*
X200746Y937260D03*
X185334Y937260D03*
D15*
X96740Y830580D03*
X60740Y830580D03*
D10*
X38186Y830580D03*
X22774Y830580D03*
D15*
X99280Y939800D03*
X63280Y939800D03*
D10*
X38186Y939800D03*
X22774Y939800D03*
M02*
