G04 EAGLE Gerber RS-274X export*
G75*
%MOMM*%
%FSLAX34Y34*%
%LPD*%
%INmaska Bot*%
%IPPOS*%
%AMOC8*
5,1,8,0,0,1.08239X$1,22.5*%
G01*
%ADD10R,1.103200X1.203200*%
%ADD11R,1.803200X0.803200*%
%ADD12C,1.853200*%
%ADD13C,1.981200*%
%ADD14R,1.603200X3.203200*%
%ADD15R,5.029200X5.918200*%
%ADD16R,0.803200X1.803200*%
%ADD17R,1.703200X1.803200*%
%ADD18C,1.411200*%
%ADD19P,1.759533X8X112.500000*%
%ADD20C,1.625600*%
%ADD21C,1.803200*%
%ADD22C,3.203200*%
%ADD23C,1.524000*%
%ADD24R,1.653200X1.103200*%
%ADD25P,2.034460X8X292.500000*%
%ADD26R,1.703200X2.703200*%
%ADD27R,1.253200X1.403200*%
%ADD28R,2.803200X1.403200*%
%ADD29C,1.611200*%
%ADD30C,1.879600*%
%ADD31C,1.903200*%
%ADD32R,1.403200X1.253200*%
%ADD33P,1.869504X8X202.500000*%
%ADD34R,0.838200X1.473200*%
%ADD35P,1.869504X8X112.500000*%
%ADD36C,1.676400*%
%ADD37C,2.082800*%
%ADD38C,2.033200*%
%ADD39C,1.203200*%
%ADD40R,1.403200X2.803200*%
%ADD41P,1.869504X8X292.500000*%
%ADD42R,1.203200X2.003200*%
%ADD43R,1.003200X2.003200*%
%ADD44R,1.203200X1.303200*%
%ADD45P,1.869504X8X22.500000*%
%ADD46C,2.000000*%
%ADD47P,0.984542X8X22.500000*%
%ADD48C,1.219200*%
%ADD49P,1.038661X8X22.500000*%
%ADD50C,0.909600*%
%ADD51P,1.319650X8X22.500000*%


D10*
X230909Y479743D03*
X215496Y479743D03*
X335194Y287020D03*
X350606Y287020D03*
D11*
X296898Y415608D03*
X296898Y428308D03*
X296898Y441008D03*
X296898Y453708D03*
X348898Y453708D03*
X348898Y441008D03*
X348898Y428308D03*
X348898Y415608D03*
D10*
X249006Y718820D03*
X233594Y718820D03*
X297266Y937260D03*
X281854Y937260D03*
X253914Y440690D03*
X269326Y440690D03*
X292014Y307340D03*
X307426Y307340D03*
X159934Y1066800D03*
X175346Y1066800D03*
D12*
X784060Y774700D03*
X699060Y774700D03*
X669060Y774700D03*
X621500Y774700D03*
X536500Y774700D03*
X506500Y774700D03*
X456400Y774700D03*
X371400Y774700D03*
X341400Y774700D03*
X291300Y774700D03*
X206300Y774700D03*
X176300Y774700D03*
X128740Y774700D03*
X43740Y774700D03*
X13740Y774700D03*
X1274280Y934720D03*
X1189280Y934720D03*
X1159280Y934720D03*
X1224280Y872960D03*
X1224280Y787960D03*
X1224280Y757960D03*
X784060Y990600D03*
X699060Y990600D03*
X669060Y990600D03*
D13*
X101029Y375730D03*
X101029Y310706D03*
X55817Y375730D03*
X55817Y310706D03*
X548577Y310706D03*
X548577Y375730D03*
X593789Y310706D03*
X593789Y375730D03*
X923989Y375730D03*
X923989Y310706D03*
X878777Y375730D03*
X878777Y310706D03*
X1093915Y447612D03*
X1028891Y447612D03*
X1093915Y492824D03*
X1028891Y492824D03*
X1256475Y447612D03*
X1191451Y447612D03*
X1256475Y492824D03*
X1191451Y492824D03*
X1256475Y320612D03*
X1191451Y320612D03*
X1256475Y365824D03*
X1191451Y365824D03*
X1093915Y320612D03*
X1028891Y320612D03*
X1093915Y365824D03*
X1028891Y365824D03*
D14*
X1166753Y525703D03*
X1121153Y525703D03*
D15*
X1143953Y594683D03*
D16*
X689293Y499110D03*
X701993Y499110D03*
X714693Y499110D03*
X727393Y499110D03*
X740093Y499110D03*
X752793Y499110D03*
X765493Y499110D03*
X778193Y499110D03*
X778193Y446405D03*
X765493Y446405D03*
X752793Y446405D03*
X740093Y446405D03*
X727393Y446405D03*
X714693Y446405D03*
X701993Y446405D03*
X689293Y446405D03*
X280353Y82550D03*
X293053Y82550D03*
X305753Y82550D03*
X318453Y82550D03*
X331153Y82550D03*
X343853Y82550D03*
X356553Y82550D03*
X369253Y82550D03*
X369253Y29845D03*
X356553Y29845D03*
X343853Y29845D03*
X331153Y29845D03*
X318453Y29845D03*
X305753Y29845D03*
X293053Y29845D03*
X280353Y29845D03*
X775653Y85090D03*
X788353Y85090D03*
X801053Y85090D03*
X813753Y85090D03*
X826453Y85090D03*
X839153Y85090D03*
X851853Y85090D03*
X864553Y85090D03*
X864553Y32385D03*
X851853Y32385D03*
X839153Y32385D03*
X826453Y32385D03*
X813753Y32385D03*
X801053Y32385D03*
X788353Y32385D03*
X775653Y32385D03*
D17*
X576483Y503238D03*
X540483Y503238D03*
X627283Y541338D03*
X591283Y541338D03*
X690783Y566738D03*
X654783Y566738D03*
X754283Y579438D03*
X718283Y579438D03*
X817783Y566738D03*
X781783Y566738D03*
X881283Y541338D03*
X845283Y541338D03*
X919700Y215900D03*
X883700Y215900D03*
X754600Y215900D03*
X718600Y215900D03*
X589500Y215900D03*
X553500Y215900D03*
X424400Y215900D03*
X388400Y215900D03*
X259300Y215900D03*
X223300Y215900D03*
X94200Y215900D03*
X58200Y215900D03*
D18*
X66040Y698180D03*
X91440Y698180D03*
D19*
X215900Y685800D03*
X241300Y685800D03*
X266700Y685800D03*
X381000Y685800D03*
X406400Y685800D03*
X431800Y685800D03*
X546418Y686118D03*
X571818Y686118D03*
X597218Y686118D03*
X708660Y685800D03*
X734060Y685800D03*
X759460Y685800D03*
D20*
X53423Y500698D03*
X78423Y500698D03*
X103423Y500698D03*
D21*
X23423Y562698D02*
X23423Y578698D01*
X133423Y578698D02*
X133423Y562698D01*
D20*
X709060Y279400D03*
X734060Y279400D03*
X759060Y279400D03*
D21*
X679060Y341400D02*
X679060Y357400D01*
X789060Y357400D02*
X789060Y341400D01*
D20*
X381083Y279718D03*
X406083Y279718D03*
X431083Y279718D03*
D21*
X351083Y341718D02*
X351083Y357718D01*
X461083Y357718D02*
X461083Y341718D01*
D20*
X215983Y279718D03*
X240983Y279718D03*
X265983Y279718D03*
D21*
X185983Y341718D02*
X185983Y357718D01*
X295983Y357718D02*
X295983Y341718D01*
D20*
X381083Y500698D03*
X406083Y500698D03*
X431083Y500698D03*
D21*
X351083Y562698D02*
X351083Y578698D01*
X461083Y578698D02*
X461083Y562698D01*
D20*
X215983Y500698D03*
X240983Y500698D03*
X265983Y500698D03*
D21*
X185983Y562698D02*
X185983Y578698D01*
X295983Y578698D02*
X295983Y562698D01*
D22*
X1263333Y1073468D03*
X31433Y1073468D03*
D23*
X213805Y1067118D03*
X240983Y1067118D03*
X268161Y1067118D03*
X378905Y1067118D03*
X406083Y1067118D03*
X433261Y1067118D03*
X544005Y1067118D03*
X571183Y1067118D03*
X598361Y1067118D03*
X709105Y1067118D03*
X736283Y1067118D03*
X763461Y1067118D03*
D22*
X31433Y32068D03*
X1141413Y217488D03*
D11*
X78140Y420370D03*
X78140Y433070D03*
X78140Y445770D03*
X78140Y458470D03*
X130140Y458470D03*
X130140Y445770D03*
X130140Y433070D03*
X130140Y420370D03*
D10*
X279314Y718820D03*
X294726Y718820D03*
X205826Y718820D03*
X190414Y718820D03*
X378374Y447040D03*
X393786Y447040D03*
X335194Y309880D03*
X350606Y309880D03*
X337734Y510540D03*
X353146Y510540D03*
X462366Y937260D03*
X446954Y937260D03*
X337734Y487680D03*
X353146Y487680D03*
X378374Y401320D03*
X393786Y401320D03*
X337734Y1066800D03*
X353146Y1066800D03*
X444586Y718820D03*
X429174Y718820D03*
X386166Y718820D03*
X370754Y718820D03*
X586826Y749300D03*
X571414Y749300D03*
X546186Y749300D03*
X530774Y749300D03*
X497754Y1066800D03*
X513166Y1066800D03*
X667934Y1066800D03*
X683346Y1066800D03*
X764626Y749300D03*
X749214Y749300D03*
X706034Y749300D03*
X721446Y749300D03*
X792566Y937260D03*
X777154Y937260D03*
X792884Y912178D03*
X777471Y912178D03*
X624926Y914400D03*
X609514Y914400D03*
X624609Y937578D03*
X609196Y937578D03*
X693506Y937260D03*
X678094Y937260D03*
X777154Y960120D03*
X792566Y960120D03*
X345526Y396240D03*
X330114Y396240D03*
X121834Y398780D03*
X137246Y398780D03*
X1219286Y909320D03*
X1203874Y909320D03*
X1272626Y909320D03*
X1257214Y909320D03*
D24*
X113983Y118538D03*
X113983Y100538D03*
X197803Y118538D03*
X197803Y100538D03*
X441643Y121078D03*
X441643Y103078D03*
X528003Y118538D03*
X528003Y100538D03*
X695643Y118538D03*
X695643Y100538D03*
X936943Y118538D03*
X936943Y100538D03*
X27623Y311578D03*
X27623Y293578D03*
X621983Y377618D03*
X621983Y359618D03*
X853123Y367458D03*
X853123Y349458D03*
X997903Y494458D03*
X997903Y476458D03*
X1234123Y491918D03*
X1234123Y473918D03*
X1231583Y367458D03*
X1231583Y349458D03*
X998220Y367140D03*
X998220Y349140D03*
D25*
X1156970Y849455D03*
X1131570Y849455D03*
X1156970Y825818D03*
X1131570Y825818D03*
X1156970Y800418D03*
X1131570Y800418D03*
X1156970Y775018D03*
X1131570Y775018D03*
X1156970Y751380D03*
X1131570Y751380D03*
D26*
X1114800Y889000D03*
X1145800Y889000D03*
D27*
X1113761Y914400D03*
X1146839Y914400D03*
D10*
X1216574Y579120D03*
X1231986Y579120D03*
D28*
X1201240Y533400D03*
X1242240Y533400D03*
X1198383Y404178D03*
X1239383Y404178D03*
D10*
X581429Y611823D03*
X566016Y611823D03*
D29*
X825183Y1067118D03*
X825183Y1041718D03*
X825183Y1016318D03*
X825183Y990918D03*
X825183Y965518D03*
X825183Y940118D03*
X825183Y914718D03*
X825183Y889318D03*
X825183Y863918D03*
X825183Y838518D03*
X825183Y813118D03*
X825183Y787718D03*
X825183Y762318D03*
X825183Y736918D03*
X825183Y711518D03*
X825183Y686118D03*
X825183Y660718D03*
X977583Y1067118D03*
X977583Y1041718D03*
X977583Y1016318D03*
X977583Y990918D03*
X977583Y965518D03*
X977583Y940118D03*
X977583Y914718D03*
X977583Y889318D03*
X977583Y863918D03*
X977583Y838518D03*
X977583Y813118D03*
X977583Y787718D03*
X977583Y762318D03*
X977583Y736918D03*
X977583Y711518D03*
X977583Y686118D03*
X977583Y660718D03*
D10*
X297266Y828040D03*
X281854Y828040D03*
X462366Y830580D03*
X446954Y830580D03*
X627466Y828040D03*
X612054Y828040D03*
D30*
X1127951Y983171D02*
X1144715Y983171D01*
D31*
X1144833Y1040575D02*
X1127833Y1040575D01*
D30*
X1180783Y1020255D02*
X1180783Y1003491D01*
D10*
X525694Y530860D03*
X541106Y530860D03*
D13*
X1256475Y574612D03*
X1191451Y574612D03*
X1256475Y619824D03*
X1191451Y619824D03*
X1028891Y619824D03*
X1093915Y619824D03*
X1028891Y574612D03*
X1093915Y574612D03*
D17*
X1077180Y218440D03*
X1041180Y218440D03*
X1244820Y218440D03*
X1208820Y218440D03*
X589183Y406718D03*
X553183Y406718D03*
X835563Y406718D03*
X799563Y406718D03*
D10*
X109134Y718820D03*
X124546Y718820D03*
X157394Y485140D03*
X172806Y485140D03*
X172806Y439420D03*
X157394Y439420D03*
X50886Y474980D03*
X35474Y474980D03*
X137246Y939800D03*
X121834Y939800D03*
X609514Y749300D03*
X624926Y749300D03*
D32*
X650240Y814041D03*
X650240Y847119D03*
D10*
X662854Y749300D03*
X678266Y749300D03*
D32*
X662940Y692121D03*
X662940Y725199D03*
D10*
X665566Y444500D03*
X650154Y444500D03*
X1168314Y347980D03*
X1183726Y347980D03*
X1224366Y665480D03*
X1208954Y665480D03*
X399011Y28258D03*
X414424Y28258D03*
X573954Y574040D03*
X589366Y574040D03*
X662854Y538480D03*
X678266Y538480D03*
X713654Y538480D03*
X729066Y538480D03*
X861146Y574040D03*
X845734Y574040D03*
X919566Y541020D03*
X904154Y541020D03*
X23091Y215583D03*
X38504Y215583D03*
X185651Y215583D03*
X201064Y215583D03*
X353291Y215583D03*
X368704Y215583D03*
X515851Y215583D03*
X531264Y215583D03*
X792566Y215900D03*
X777154Y215900D03*
X960206Y215900D03*
X944794Y215900D03*
X1054014Y271780D03*
X1069426Y271780D03*
X1132754Y271780D03*
X1148166Y271780D03*
X876386Y406400D03*
X860974Y406400D03*
X515534Y406400D03*
X530946Y406400D03*
D24*
X1231583Y621458D03*
X1231583Y603458D03*
X997903Y573198D03*
X997903Y555198D03*
X1081723Y705278D03*
X1081723Y687278D03*
D33*
X902653Y952818D03*
X902653Y978218D03*
X901383Y1003618D03*
X902653Y1029018D03*
D10*
X1160694Y297180D03*
X1176106Y297180D03*
X1226734Y297180D03*
X1242146Y297180D03*
D16*
X605473Y656590D03*
X618173Y656590D03*
X630873Y656590D03*
X643573Y656590D03*
X656273Y656590D03*
X668973Y656590D03*
X681673Y656590D03*
X694373Y656590D03*
X694373Y603885D03*
X681673Y603885D03*
X668973Y603885D03*
X656273Y603885D03*
X643573Y603885D03*
X630873Y603885D03*
X618173Y603885D03*
X605473Y603885D03*
D34*
X533663Y721678D03*
X542663Y721678D03*
X708923Y721678D03*
X717923Y721678D03*
D14*
X1168340Y378700D03*
X1122740Y378700D03*
D15*
X1145540Y447680D03*
D10*
X932094Y688340D03*
X947506Y688340D03*
X1122766Y347980D03*
X1107354Y347980D03*
D24*
X27623Y380158D03*
X27623Y362158D03*
D10*
X157394Y416560D03*
X172806Y416560D03*
X157394Y393700D03*
X172806Y393700D03*
X137246Y830580D03*
X121834Y830580D03*
X50886Y431800D03*
X35474Y431800D03*
D35*
X901383Y698818D03*
X903923Y724218D03*
X901383Y749618D03*
X903923Y775018D03*
X901383Y800418D03*
X903923Y825818D03*
D36*
X1079183Y1092518D03*
X1079183Y1067118D03*
X1079183Y1041718D03*
X1079183Y1016318D03*
X1079183Y990918D03*
X1079183Y965518D03*
X1079183Y940118D03*
X1079183Y914718D03*
X1079183Y889318D03*
X1079183Y863918D03*
X1079183Y838518D03*
X1079183Y813118D03*
X1079183Y787718D03*
X1079183Y762318D03*
X926783Y762318D03*
X926783Y787718D03*
X926783Y813118D03*
X926783Y838518D03*
X926783Y863918D03*
X926783Y889318D03*
X926783Y914718D03*
X926783Y940118D03*
X926783Y965518D03*
X926783Y990918D03*
X926783Y1016318D03*
X926783Y1041718D03*
X926783Y1067118D03*
X926783Y1092518D03*
D10*
X932094Y711200D03*
X947506Y711200D03*
X1097366Y523240D03*
X1081954Y523240D03*
D37*
X952183Y762318D03*
D10*
X904326Y27940D03*
X888914Y27940D03*
D38*
X116523Y170498D03*
X65723Y119698D03*
D39*
X91123Y94298D03*
X40323Y170498D03*
D38*
X279083Y170498D03*
X228283Y119698D03*
D39*
X253683Y94298D03*
X202883Y170498D03*
D38*
X444183Y170498D03*
X393383Y119698D03*
D39*
X418783Y94298D03*
X367983Y170498D03*
D38*
X609283Y170498D03*
X558483Y119698D03*
D39*
X583883Y94298D03*
X533083Y170498D03*
D38*
X774700Y170180D03*
X723900Y119380D03*
D39*
X749300Y93980D03*
X698500Y170180D03*
D38*
X939483Y170498D03*
X888683Y119698D03*
D39*
X914083Y94298D03*
X863283Y170498D03*
D17*
X932083Y503238D03*
X896083Y503238D03*
D10*
X970366Y502920D03*
X954954Y502920D03*
D23*
X1280478Y236030D03*
X1280478Y263208D03*
X1280478Y290386D03*
D28*
X58558Y625158D03*
X99558Y625158D03*
D35*
X1085136Y414338D03*
X1061403Y414655D03*
X1037590Y414338D03*
D40*
X137478Y338318D03*
X137478Y297318D03*
D41*
X502603Y620633D03*
X528003Y620633D03*
X502603Y597218D03*
X528003Y597218D03*
X502603Y573802D03*
X528003Y573802D03*
D35*
X77549Y1068388D03*
X101283Y1068705D03*
X125095Y1068388D03*
D10*
X175346Y269240D03*
X159934Y269240D03*
X157394Y462280D03*
X172806Y462280D03*
X50886Y454660D03*
X35474Y454660D03*
X50886Y408940D03*
X35474Y408940D03*
X378374Y424180D03*
X393786Y424180D03*
X253914Y414020D03*
X269326Y414020D03*
X238846Y256540D03*
X223434Y256540D03*
X401406Y261620D03*
X385994Y261620D03*
D27*
X1207741Y252730D03*
X1240819Y252730D03*
X1207741Y275590D03*
X1240819Y275590D03*
D12*
X293840Y881380D03*
X208840Y881380D03*
X178840Y881380D03*
X456400Y881380D03*
X371400Y881380D03*
X341400Y881380D03*
X621500Y881380D03*
X536500Y881380D03*
X506500Y881380D03*
X784060Y881380D03*
X699060Y881380D03*
X669060Y881380D03*
X128740Y881380D03*
X43740Y881380D03*
X13740Y881380D03*
D10*
X1262466Y642620D03*
X1247054Y642620D03*
X1270086Y805180D03*
X1254674Y805180D03*
D42*
X1245940Y732070D03*
X1273740Y732070D03*
X1273740Y664920D03*
D43*
X1259840Y664920D03*
D42*
X1245940Y664920D03*
D44*
X1253880Y782320D03*
X1270880Y782320D03*
D10*
X1196254Y853440D03*
X1211666Y853440D03*
X764626Y723900D03*
X749214Y723900D03*
X586826Y726440D03*
X571414Y726440D03*
D12*
X621500Y990600D03*
X536500Y990600D03*
X506500Y990600D03*
X456400Y990600D03*
X371400Y990600D03*
X341400Y990600D03*
X291300Y990600D03*
X206300Y990600D03*
X176300Y990600D03*
X128740Y990600D03*
X43740Y990600D03*
X13740Y990600D03*
D10*
X792566Y830580D03*
X777154Y830580D03*
D17*
X261840Y828040D03*
X225840Y828040D03*
D10*
X200746Y828040D03*
X185334Y828040D03*
D17*
X424400Y830580D03*
X388400Y830580D03*
D10*
X368386Y830580D03*
X352974Y830580D03*
D17*
X589500Y937260D03*
X553500Y937260D03*
D10*
X512994Y937260D03*
X528406Y937260D03*
D17*
X589500Y825500D03*
X553500Y825500D03*
D10*
X515534Y828040D03*
X530946Y828040D03*
D17*
X752060Y934720D03*
X716060Y934720D03*
D10*
X678094Y914400D03*
X693506Y914400D03*
D17*
X754600Y830580D03*
X718600Y830580D03*
D10*
X680634Y830580D03*
X696046Y830580D03*
D17*
X424400Y937260D03*
X388400Y937260D03*
D10*
X363306Y937260D03*
X347894Y937260D03*
D17*
X259300Y937260D03*
X223300Y937260D03*
D10*
X200746Y937260D03*
X185334Y937260D03*
D17*
X96740Y830580D03*
X60740Y830580D03*
D10*
X38186Y830580D03*
X22774Y830580D03*
D17*
X99280Y939800D03*
X63280Y939800D03*
D10*
X38186Y939800D03*
X22774Y939800D03*
D13*
X1172972Y663194D03*
X1107948Y663194D03*
X1172972Y708406D03*
X1107948Y708406D03*
D45*
X797560Y1081691D03*
X797560Y1053814D03*
D39*
X83820Y30480D03*
D46*
X83820Y30480D03*
D39*
X1211580Y1087120D03*
D46*
X1211580Y1087120D03*
D39*
X1272540Y30480D03*
D46*
X1272540Y30480D03*
D39*
X25400Y1028700D03*
D46*
X25400Y1028700D03*
D47*
X177800Y1031240D03*
X144780Y1033780D03*
X637540Y589280D03*
X657860Y523240D03*
X406400Y78740D03*
X317500Y43180D03*
X429260Y25400D03*
X815340Y48260D03*
X886460Y45720D03*
X157480Y355600D03*
X78740Y472440D03*
X147320Y528320D03*
X314960Y609600D03*
X480060Y467360D03*
X650240Y485140D03*
X845820Y477520D03*
X932180Y599440D03*
X840740Y640080D03*
X1219200Y1016000D03*
X1033780Y1082040D03*
X845820Y1089660D03*
X960120Y1076960D03*
X629920Y1059180D03*
X492760Y812800D03*
X477520Y617220D03*
X477520Y513080D03*
X556260Y447040D03*
X490220Y297180D03*
X886460Y81280D03*
X1150620Y635000D03*
X1216660Y637540D03*
X1254760Y553720D03*
X1259840Y513080D03*
X1170940Y502920D03*
X1127760Y495300D03*
X1102360Y472440D03*
X1143000Y485140D03*
X1059180Y538480D03*
X1087120Y551180D03*
X914400Y662940D03*
X845820Y734060D03*
X144780Y408940D03*
X193040Y414020D03*
X190500Y439420D03*
X208280Y459740D03*
X134620Y480060D03*
X254000Y459740D03*
X297180Y472440D03*
X342900Y467360D03*
X368300Y467360D03*
X393700Y467360D03*
X429260Y464820D03*
X236220Y414020D03*
X1145540Y358140D03*
X1173480Y259080D03*
X1198880Y289560D03*
X1165860Y317500D03*
X1064260Y650240D03*
X1112520Y944880D03*
X850900Y1059180D03*
X800100Y1031240D03*
X774700Y1046480D03*
X736600Y1038860D03*
X891540Y1071880D03*
X906780Y919480D03*
X886460Y909320D03*
X894080Y889000D03*
X873760Y845820D03*
X881380Y810260D03*
X861060Y784860D03*
X843280Y759460D03*
X868680Y726440D03*
X1013460Y1036320D03*
X1041400Y1036320D03*
X1041400Y805180D03*
X1018540Y728980D03*
X1021080Y701040D03*
X965200Y591820D03*
X1049020Y650240D03*
X1198880Y767080D03*
X1229360Y805180D03*
X1231900Y835660D03*
X1028700Y528320D03*
X116840Y909320D03*
X45720Y911860D03*
X93980Y759460D03*
X127000Y746760D03*
X68580Y391160D03*
X121920Y355600D03*
X314960Y284480D03*
X144780Y58420D03*
X220980Y88900D03*
X299720Y60960D03*
X482600Y165100D03*
X662940Y203200D03*
X683260Y678180D03*
X731520Y622300D03*
X734060Y655320D03*
X629920Y568960D03*
X716280Y520700D03*
X706120Y480060D03*
X673100Y480060D03*
X566420Y546100D03*
X553720Y591820D03*
X558800Y533400D03*
X670560Y843280D03*
X665480Y802640D03*
X86360Y546100D03*
X650240Y170180D03*
X574040Y167640D03*
X734060Y167640D03*
X665480Y58420D03*
X947420Y525780D03*
X838200Y513080D03*
X779780Y538480D03*
X749300Y480060D03*
D48*
X1112520Y548640D03*
X1226820Y647700D03*
D49*
X764540Y424180D03*
X689293Y425133D03*
X309880Y388620D03*
X314960Y363220D03*
X957580Y817880D03*
X447040Y916940D03*
D48*
X261620Y718820D03*
D49*
X365760Y513080D03*
X447040Y640080D03*
D47*
X896620Y1054100D03*
D50*
X596900Y739140D03*
D47*
X944880Y812800D03*
D49*
X739140Y414020D03*
X886460Y764540D03*
X858520Y764540D03*
X861060Y622300D03*
X889000Y591820D03*
D50*
X1008380Y1003300D03*
D47*
X858520Y975360D03*
D50*
X863600Y939800D03*
D47*
X982980Y436880D03*
D51*
X637540Y370840D03*
D47*
X635000Y228600D03*
X635000Y101600D03*
D49*
X781777Y109220D03*
X817880Y144780D03*
X38100Y96520D03*
X71120Y99060D03*
X419100Y142240D03*
X180340Y127000D03*
X713740Y58420D03*
X703580Y30480D03*
X160020Y88900D03*
X779780Y429260D03*
D47*
X863600Y914400D03*
X792480Y665480D03*
X756920Y622046D03*
D49*
X698500Y223520D03*
X749300Y35560D03*
D47*
X866140Y868680D03*
X866140Y881380D03*
X802640Y657860D03*
D49*
X759460Y22860D03*
X838200Y48260D03*
X767080Y233680D03*
D47*
X307340Y701040D03*
X284480Y807720D03*
X459740Y716280D03*
X459740Y741680D03*
X609600Y810260D03*
X637540Y795020D03*
D51*
X769620Y124460D03*
D47*
X800100Y66040D03*
D49*
X858520Y924560D03*
X812800Y924560D03*
X770037Y850900D03*
X861060Y894080D03*
X650240Y868680D03*
X650240Y762000D03*
X838200Y132080D03*
X838200Y226060D03*
X807720Y337820D03*
X850900Y124460D03*
X850900Y231140D03*
X770890Y387350D03*
D50*
X868680Y1031240D03*
D47*
X998220Y439420D03*
X998220Y408940D03*
D49*
X1198880Y688340D03*
X1176020Y688340D03*
X1028700Y762000D03*
D47*
X876300Y858520D03*
D49*
X220980Y726440D03*
X220980Y746760D03*
X1016000Y817880D03*
D47*
X1023620Y843280D03*
D49*
X1010920Y698500D03*
D47*
X848360Y787400D03*
D49*
X998220Y858520D03*
X1036320Y833120D03*
X1021080Y784860D03*
X111760Y789940D03*
X115796Y434340D03*
X589280Y452120D03*
X617220Y589280D03*
X1117600Y66040D03*
X355600Y104140D03*
X342900Y58420D03*
X342900Y109220D03*
D48*
X330200Y327660D03*
D49*
X1120140Y299720D03*
X1145540Y299720D03*
X576580Y764540D03*
X721360Y762000D03*
X695960Y586740D03*
X713740Y462280D03*
X657860Y1026160D03*
M02*
