(footprint "ARDUINO-MICRO" (version 20211014) (generator pcbnew)
  (layer "F.Cu")
  (tedit 0)
  (fp_text reference "REF**" (at 0.9525 -46.4185) (layer "F.SilkS")
    (effects (font (size 1.1684 1.1684) (thickness 0.1016)) (justify left bottom))
    (tstamp 019b9904-3bfd-4fd4-9d41-96b38c16849e)
  )
  (fp_text value ">VALUE" (at 0.1905 5.08) (layer "F.Fab")
    (effects (font (size 1.1684 1.1684) (thickness 0.1016)) (justify left bottom))
    (tstamp d6570804-0f13-4bd8-a39e-13afafdb752a)
  )
  (fp_line (start 17.78 2.54) (end 17.78 -45.72) (layer "F.SilkS") (width 0.4064) (tstamp 3f40e620-2b34-4c9e-b852-1ba39e3dbc3a))
  (fp_line (start 0 -45.72) (end 0 2.54) (layer "F.SilkS") (width 0.4064) (tstamp 44f6de44-c3d8-405f-ac4c-196fb6e5deee))
  (fp_line (start 17.78 -45.72) (end 0 -45.72) (layer "F.SilkS") (width 0.4064) (tstamp 48d919bf-1f23-4426-bfff-25ceb2530f1f))
  (fp_line (start 0 2.54) (end 17.78 2.54) (layer "F.SilkS") (width 0.4064) (tstamp fd1d5da9-cff8-4c76-9b2b-14585edbbb1e))
  (fp_line (start 12.6365 2.032) (end 13.3985 2.032) (layer "F.Fab") (width 0.4064) (tstamp 22fad860-3ccd-4e16-bb76-65feba77694a))
  (fp_line (start 12.6365 3.302) (end 12.6365 2.032) (layer "F.Fab") (width 0.4064) (tstamp 25ada721-670a-4020-ae0b-77410c4e375a))
  (fp_line (start 5.5245 2.032) (end 5.5245 3.302) (layer "F.Fab") (width 0.4064) (tstamp 2ecadc66-69f8-45d0-bf37-af9bed077d19))
  (fp_line (start 4.7625 2.032) (end 5.5245 2.032) (layer "F.Fab") (width 0.4064) (tstamp 3f43b8cc-e232-4de4-a8bc-56a1a1c0a87a))
  (fp_line (start 13.3985 0) (end 12.6365 0) (layer "F.Fab") (width 0.4064) (tstamp 5c98cb3c-93cf-496b-a0fd-51386a56d77e))
  (fp_line (start 12.6365 -2.032) (end 5.5245 -2.032) (layer "F.Fab") (width 0.4064) (tstamp 842c62a3-da79-4cc2-9eb8-0e81d553171d))
  (fp_line (start 5.5245 0) (end 4.7625 0) (layer "F.Fab") (width 0.4064) (tstamp 9801ccc8-5152-40bb-932d-67072f8cd8ad))
  (fp_line (start 5.5245 3.302) (end 12.6365 3.302) (layer "F.Fab") (width 0.4064) (tstamp 9f7324c5-50a2-442c-8a80-edf04aa2b2ac))
  (fp_line (start 13.3985 2.032) (end 13.3985 0) (layer "F.Fab") (width 0.4064) (tstamp b2944857-047d-4655-a00b-49e658220448))
  (fp_line (start 12.6365 0) (end 12.6365 -2.032) (layer "F.Fab") (width 0.4064) (tstamp d92eb7fd-0303-4aaa-b39e-7bf35dbafd2d))
  (fp_line (start 5.5245 -2.032) (end 5.5245 0) (layer "F.Fab") (width 0.4064) (tstamp dba4ad5b-8704-4fc8-9247-b9c4709cf1cf))
  (fp_line (start 4.7625 0) (end 4.7625 2.032) (layer "F.Fab") (width 0.4064) (tstamp f6c96c0d-4cf7-4e5a-ad96-cb52e5fda138))
  (pad "3V3" thru_hole circle (at 16.51 -3.81) (size 1.408 1.408) (drill 0.9) (layers *.Cu *.Mask)
    (solder_mask_margin 0.1016) (tstamp 5600b446-cc57-4d99-a6dd-3cb2f076483c))
  (pad "5V" thru_hole circle (at 16.51 -29.21) (size 1.408 1.408) (drill 0.9) (layers *.Cu *.Mask)
    (solder_mask_margin 0.1016) (tstamp 7f2c9904-545b-4337-acd6-8707e0924818))
  (pad "A0" thru_hole circle (at 16.51 -8.89) (size 1.408 1.408) (drill 0.9) (layers *.Cu *.Mask)
    (solder_mask_margin 0.1016) (tstamp 6d4e5957-6764-40d7-9d3e-e16ba095c79a))
  (pad "A1" thru_hole circle (at 16.51 -11.43) (size 1.408 1.408) (drill 0.9) (layers *.Cu *.Mask)
    (solder_mask_margin 0.1016) (tstamp 7e9c7b14-3332-49ee-a587-5014a80db3f9))
  (pad "A2" thru_hole circle (at 16.51 -13.97) (size 1.408 1.408) (drill 0.9) (layers *.Cu *.Mask)
    (solder_mask_margin 0.1016) (tstamp f03f8712-a7f0-45ba-8dbf-7ce6f298ed42))
  (pad "A3" thru_hole circle (at 16.51 -16.51) (size 1.408 1.408) (drill 0.9) (layers *.Cu *.Mask)
    (solder_mask_margin 0.1016) (tstamp ad9624f8-cf25-4b9a-95b1-2c64fccd57f6))
  (pad "A4" thru_hole circle (at 16.51 -19.05) (size 1.408 1.408) (drill 0.9) (layers *.Cu *.Mask)
    (solder_mask_margin 0.1016) (tstamp 051d4750-b73a-474f-abf5-a58dadb01c92))
  (pad "A5" thru_hole circle (at 16.51 -21.59) (size 1.408 1.408) (drill 0.9) (layers *.Cu *.Mask)
    (solder_mask_margin 0.1016) (tstamp 74a9c3ca-08aa-4a6a-9a4f-5ecc24362076))
  (pad "D2" thru_hole circle (at 1.27 -26.67) (size 1.408 1.408) (drill 0.9) (layers *.Cu *.Mask)
    (solder_mask_margin 0.1016) (tstamp a43501fb-72a9-4536-bb81-9f53755e8169))
  (pad "D3" thru_hole circle (at 1.27 -24.13) (size 1.408 1.408) (drill 0.9) (layers *.Cu *.Mask)
    (solder_mask_margin 0.1016) (tstamp 3c847883-a462-4ea9-9466-d1dd1edc5a97))
  (pad "D4" thru_hole circle (at 1.27 -21.59) (size 1.408 1.408) (drill 0.9) (layers *.Cu *.Mask)
    (solder_mask_margin 0.1016) (tstamp 9b11964f-5943-49c9-bbf0-08d035779463))
  (pad "D5" thru_hole circle (at 1.27 -19.05) (size 1.408 1.408) (drill 0.9) (layers *.Cu *.Mask)
    (solder_mask_margin 0.1016) (tstamp 449c1c23-1f0d-4ed5-b566-2c18ec95c2a3))
  (pad "D6" thru_hole circle (at 1.27 -16.51) (size 1.408 1.408) (drill 0.9) (layers *.Cu *.Mask)
    (solder_mask_margin 0.1016) (tstamp 43cc948b-7aa9-4530-a448-911bd0e35fae))
  (pad "D7" thru_hole circle (at 1.27 -13.97) (size 1.408 1.408) (drill 0.9) (layers *.Cu *.Mask)
    (solder_mask_margin 0.1016) (tstamp e6eb6955-2cd6-4a24-9d4c-bf3c42dcce77))
  (pad "D8" thru_hole circle (at 1.27 -11.43) (size 1.408 1.408) (drill 0.9) (layers *.Cu *.Mask)
    (solder_mask_margin 0.1016) (tstamp cfdd684c-0d04-48e4-a62a-4b899d9ad32f))
  (pad "D9" thru_hole circle (at 1.27 -8.89) (size 1.408 1.408) (drill 0.9) (layers *.Cu *.Mask)
    (solder_mask_margin 0.1016) (tstamp 5f88a249-af85-4825-b9e1-a3ec67ffc637))
  (pad "D10" thru_hole circle (at 1.27 -6.35) (size 1.408 1.408) (drill 0.9) (layers *.Cu *.Mask)
    (solder_mask_margin 0.1016) (tstamp 899f373a-cf16-4f13-9d21-dfc8f80ca371))
  (pad "D11" thru_hole circle (at 1.27 -3.81) (size 1.408 1.408) (drill 0.9) (layers *.Cu *.Mask)
    (solder_mask_margin 0.1016) (tstamp 77b09fa1-fbbb-49ab-94c4-069660b694ff))
  (pad "D12" thru_hole circle (at 1.27 -1.27) (size 1.408 1.408) (drill 0.9) (layers *.Cu *.Mask)
    (solder_mask_margin 0.1016) (tstamp 4829bee0-faa8-43f7-b2d7-8a6e5d1b3050))
  (pad "D13" thru_hole circle (at 16.51 -1.27) (size 1.408 1.408) (drill 0.9) (layers *.Cu *.Mask)
    (solder_mask_margin 0.1016) (tstamp 8cb63406-42c5-417f-9384-cf8cdba62340))
  (pad "GND" thru_hole circle (at 1.27 -29.21) (size 1.408 1.408) (drill 0.9) (layers *.Cu *.Mask)
    (solder_mask_margin 0.1016) (tstamp a1cf3838-7a06-43e1-a94f-aa849ba69819))
  (pad "GND1" thru_hole circle (at 16.51 -34.29) (size 1.408 1.408) (drill 0.9) (layers *.Cu *.Mask)
    (solder_mask_margin 0.1016) (tstamp f46f4b86-daf6-4869-98cb-928039f00f5f))
  (pad "MISO" thru_hole circle (at 16.51 -39.37) (size 1.408 1.408) (drill 0.9) (layers *.Cu *.Mask)
    (solder_mask_margin 0.1016) (tstamp b05af61d-3c1d-44cf-aea2-61fd169c9d1a))
  (pad "MOSI" thru_hole circle (at 1.27 -41.91) (size 1.408 1.408) (drill 0.9) (layers *.Cu *.Mask)
    (solder_mask_margin 0.1016) (tstamp 2e2c4431-7ad4-4101-b72a-e48147e24a71))
  (pad "NC7" thru_hole circle (at 16.51 -26.67) (size 1.408 1.408) (drill 0.9) (layers *.Cu *.Mask)
    (solder_mask_margin 0.1016) (tstamp 73e2a101-0bc0-414b-9aa7-7eeb8a3caef1))
  (pad "NC8" thru_hole circle (at 16.51 -24.13) (size 1.408 1.408) (drill 0.9) (layers *.Cu *.Mask)
    (solder_mask_margin 0.1016) (tstamp e382fedc-c868-44fd-9740-47cc05b15c1c))
  (pad "REF" thru_hole circle (at 16.51 -6.35) (size 1.408 1.408) (drill 0.9) (layers *.Cu *.Mask)
    (solder_mask_margin 0.1016) (tstamp 8a56a0e1-0b83-4459-b285-5106d6ccafbb))
  (pad "RST" thru_hole circle (at 1.27 -31.75) (size 1.408 1.408) (drill 0.9) (layers *.Cu *.Mask)
    (solder_mask_margin 0.1016) (tstamp 73975e5a-04c0-454b-b7b1-06dcb3c81497))
  (pad "RST1" thru_hole circle (at 16.51 -31.75) (size 1.408 1.408) (drill 0.9) (layers *.Cu *.Mask)
    (solder_mask_margin 0.1016) (tstamp 70b621b6-45b5-43cb-9683-d589118723d7))
  (pad "RX" thru_hole circle (at 1.27 -34.29) (size 1.408 1.408) (drill 0.9) (layers *.Cu *.Mask)
    (solder_mask_margin 0.1016) (tstamp bdb69042-8fa0-4d7e-be19-fed7218cdfd8))
  (pad "SCK" thru_hole circle (at 16.51 -41.91) (size 1.408 1.408) (drill 0.9) (layers *.Cu *.Mask)
    (solder_mask_margin 0.1016) (tstamp 6c5e0d12-8ed5-4c38-93b5-5d0f856a23b9))
  (pad "SS" thru_hole circle (at 1.27 -39.37) (size 1.408 1.408) (drill 0.9) (layers *.Cu *.Mask)
    (solder_mask_margin 0.1016) (tstamp 822cf157-ecb8-46d7-8cc6-5f0248fd6b37))
  (pad "TX" thru_hole circle (at 1.27 -36.83) (size 1.408 1.408) (drill 0.9) (layers *.Cu *.Mask)
    (solder_mask_margin 0.1016) (tstamp 9f7b3295-d16c-467f-88f6-2ab8ee650e3a))
  (pad "VIN" thru_hole circle (at 16.51 -36.83) (size 1.408 1.408) (drill 0.9) (layers *.Cu *.Mask)
    (solder_mask_margin 0.1016) (tstamp b7e9cf10-b74e-4e80-a7f1-e33a29fe56de))
)
