(footprint "C_C050-024X044" (version 20211014) (generator pcbnew)
  (layer "F.Cu")
  (tedit 0)
  (descr "<b>CAPACITOR</b><p>\ngrid 5 mm, outline 2.4 x 4.4 mm")
  (fp_text reference "REF**" (at 0 -2.032) (layer "F.SilkS")
    (effects (font (size 0.68 0.68) (thickness 0.12)))
    (tstamp 496eb987-d081-4e1e-a63a-28ee1d48f2f8)
  )
  (fp_text value ">VALUE" (at 0 0) (layer "F.Fab")
    (effects (font (size 0.68 0.68) (thickness 0.12)))
    (tstamp 0157ed9d-375b-4b39-a7c1-9cb08dcf67bf)
  )
  (fp_line (start 1.651 1.143) (end -1.651 1.143) (layer "F.SilkS") (width 0.1524) (tstamp 42dd1fad-d6e1-4a22-bcd7-61c29a70aea6))
  (fp_line (start 1.651 -1.143) (end -1.651 -1.143) (layer "F.SilkS") (width 0.1524) (tstamp 430b98dc-0155-464c-95fc-2bf720cc2dd3))
  (fp_arc (start 1.651 -1.143) (mid 2.01021 -0.99421) (end 2.159 -0.635) (layer "F.SilkS") (width 0.1524) (tstamp 2a891096-042c-4004-b161-8bd2c0b59fd7))
  (fp_arc (start 2.159 0.635) (mid 2.01021 0.99421) (end 1.651 1.143) (layer "F.SilkS") (width 0.1524) (tstamp 771145ed-2e00-4172-ac95-37a36c6a35ce))
  (fp_arc (start -1.651 1.143) (mid -2.01021 0.99421) (end -2.159 0.635) (layer "F.SilkS") (width 0.1524) (tstamp 776fdb81-16bd-40fc-866b-5d7c4f5af091))
  (fp_arc (start -2.159 -0.635) (mid -2.01021 -0.99421) (end -1.651 -1.143) (layer "F.SilkS") (width 0.1524) (tstamp f0d59009-bdb6-4150-8249-d2a9c5928391))
  (fp_line (start -2.159 0.635) (end -2.159 -0.635) (layer "F.Fab") (width 0.1524) (tstamp 6c55033c-55b9-4835-9ab8-f334f8a3ffed))
  (fp_line (start 2.159 0.635) (end 2.159 -0.635) (layer "F.Fab") (width 0.1524) (tstamp 96e87ac2-5565-47ab-ae62-263f85b93211))
  (fp_poly (pts
      (xy -2.54 0.381)
      (xy -2.159 0.381)
      (xy -2.159 -0.381)
      (xy -2.54 -0.381)
    ) (layer "F.Fab") (width 0) (fill solid) (tstamp a27ad806-2f49-493b-a712-5cefb34fea4e))
  (fp_poly (pts
      (xy 2.159 0.381)
      (xy 2.54 0.381)
      (xy 2.54 -0.381)
      (xy 2.159 -0.381)
    ) (layer "F.Fab") (width 0) (fill solid) (tstamp b81cd904-69d1-4c8b-81f2-302fdf1cfeb0))
  (pad "1" thru_hole roundrect (at -2.54 0) (size 1.208 1.208) (drill 0.7) (layers *.Cu *.Mask) (roundrect_rratio 0.25)
    (chamfer_ratio 0.25) (chamfer top_left top_right bottom_left bottom_right)
    (solder_mask_margin 0.1016) (tstamp 920d067c-09ea-4120-b810-77cbd11822fb))
  (pad "2" thru_hole roundrect (at 2.54 0) (size 1.208 1.208) (drill 0.7) (layers *.Cu *.Mask) (roundrect_rratio 0.25)
    (chamfer_ratio 0.25) (chamfer top_left top_right bottom_left bottom_right)
    (solder_mask_margin 0.1016) (tstamp 2629f374-664b-4a6a-877f-847eba3a2928))
)
