(footprint "LEDSMALLHOLES" (version 20211014) (generator pcbnew)
  (layer "F.Cu")
  (tedit 0)
  (fp_text reference "REF**" (at 0 -2.794) (layer "F.SilkS")
    (effects (font (size 0.68 0.68) (thickness 0.12)))
    (tstamp f82b8be3-e209-4493-8527-8e48e4d9c1ce)
  )
  (fp_text value "" (at 0 0) (layer "F.SilkS")
    (effects (font (size 1.27 1.27) (thickness 0.15)))
    (tstamp 8b8cbcc8-2fab-4017-82d7-9e2b0dd87d55)
  )
  (fp_text user "+" (at -2.8575 -0.9525) (layer "F.SilkS")
    (effects (font (size 1.542288 1.542288) (thickness 0.134112)) (justify left bottom))
    (tstamp ff667a13-f89b-40a5-99a3-00684de2da09)
  )
  (fp_line (start 1.5748 -1.2954) (end 1.5748 -1.0414) (layer "F.SilkS") (width 0.1016) (tstamp 60e61964-6ea7-468c-b4d5-c464c2964fb4))
  (fp_line (start 1.5748 1.2954) (end 1.5748 1.0922) (layer "F.SilkS") (width 0.1016) (tstamp b4bb129a-27c6-47af-a65b-1d062a176af1))
  (fp_arc (start 1.5512 1.3126) (mid 0.854953 1.843405) (end 0 2.032) (layer "F.SilkS") (width 0.1016) (tstamp ae9a2cfc-2e02-4731-9394-e388bba596f8))
  (fp_arc (start 0 2.032) (mid -1.019924 1.757525) (end -1.7643 1.0082) (layer "F.SilkS") (width 0.1016) (tstamp b555eee7-8149-4892-8ba4-057aabcbbee2))
  (fp_arc (start 0 -2.032) (mid 0.861864 -1.840173) (end 1.561 -1.3009) (layer "F.SilkS") (width 0.1016) (tstamp f686f314-e4c1-4c2d-a83a-58da96d3edf9))
  (fp_arc (start -1.7929 -0.9562) (mid -1.045438 -1.7424) (end 0 -2.032) (layer "F.SilkS") (width 0.1016) (tstamp fae1c1af-89ba-4c18-88bc-46f514e9bd6f))
  (fp_line (start 1.5748 1.27) (end 1.5748 -1.27) (layer "F.Fab") (width 0.1016) (tstamp c40d36bb-2efa-4bc3-859b-223faaa66f3e))
  (fp_arc (start -1.7306 1.065) (mid -1.95521 0.553417) (end -2.032 0) (layer "F.Fab") (width 0.1016) (tstamp 5b1cf420-b469-4a8f-a998-9abdfd8b7687))
  (fp_arc (start -2.032 0) (mid -1.970339 -0.496775) (end -1.7891 -0.9634) (layer "F.Fab") (width 0.1016) (tstamp c97ec1e3-38c3-4514-9704-1b06a25c7c8d))
  (pad "A" thru_hole circle (at -1.27 0) (size 1.143 1.143) (drill 0.7) (layers *.Cu *.Mask)
    (solder_mask_margin 0.1016) (tstamp de673e63-5f43-4989-8aea-860e28e93f50))
  (pad "K" thru_hole circle (at 1.27 0) (size 1.143 1.143) (drill 0.7) (layers *.Cu *.Mask)
    (solder_mask_margin 0.1016) (tstamp 4ab287b0-f7e5-4d54-ac56-3885f4c05418))
)
