(footprint "PUSH_320.02E11.08BLK" (version 20211014) (generator pcbnew)
  (layer "F.Cu")
  (tedit 0)
  (descr "<b>320.02E11.08BLK-1</b><br>\n")
  (fp_text reference "REF**" (at 5.9 0) (layer "F.SilkS")
    (effects (font (size 1.1684 1.1684) (thickness 0.1016)))
    (tstamp b67591ef-79c1-406a-9cdd-2d6de62566a6)
  )
  (fp_text value ">VALUE" (at 5.9 7.62) (layer "F.Fab")
    (effects (font (size 1.1684 1.1684) (thickness 0.1016)))
    (tstamp 85c4eb9a-1efe-40fd-86af-36f89108b5f9)
  )
  (fp_line (start -6.2 -6.2) (end 6.2 -6.2) (layer "F.SilkS") (width 0.1) (tstamp 07e820f6-5352-4622-89c6-9dc8d877ae52))
  (fp_line (start 6.2 -6.2) (end 6.2 6.2) (layer "F.SilkS") (width 0.1) (tstamp 08895aac-0eaf-4885-9893-39d7cbab257b))
  (fp_line (start 6.2 6.2) (end -6.2 6.2) (layer "F.SilkS") (width 0.1) (tstamp 251bbd6b-00ad-4956-8621-28b4b522b62b))
  (fp_line (start -6.2 6.2) (end -6.2 -6.2) (layer "F.SilkS") (width 0.1) (tstamp 8699357b-081e-4490-9c44-11d25a40de14))
  (fp_line (start -6.2 6.2) (end -6.2 -6.2) (layer "F.Fab") (width 0.2) (tstamp 13d0922b-6304-4dca-bf30-664d82859d66))
  (fp_line (start 6.2 6.2) (end -6.2 6.2) (layer "F.Fab") (width 0.2) (tstamp bf1a0735-8349-4149-9917-9c06c3ec36d7))
  (fp_line (start -6.2 -6.2) (end 6.2 -6.2) (layer "F.Fab") (width 0.2) (tstamp c8d1a84b-8d98-4130-891c-9d4b5bdb0535))
  (fp_line (start 6.2 -6.2) (end 6.2 6.2) (layer "F.Fab") (width 0.2) (tstamp d28736e8-ee75-491e-b9af-2d7eb8b3297e))
  (pad "" np_thru_hole circle (at -3.81 3.81) (size 1 1) (drill 1) (layers *.Cu *.Mask) (tstamp d0164702-426e-4c87-abe5-fbfeda4c6ede))
  (pad "" np_thru_hole circle (at 3.81 -1.27) (size 1 1) (drill 1) (layers *.Cu *.Mask) (tstamp eccdf86f-23ac-4077-b13e-27dc356e9a70))
  (pad "1" thru_hole circle (at -3.81 -3.81) (size 1.83 1.83) (drill 1.22) (layers *.Cu *.Mask)
    (solder_mask_margin 0.1016) (tstamp d1c3595d-d061-4c53-823c-19aa0d9a8865))
  (pad "3" thru_hole circle (at 1.27 1.27) (size 1.83 1.83) (drill 1.22) (layers *.Cu *.Mask)
    (solder_mask_margin 0.1016) (tstamp 02ca9350-9e0f-471f-a345-bee2587bb572))
)
