G04 EAGLE Gerber RS-274X export*
G75*
%MOMM*%
%FSLAX34Y34*%
%LPD*%
%INSoldermask Bottom*%
%IPPOS*%
%AMOC8*
5,1,8,0,0,1.08239X$1,22.5*%
G01*
%ADD10R,0.254000X0.127000*%
%ADD11R,132.080000X0.127000*%
%ADD12R,1.270000X0.127000*%
%ADD13R,1.143000X0.127000*%
%ADD14R,1.778000X0.127000*%
%ADD15R,1.651000X0.127000*%
%ADD16R,2.032000X0.127000*%
%ADD17R,2.159000X0.127000*%
%ADD18R,2.286000X0.127000*%
%ADD19R,2.413000X0.127000*%
%ADD20R,2.540000X0.127000*%
%ADD21R,2.667000X0.127000*%
%ADD22R,2.794000X0.127000*%
%ADD23R,2.921000X0.127000*%
%ADD24R,3.048000X0.127000*%
%ADD25R,3.175000X0.127000*%
%ADD26R,1.016000X0.127000*%
%ADD27R,1.524000X0.127000*%
%ADD28R,1.905000X0.127000*%
%ADD29R,1.397000X0.127000*%
%ADD30R,0.508000X0.127000*%
%ADD31R,0.381000X0.127000*%
%ADD32R,44.196000X0.127000*%
%ADD33R,44.704000X0.127000*%
%ADD34R,45.212000X0.127000*%
%ADD35R,45.466000X0.127000*%
%ADD36R,45.720000X0.127000*%
%ADD37R,45.974000X0.127000*%
%ADD38R,46.101000X0.127000*%
%ADD39R,46.228000X0.127000*%
%ADD40R,46.355000X0.127000*%
%ADD41R,46.482000X0.127000*%
%ADD42R,46.609000X0.127000*%
%ADD43R,46.736000X0.127000*%
%ADD44R,45.847000X0.127000*%
%ADD45R,45.593000X0.127000*%
%ADD46R,45.339000X0.127000*%
%ADD47R,45.085000X0.127000*%
%ADD48R,44.958000X0.127000*%
%ADD49R,44.831000X0.127000*%
%ADD50R,44.450000X0.127000*%
%ADD51R,44.069000X0.127000*%
%ADD52R,43.942000X0.127000*%
%ADD53R,43.815000X0.127000*%
%ADD54R,43.688000X0.127000*%
%ADD55R,43.561000X0.127000*%
%ADD56R,43.434000X0.127000*%
%ADD57R,43.180000X0.127000*%
%ADD58R,43.053000X0.127000*%
%ADD59R,42.926000X0.127000*%
%ADD60R,42.799000X0.127000*%
%ADD61R,42.672000X0.127000*%
%ADD62R,42.418000X0.127000*%
%ADD63R,42.291000X0.127000*%
%ADD64R,42.164000X0.127000*%
%ADD65R,41.910000X0.127000*%
%ADD66R,41.783000X0.127000*%
%ADD67R,41.656000X0.127000*%
%ADD68R,41.402000X0.127000*%
%ADD69R,41.275000X0.127000*%
%ADD70R,41.021000X0.127000*%
%ADD71R,40.894000X0.127000*%
%ADD72R,40.640000X0.127000*%
%ADD73R,40.513000X0.127000*%
%ADD74R,40.259000X0.127000*%
%ADD75R,40.132000X0.127000*%
%ADD76R,39.878000X0.127000*%
%ADD77R,39.624000X0.127000*%
%ADD78R,39.497000X0.127000*%
%ADD79R,39.243000X0.127000*%
%ADD80R,38.989000X0.127000*%
%ADD81R,38.862000X0.127000*%
%ADD82R,38.608000X0.127000*%
%ADD83R,38.354000X0.127000*%
%ADD84R,38.100000X0.127000*%
%ADD85R,37.846000X0.127000*%
%ADD86R,37.719000X0.127000*%
%ADD87R,37.465000X0.127000*%
%ADD88R,37.211000X0.127000*%
%ADD89R,36.957000X0.127000*%
%ADD90R,36.703000X0.127000*%
%ADD91R,36.449000X0.127000*%
%ADD92R,36.195000X0.127000*%
%ADD93R,35.941000X0.127000*%
%ADD94R,35.687000X0.127000*%
%ADD95R,35.433000X0.127000*%
%ADD96R,35.179000X0.127000*%
%ADD97R,34.798000X0.127000*%
%ADD98R,34.544000X0.127000*%
%ADD99R,34.290000X0.127000*%
%ADD100R,34.036000X0.127000*%
%ADD101R,33.782000X0.127000*%
%ADD102R,33.401000X0.127000*%
%ADD103R,33.147000X0.127000*%
%ADD104R,32.766000X0.127000*%
%ADD105R,32.512000X0.127000*%
%ADD106R,32.258000X0.127000*%
%ADD107R,31.877000X0.127000*%
%ADD108R,31.496000X0.127000*%
%ADD109R,31.242000X0.127000*%
%ADD110R,30.861000X0.127000*%
%ADD111R,30.480000X0.127000*%
%ADD112R,30.226000X0.127000*%
%ADD113R,29.845000X0.127000*%
%ADD114R,29.464000X0.127000*%
%ADD115R,29.083000X0.127000*%
%ADD116R,28.702000X0.127000*%
%ADD117R,28.321000X0.127000*%
%ADD118R,27.940000X0.127000*%
%ADD119R,27.432000X0.127000*%
%ADD120R,27.051000X0.127000*%
%ADD121R,26.670000X0.127000*%
%ADD122R,26.162000X0.127000*%
%ADD123R,25.781000X0.127000*%
%ADD124R,25.273000X0.127000*%
%ADD125R,24.892000X0.127000*%
%ADD126R,24.384000X0.127000*%
%ADD127R,23.876000X0.127000*%
%ADD128R,23.368000X0.127000*%
%ADD129R,22.987000X0.127000*%
%ADD130R,22.479000X0.127000*%
%ADD131R,21.971000X0.127000*%
%ADD132R,21.336000X0.127000*%
%ADD133R,20.828000X0.127000*%
%ADD134R,20.320000X0.127000*%
%ADD135R,19.812000X0.127000*%
%ADD136R,19.177000X0.127000*%
%ADD137R,18.669000X0.127000*%
%ADD138R,18.034000X0.127000*%
%ADD139R,17.399000X0.127000*%
%ADD140R,16.764000X0.127000*%
%ADD141R,16.129000X0.127000*%
%ADD142R,15.367000X0.127000*%
%ADD143R,14.732000X0.127000*%
%ADD144R,13.970000X0.127000*%
%ADD145R,13.208000X0.127000*%
%ADD146R,12.319000X0.127000*%
%ADD147R,11.557000X0.127000*%
%ADD148R,10.541000X0.127000*%
%ADD149R,9.525000X0.127000*%
%ADD150R,8.509000X0.127000*%
%ADD151R,7.239000X0.127000*%
%ADD152R,5.969000X0.127000*%
%ADD153R,4.191000X0.127000*%
%ADD154R,9.652000X0.127000*%
%ADD155R,10.033000X0.127000*%
%ADD156R,9.906000X0.127000*%
%ADD157R,10.287000X0.127000*%
%ADD158R,10.160000X0.127000*%
%ADD159R,10.795000X0.127000*%
%ADD160R,10.922000X0.127000*%
%ADD161R,11.049000X0.127000*%
%ADD162R,11.176000X0.127000*%
%ADD163R,11.430000X0.127000*%
%ADD164R,11.684000X0.127000*%
%ADD165R,11.303000X0.127000*%
%ADD166R,10.668000X0.127000*%
%ADD167R,10.414000X0.127000*%
%ADD168R,9.779000X0.127000*%
%ADD169R,9.398000X0.127000*%
%ADD170C,1.524000*%


D10*
X61595Y20320D03*
X92075Y20320D03*
X1229995Y20320D03*
X1260475Y20320D03*
X1320165Y20320D03*
D11*
X661035Y0D03*
X661035Y1270D03*
D10*
X1905Y2540D03*
X1320165Y2540D03*
X1905Y3810D03*
X1320165Y3810D03*
X1905Y5080D03*
X1320165Y5080D03*
X1905Y6350D03*
X1320165Y6350D03*
X1905Y7620D03*
X1320165Y7620D03*
X1905Y8890D03*
X1320165Y8890D03*
X1905Y10160D03*
X1320165Y10160D03*
X1905Y11430D03*
X1320165Y11430D03*
X1905Y12700D03*
X1320165Y12700D03*
X1905Y13970D03*
X1320165Y13970D03*
X1905Y15240D03*
X1320165Y15240D03*
X1905Y16510D03*
X1320165Y16510D03*
X1905Y17780D03*
X1320165Y17780D03*
X1905Y19050D03*
X1320165Y19050D03*
X1905Y20320D03*
X1320165Y20320D03*
X1905Y21590D03*
X1320165Y21590D03*
X1905Y22860D03*
X1320165Y22860D03*
X1905Y24130D03*
X1320165Y24130D03*
X1905Y25400D03*
X1320165Y25400D03*
X1905Y26670D03*
X1320165Y26670D03*
X1905Y27940D03*
X1320165Y27940D03*
X1905Y29210D03*
X1320165Y29210D03*
X1905Y30480D03*
X1320165Y30480D03*
X1905Y31750D03*
X1320165Y31750D03*
X1905Y33020D03*
X1320165Y33020D03*
X1905Y34290D03*
X1320165Y34290D03*
X1905Y35560D03*
X1320165Y35560D03*
X1905Y36830D03*
X1320165Y36830D03*
X1905Y38100D03*
X1320165Y38100D03*
X1905Y39370D03*
X1320165Y39370D03*
X1905Y40640D03*
X1320165Y40640D03*
X1905Y41910D03*
X1320165Y41910D03*
X1905Y43180D03*
X1320165Y43180D03*
X1905Y44450D03*
X1320165Y44450D03*
X1905Y45720D03*
X1320165Y45720D03*
X1905Y46990D03*
X1320165Y46990D03*
X1905Y48260D03*
X1320165Y48260D03*
X1905Y49530D03*
X1320165Y49530D03*
X1905Y50800D03*
X1320165Y50800D03*
X1905Y52070D03*
X1320165Y52070D03*
X1905Y53340D03*
X1320165Y53340D03*
X1905Y54610D03*
X1320165Y54610D03*
X1905Y55880D03*
X1320165Y55880D03*
X1905Y57150D03*
X1320165Y57150D03*
X1905Y58420D03*
X1320165Y58420D03*
X1905Y59690D03*
X1320165Y59690D03*
X1905Y60960D03*
X1320165Y60960D03*
X1905Y62230D03*
X1320165Y62230D03*
X1905Y63500D03*
X1320165Y63500D03*
X1905Y64770D03*
X1320165Y64770D03*
X1905Y66040D03*
X1320165Y66040D03*
X1905Y67310D03*
X1320165Y67310D03*
X1905Y68580D03*
X1320165Y68580D03*
X1905Y69850D03*
X1320165Y69850D03*
X1905Y71120D03*
X1320165Y71120D03*
X1905Y72390D03*
X1320165Y72390D03*
X1905Y73660D03*
X1320165Y73660D03*
X1905Y74930D03*
X1320165Y74930D03*
X1905Y76200D03*
X1320165Y76200D03*
X1905Y77470D03*
X1320165Y77470D03*
X1905Y78740D03*
X1320165Y78740D03*
X1905Y80010D03*
X1320165Y80010D03*
X1905Y81280D03*
X1320165Y81280D03*
X1905Y82550D03*
X1320165Y82550D03*
X1905Y83820D03*
X1320165Y83820D03*
X1905Y85090D03*
X1320165Y85090D03*
X1905Y86360D03*
X1320165Y86360D03*
X1905Y87630D03*
X1320165Y87630D03*
X1905Y88900D03*
X1320165Y88900D03*
X1905Y90170D03*
X1320165Y90170D03*
X1905Y91440D03*
X1320165Y91440D03*
X1905Y92710D03*
X1320165Y92710D03*
X1905Y93980D03*
X1320165Y93980D03*
X1905Y95250D03*
X1320165Y95250D03*
X1905Y96520D03*
X1320165Y96520D03*
X1905Y97790D03*
X1320165Y97790D03*
X1905Y99060D03*
X1320165Y99060D03*
X1905Y100330D03*
X1320165Y100330D03*
X1905Y101600D03*
X1320165Y101600D03*
X1905Y102870D03*
X1320165Y102870D03*
X1905Y104140D03*
X1320165Y104140D03*
X1905Y105410D03*
X1320165Y105410D03*
X1905Y106680D03*
X1320165Y106680D03*
X1905Y107950D03*
X1320165Y107950D03*
X1905Y109220D03*
X1320165Y109220D03*
X1905Y110490D03*
X1320165Y110490D03*
X1905Y111760D03*
X1320165Y111760D03*
X1905Y113030D03*
X1320165Y113030D03*
X1905Y114300D03*
X1320165Y114300D03*
X1905Y115570D03*
X1320165Y115570D03*
X1905Y116840D03*
X1320165Y116840D03*
X1905Y118110D03*
X1320165Y118110D03*
X1905Y119380D03*
X1320165Y119380D03*
X1905Y120650D03*
X1320165Y120650D03*
X1905Y121920D03*
X1320165Y121920D03*
X1905Y123190D03*
X1320165Y123190D03*
X1905Y124460D03*
X1320165Y124460D03*
X1905Y125730D03*
X1320165Y125730D03*
X1905Y127000D03*
X1320165Y127000D03*
X1905Y128270D03*
X1320165Y128270D03*
X1905Y129540D03*
X1320165Y129540D03*
X1905Y130810D03*
X1320165Y130810D03*
X1905Y132080D03*
X1320165Y132080D03*
X1905Y133350D03*
X1320165Y133350D03*
X1905Y134620D03*
X1320165Y134620D03*
X1905Y135890D03*
X1320165Y135890D03*
X1905Y137160D03*
X1320165Y137160D03*
X1905Y138430D03*
X1320165Y138430D03*
X1905Y139700D03*
X1320165Y139700D03*
X1905Y140970D03*
X1320165Y140970D03*
X1905Y142240D03*
X1320165Y142240D03*
X1905Y143510D03*
X1320165Y143510D03*
X1905Y144780D03*
X1320165Y144780D03*
X1905Y146050D03*
X1320165Y146050D03*
X1905Y147320D03*
X1320165Y147320D03*
X1905Y148590D03*
X1320165Y148590D03*
X1905Y149860D03*
X1320165Y149860D03*
X1905Y151130D03*
X1320165Y151130D03*
X1905Y152400D03*
X1320165Y152400D03*
X1905Y153670D03*
X1320165Y153670D03*
X1905Y154940D03*
X1320165Y154940D03*
X1905Y156210D03*
X1320165Y156210D03*
X1905Y157480D03*
X1320165Y157480D03*
X1905Y158750D03*
X1320165Y158750D03*
X1905Y160020D03*
X1320165Y160020D03*
X1905Y161290D03*
X1320165Y161290D03*
X1905Y162560D03*
X1320165Y162560D03*
X1905Y163830D03*
X1320165Y163830D03*
X1905Y165100D03*
X1320165Y165100D03*
X1905Y166370D03*
X1320165Y166370D03*
X1905Y167640D03*
X1320165Y167640D03*
X1905Y168910D03*
X1320165Y168910D03*
X1905Y170180D03*
X1320165Y170180D03*
X1905Y171450D03*
X1320165Y171450D03*
X1905Y172720D03*
X1320165Y172720D03*
X1905Y173990D03*
X1320165Y173990D03*
X1905Y175260D03*
X1320165Y175260D03*
X1905Y176530D03*
X1320165Y176530D03*
X1905Y177800D03*
X1320165Y177800D03*
X1905Y179070D03*
X1320165Y179070D03*
X1905Y180340D03*
X1320165Y180340D03*
X1905Y181610D03*
X1320165Y181610D03*
X1905Y182880D03*
X1320165Y182880D03*
X1905Y184150D03*
X1320165Y184150D03*
X1905Y185420D03*
X1320165Y185420D03*
X1905Y186690D03*
X1320165Y186690D03*
X1905Y187960D03*
X1320165Y187960D03*
X1905Y189230D03*
X1320165Y189230D03*
X1905Y190500D03*
X1320165Y190500D03*
X1905Y191770D03*
X1320165Y191770D03*
X1905Y193040D03*
X1320165Y193040D03*
X1905Y194310D03*
X1320165Y194310D03*
X1905Y195580D03*
X1320165Y195580D03*
X1905Y196850D03*
X1320165Y196850D03*
X1905Y198120D03*
X1320165Y198120D03*
X1905Y199390D03*
X1320165Y199390D03*
X1905Y200660D03*
X1320165Y200660D03*
X1905Y201930D03*
X1320165Y201930D03*
X1905Y203200D03*
X1320165Y203200D03*
X1905Y204470D03*
X1320165Y204470D03*
X1905Y205740D03*
X1320165Y205740D03*
X1905Y207010D03*
X1320165Y207010D03*
X1905Y208280D03*
X1320165Y208280D03*
X1905Y209550D03*
X1320165Y209550D03*
X1905Y210820D03*
X1320165Y210820D03*
X1905Y212090D03*
X1320165Y212090D03*
X1905Y213360D03*
X1320165Y213360D03*
X1905Y214630D03*
X1320165Y214630D03*
X1905Y215900D03*
X1320165Y215900D03*
X1905Y217170D03*
X1320165Y217170D03*
X1905Y218440D03*
X1320165Y218440D03*
X1905Y219710D03*
X1320165Y219710D03*
X1905Y220980D03*
X1320165Y220980D03*
X1905Y222250D03*
X1320165Y222250D03*
X1905Y223520D03*
X1320165Y223520D03*
X1905Y224790D03*
X1320165Y224790D03*
X1905Y226060D03*
X1320165Y226060D03*
X1905Y227330D03*
X1320165Y227330D03*
X1905Y228600D03*
X1320165Y228600D03*
X1905Y229870D03*
X1320165Y229870D03*
X1905Y231140D03*
X1320165Y231140D03*
X1905Y232410D03*
X1320165Y232410D03*
X1905Y233680D03*
X1320165Y233680D03*
X1905Y234950D03*
X1320165Y234950D03*
X1905Y236220D03*
X1320165Y236220D03*
X1905Y237490D03*
X1320165Y237490D03*
X1905Y238760D03*
X1320165Y238760D03*
X1905Y240030D03*
X1320165Y240030D03*
X1905Y241300D03*
X1320165Y241300D03*
X1905Y242570D03*
X1320165Y242570D03*
X1905Y243840D03*
X1320165Y243840D03*
X1905Y245110D03*
X1320165Y245110D03*
X1905Y246380D03*
X1320165Y246380D03*
X1905Y247650D03*
X1320165Y247650D03*
X1905Y248920D03*
X1320165Y248920D03*
X1905Y250190D03*
X1320165Y250190D03*
X1905Y251460D03*
X1320165Y251460D03*
X1905Y252730D03*
X1320165Y252730D03*
X1905Y254000D03*
X1320165Y254000D03*
X1905Y255270D03*
X1320165Y255270D03*
X1905Y256540D03*
X1320165Y256540D03*
X1905Y257810D03*
X1320165Y257810D03*
X1905Y259080D03*
X1320165Y259080D03*
X1905Y260350D03*
X1320165Y260350D03*
X1905Y261620D03*
X1320165Y261620D03*
X1905Y262890D03*
X1320165Y262890D03*
X1905Y264160D03*
X1320165Y264160D03*
X1905Y265430D03*
X1320165Y265430D03*
X1905Y266700D03*
X1320165Y266700D03*
X1905Y267970D03*
X1320165Y267970D03*
X1905Y269240D03*
X1320165Y269240D03*
X1905Y270510D03*
X1320165Y270510D03*
X1905Y271780D03*
X1320165Y271780D03*
X1905Y273050D03*
X1320165Y273050D03*
X1905Y274320D03*
X1320165Y274320D03*
X1905Y275590D03*
X1320165Y275590D03*
X1905Y276860D03*
X1320165Y276860D03*
X1905Y278130D03*
X1320165Y278130D03*
X1905Y279400D03*
X1320165Y279400D03*
X1905Y280670D03*
X1320165Y280670D03*
X1905Y281940D03*
X1320165Y281940D03*
X1905Y283210D03*
X1320165Y283210D03*
X1905Y284480D03*
X1320165Y284480D03*
X1905Y285750D03*
X1320165Y285750D03*
X1905Y287020D03*
X1320165Y287020D03*
X1905Y288290D03*
X1320165Y288290D03*
X1905Y289560D03*
X1320165Y289560D03*
X1905Y290830D03*
X1320165Y290830D03*
X1905Y292100D03*
X1320165Y292100D03*
X1905Y293370D03*
X1320165Y293370D03*
X1905Y294640D03*
X1320165Y294640D03*
X1905Y295910D03*
X1320165Y295910D03*
X1905Y297180D03*
D12*
X104775Y297180D03*
X267335Y297180D03*
X429895Y297180D03*
X594995Y297180D03*
X760095Y297180D03*
D13*
X924560Y297180D03*
D10*
X1320165Y297180D03*
X1905Y298450D03*
D14*
X104775Y298450D03*
X267335Y298450D03*
X429895Y298450D03*
X594995Y298450D03*
D15*
X759460Y298450D03*
X924560Y298450D03*
D10*
X1320165Y298450D03*
X1905Y299720D03*
D16*
X104775Y299720D03*
X267335Y299720D03*
X429895Y299720D03*
X594995Y299720D03*
D17*
X759460Y299720D03*
X924560Y299720D03*
D10*
X1320165Y299720D03*
X1905Y300990D03*
D18*
X104775Y300990D03*
X267335Y300990D03*
D19*
X429260Y300990D03*
D18*
X594995Y300990D03*
D19*
X759460Y300990D03*
X924560Y300990D03*
D10*
X1320165Y300990D03*
X1905Y302260D03*
D20*
X104775Y302260D03*
X267335Y302260D03*
X429895Y302260D03*
X594995Y302260D03*
X760095Y302260D03*
D21*
X924560Y302260D03*
D10*
X1320165Y302260D03*
X1905Y303530D03*
D22*
X104775Y303530D03*
X267335Y303530D03*
D21*
X429260Y303530D03*
D22*
X594995Y303530D03*
D21*
X759460Y303530D03*
X924560Y303530D03*
D10*
X1320165Y303530D03*
X1905Y304800D03*
D22*
X104775Y304800D03*
X267335Y304800D03*
D23*
X429260Y304800D03*
D22*
X594995Y304800D03*
D23*
X759460Y304800D03*
X924560Y304800D03*
D10*
X1320165Y304800D03*
X1905Y306070D03*
D24*
X104775Y306070D03*
X267335Y306070D03*
D23*
X429260Y306070D03*
D24*
X594995Y306070D03*
D23*
X759460Y306070D03*
X924560Y306070D03*
D10*
X1320165Y306070D03*
X1905Y307340D03*
D24*
X104775Y307340D03*
X267335Y307340D03*
X429895Y307340D03*
X594995Y307340D03*
X760095Y307340D03*
D23*
X924560Y307340D03*
D10*
X1320165Y307340D03*
X1905Y308610D03*
D24*
X104775Y308610D03*
X267335Y308610D03*
X429895Y308610D03*
X594995Y308610D03*
D25*
X759460Y308610D03*
X924560Y308610D03*
D10*
X1320165Y308610D03*
X1905Y309880D03*
D24*
X104775Y309880D03*
X267335Y309880D03*
D25*
X429260Y309880D03*
D24*
X594995Y309880D03*
D25*
X759460Y309880D03*
X924560Y309880D03*
D10*
X1320165Y309880D03*
X1905Y311150D03*
D24*
X104775Y311150D03*
X267335Y311150D03*
D25*
X429260Y311150D03*
D24*
X594995Y311150D03*
D25*
X759460Y311150D03*
X924560Y311150D03*
D10*
X1320165Y311150D03*
X1905Y312420D03*
D24*
X104775Y312420D03*
X267335Y312420D03*
D25*
X429260Y312420D03*
D24*
X594995Y312420D03*
D25*
X759460Y312420D03*
X924560Y312420D03*
D10*
X1320165Y312420D03*
X1905Y313690D03*
D24*
X104775Y313690D03*
X267335Y313690D03*
D25*
X429260Y313690D03*
D24*
X594995Y313690D03*
D25*
X759460Y313690D03*
X924560Y313690D03*
D10*
X1320165Y313690D03*
X1905Y314960D03*
D24*
X104775Y314960D03*
X267335Y314960D03*
X429895Y314960D03*
X594995Y314960D03*
D25*
X759460Y314960D03*
X924560Y314960D03*
D10*
X1320165Y314960D03*
X1905Y316230D03*
D24*
X104775Y316230D03*
X267335Y316230D03*
X429895Y316230D03*
X594995Y316230D03*
X760095Y316230D03*
D23*
X924560Y316230D03*
D10*
X1320165Y316230D03*
X1905Y317500D03*
D24*
X104775Y317500D03*
X267335Y317500D03*
D23*
X429260Y317500D03*
D24*
X594995Y317500D03*
D23*
X759460Y317500D03*
X924560Y317500D03*
D10*
X1320165Y317500D03*
X1905Y318770D03*
D22*
X104775Y318770D03*
X267335Y318770D03*
X429895Y318770D03*
X594995Y318770D03*
D23*
X759460Y318770D03*
X924560Y318770D03*
D10*
X1320165Y318770D03*
X1905Y320040D03*
D22*
X104775Y320040D03*
X267335Y320040D03*
D21*
X429260Y320040D03*
D22*
X594995Y320040D03*
D21*
X759460Y320040D03*
X924560Y320040D03*
D10*
X1320165Y320040D03*
X1905Y321310D03*
D20*
X104775Y321310D03*
X267335Y321310D03*
X429895Y321310D03*
X594995Y321310D03*
X760095Y321310D03*
D19*
X924560Y321310D03*
D10*
X1320165Y321310D03*
X1905Y322580D03*
D18*
X104775Y322580D03*
X267335Y322580D03*
X429895Y322580D03*
X594995Y322580D03*
D19*
X759460Y322580D03*
X924560Y322580D03*
D10*
X1320165Y322580D03*
X1905Y323850D03*
D16*
X104775Y323850D03*
X267335Y323850D03*
X429895Y323850D03*
X594995Y323850D03*
X760095Y323850D03*
D17*
X924560Y323850D03*
D10*
X1320165Y323850D03*
X1905Y325120D03*
D14*
X104775Y325120D03*
X267335Y325120D03*
D15*
X429260Y325120D03*
D14*
X594995Y325120D03*
D15*
X759460Y325120D03*
X924560Y325120D03*
D10*
X1320165Y325120D03*
X1905Y326390D03*
D12*
X104775Y326390D03*
X267335Y326390D03*
D13*
X429260Y326390D03*
D12*
X594995Y326390D03*
D13*
X759460Y326390D03*
X924560Y326390D03*
D10*
X1320165Y326390D03*
X1905Y327660D03*
X1320165Y327660D03*
X1905Y328930D03*
X1320165Y328930D03*
X1905Y330200D03*
X1320165Y330200D03*
X1905Y331470D03*
X1320165Y331470D03*
X1905Y332740D03*
X1320165Y332740D03*
X1905Y334010D03*
X1320165Y334010D03*
X1905Y335280D03*
X1320165Y335280D03*
X1905Y336550D03*
X1320165Y336550D03*
X1905Y337820D03*
X1320165Y337820D03*
X1905Y339090D03*
X1320165Y339090D03*
X1905Y340360D03*
X1320165Y340360D03*
X1905Y341630D03*
X1320165Y341630D03*
X1905Y342900D03*
X1320165Y342900D03*
X1905Y344170D03*
X1320165Y344170D03*
X1905Y345440D03*
X1320165Y345440D03*
X1905Y346710D03*
X1320165Y346710D03*
X1905Y347980D03*
X1320165Y347980D03*
X1905Y349250D03*
X1320165Y349250D03*
X1905Y350520D03*
X1320165Y350520D03*
X1905Y351790D03*
X1320165Y351790D03*
X1905Y353060D03*
X1320165Y353060D03*
X1905Y354330D03*
X1320165Y354330D03*
X1905Y355600D03*
X1320165Y355600D03*
X1905Y356870D03*
X1320165Y356870D03*
X1905Y358140D03*
X1320165Y358140D03*
X1905Y359410D03*
X1320165Y359410D03*
X1905Y360680D03*
X1320165Y360680D03*
X1905Y361950D03*
X1320165Y361950D03*
X1905Y363220D03*
X1320165Y363220D03*
X1905Y364490D03*
X1320165Y364490D03*
X1905Y365760D03*
X1320165Y365760D03*
X1905Y367030D03*
X1320165Y367030D03*
X1905Y368300D03*
X1320165Y368300D03*
X1905Y369570D03*
X1320165Y369570D03*
X1905Y370840D03*
X1320165Y370840D03*
X1905Y372110D03*
X1320165Y372110D03*
X1905Y373380D03*
X1320165Y373380D03*
X1905Y374650D03*
X1320165Y374650D03*
X1905Y375920D03*
X1320165Y375920D03*
X1905Y377190D03*
X1320165Y377190D03*
X1905Y378460D03*
X1320165Y378460D03*
X1905Y379730D03*
X1320165Y379730D03*
X1905Y381000D03*
X1320165Y381000D03*
X1905Y382270D03*
X1320165Y382270D03*
X1905Y383540D03*
X1320165Y383540D03*
X1905Y384810D03*
X1320165Y384810D03*
X1905Y386080D03*
X1320165Y386080D03*
X1905Y387350D03*
X1320165Y387350D03*
X1905Y388620D03*
X1320165Y388620D03*
X1905Y389890D03*
X1320165Y389890D03*
X1905Y391160D03*
X1320165Y391160D03*
X1905Y392430D03*
X1320165Y392430D03*
X1905Y393700D03*
X1320165Y393700D03*
X1905Y394970D03*
X1320165Y394970D03*
X1905Y396240D03*
X1320165Y396240D03*
X1905Y397510D03*
X1320165Y397510D03*
X1905Y398780D03*
X1320165Y398780D03*
X1905Y400050D03*
X1320165Y400050D03*
X1905Y401320D03*
X1320165Y401320D03*
X1905Y402590D03*
X1320165Y402590D03*
X1905Y403860D03*
X1320165Y403860D03*
X1905Y405130D03*
X1320165Y405130D03*
X1905Y406400D03*
X1320165Y406400D03*
X1905Y407670D03*
X1320165Y407670D03*
X1905Y408940D03*
X1320165Y408940D03*
X1905Y410210D03*
X1320165Y410210D03*
X1905Y411480D03*
X1320165Y411480D03*
X1905Y412750D03*
X1320165Y412750D03*
X1905Y414020D03*
X1320165Y414020D03*
X1905Y415290D03*
X1320165Y415290D03*
X1905Y416560D03*
X1320165Y416560D03*
X1905Y417830D03*
X1320165Y417830D03*
X1905Y419100D03*
X1320165Y419100D03*
X1905Y420370D03*
X1320165Y420370D03*
X1905Y421640D03*
X1320165Y421640D03*
X1905Y422910D03*
X1320165Y422910D03*
X1905Y424180D03*
X1320165Y424180D03*
X1905Y425450D03*
X1320165Y425450D03*
X1905Y426720D03*
X1320165Y426720D03*
X1905Y427990D03*
X1320165Y427990D03*
X1905Y429260D03*
X1320165Y429260D03*
X1905Y430530D03*
X1320165Y430530D03*
X1905Y431800D03*
X1320165Y431800D03*
X1905Y433070D03*
X1320165Y433070D03*
X1905Y434340D03*
X1320165Y434340D03*
X1905Y435610D03*
X1320165Y435610D03*
X1905Y436880D03*
X1320165Y436880D03*
X1905Y438150D03*
X1320165Y438150D03*
X1905Y439420D03*
X1320165Y439420D03*
X1905Y440690D03*
X1320165Y440690D03*
X1905Y441960D03*
X1320165Y441960D03*
X1905Y443230D03*
X1320165Y443230D03*
X1905Y444500D03*
X1320165Y444500D03*
X1905Y445770D03*
X1320165Y445770D03*
X1905Y447040D03*
X1320165Y447040D03*
X1905Y448310D03*
X1320165Y448310D03*
X1905Y449580D03*
X1320165Y449580D03*
X1905Y450850D03*
X1320165Y450850D03*
X1905Y452120D03*
D26*
X594995Y452120D03*
D13*
X924560Y452120D03*
D10*
X1320165Y452120D03*
X1905Y453390D03*
D27*
X594995Y453390D03*
D15*
X924560Y453390D03*
D10*
X1320165Y453390D03*
X1905Y454660D03*
D16*
X594995Y454660D03*
D28*
X924560Y454660D03*
D10*
X1320165Y454660D03*
X1905Y455930D03*
D18*
X594995Y455930D03*
D17*
X924560Y455930D03*
D10*
X1320165Y455930D03*
X1905Y457200D03*
D20*
X594995Y457200D03*
D19*
X924560Y457200D03*
D10*
X1320165Y457200D03*
X1905Y458470D03*
D21*
X595630Y458470D03*
X924560Y458470D03*
D10*
X1320165Y458470D03*
X1905Y459740D03*
D22*
X594995Y459740D03*
D23*
X924560Y459740D03*
D10*
X1320165Y459740D03*
X1905Y461010D03*
D23*
X595630Y461010D03*
X924560Y461010D03*
D10*
X1320165Y461010D03*
X1905Y462280D03*
D24*
X594995Y462280D03*
D23*
X924560Y462280D03*
D10*
X1320165Y462280D03*
X1905Y463550D03*
D24*
X594995Y463550D03*
D25*
X924560Y463550D03*
D10*
X1320165Y463550D03*
X1905Y464820D03*
D24*
X594995Y464820D03*
D25*
X924560Y464820D03*
D10*
X1320165Y464820D03*
X1905Y466090D03*
D24*
X594995Y466090D03*
D25*
X924560Y466090D03*
D10*
X1320165Y466090D03*
X1905Y467360D03*
D24*
X594995Y467360D03*
D25*
X924560Y467360D03*
D10*
X1320165Y467360D03*
X1905Y468630D03*
D24*
X594995Y468630D03*
D25*
X924560Y468630D03*
D10*
X1320165Y468630D03*
X1905Y469900D03*
D24*
X594995Y469900D03*
D25*
X924560Y469900D03*
D10*
X1320165Y469900D03*
X1905Y471170D03*
D24*
X594995Y471170D03*
X925195Y471170D03*
D10*
X1320165Y471170D03*
X1905Y472440D03*
D24*
X594995Y472440D03*
D23*
X924560Y472440D03*
D10*
X1320165Y472440D03*
X1905Y473710D03*
D22*
X594995Y473710D03*
D23*
X924560Y473710D03*
D10*
X1320165Y473710D03*
X1905Y474980D03*
D22*
X594995Y474980D03*
D21*
X924560Y474980D03*
D10*
X1320165Y474980D03*
X1905Y476250D03*
D20*
X594995Y476250D03*
D21*
X924560Y476250D03*
D10*
X1320165Y476250D03*
X1905Y477520D03*
D18*
X594995Y477520D03*
D19*
X924560Y477520D03*
D10*
X1320165Y477520D03*
X1905Y478790D03*
D16*
X594995Y478790D03*
D17*
X924560Y478790D03*
D10*
X1320165Y478790D03*
X1905Y480060D03*
D14*
X594995Y480060D03*
D28*
X924560Y480060D03*
D10*
X1320165Y480060D03*
X1905Y481330D03*
D12*
X594995Y481330D03*
D29*
X924560Y481330D03*
D10*
X1320165Y481330D03*
X1905Y482600D03*
D30*
X594995Y482600D03*
D31*
X924560Y482600D03*
D10*
X1320165Y482600D03*
X1905Y483870D03*
X1320165Y483870D03*
X1905Y485140D03*
X1320165Y485140D03*
X1905Y486410D03*
D32*
X790575Y486410D03*
D10*
X1320165Y486410D03*
X1905Y487680D03*
D33*
X790575Y487680D03*
D10*
X1320165Y487680D03*
X1905Y488950D03*
D34*
X790575Y488950D03*
D10*
X1320165Y488950D03*
X1905Y490220D03*
D35*
X790575Y490220D03*
D10*
X1320165Y490220D03*
X1905Y491490D03*
D36*
X790575Y491490D03*
D10*
X1320165Y491490D03*
X1905Y492760D03*
D37*
X790575Y492760D03*
D10*
X1320165Y492760D03*
X1905Y494030D03*
D38*
X791210Y494030D03*
D10*
X1320165Y494030D03*
X1905Y495300D03*
D39*
X790575Y495300D03*
D10*
X1320165Y495300D03*
X1905Y496570D03*
D40*
X791210Y496570D03*
D10*
X1320165Y496570D03*
X1905Y497840D03*
D41*
X790575Y497840D03*
D10*
X1320165Y497840D03*
X1905Y499110D03*
D41*
X790575Y499110D03*
D10*
X1320165Y499110D03*
X1905Y500380D03*
D42*
X791210Y500380D03*
D10*
X1320165Y500380D03*
X1905Y501650D03*
D42*
X791210Y501650D03*
D10*
X1320165Y501650D03*
X1905Y502920D03*
D43*
X790575Y502920D03*
D10*
X1320165Y502920D03*
X1905Y504190D03*
D43*
X790575Y504190D03*
D10*
X1320165Y504190D03*
X1905Y505460D03*
D43*
X790575Y505460D03*
D10*
X1320165Y505460D03*
X1905Y506730D03*
D43*
X790575Y506730D03*
D10*
X1320165Y506730D03*
X1905Y508000D03*
D43*
X790575Y508000D03*
D10*
X1320165Y508000D03*
X1905Y509270D03*
D43*
X790575Y509270D03*
D10*
X1320165Y509270D03*
X1905Y510540D03*
D43*
X790575Y510540D03*
D10*
X1320165Y510540D03*
X1905Y511810D03*
D43*
X790575Y511810D03*
D10*
X1320165Y511810D03*
X1905Y513080D03*
D43*
X790575Y513080D03*
D10*
X1320165Y513080D03*
X1905Y514350D03*
D43*
X790575Y514350D03*
D10*
X1320165Y514350D03*
X1905Y515620D03*
D42*
X791210Y515620D03*
D10*
X1320165Y515620D03*
X1905Y516890D03*
D42*
X791210Y516890D03*
D10*
X1320165Y516890D03*
X1905Y518160D03*
D42*
X791210Y518160D03*
D10*
X1320165Y518160D03*
X1905Y519430D03*
D41*
X790575Y519430D03*
D10*
X1320165Y519430D03*
X1905Y520700D03*
D41*
X790575Y520700D03*
D10*
X1320165Y520700D03*
X1905Y521970D03*
D41*
X790575Y521970D03*
D10*
X1320165Y521970D03*
X1905Y523240D03*
D40*
X791210Y523240D03*
D10*
X1320165Y523240D03*
X1905Y524510D03*
D39*
X790575Y524510D03*
D10*
X1320165Y524510D03*
X1905Y525780D03*
D39*
X790575Y525780D03*
D10*
X1320165Y525780D03*
X1905Y527050D03*
D38*
X791210Y527050D03*
D10*
X1320165Y527050D03*
X1905Y528320D03*
D38*
X791210Y528320D03*
D10*
X1320165Y528320D03*
X1905Y529590D03*
D37*
X790575Y529590D03*
D10*
X1320165Y529590D03*
X1905Y530860D03*
D37*
X790575Y530860D03*
D10*
X1320165Y530860D03*
X1905Y532130D03*
D44*
X791210Y532130D03*
D10*
X1320165Y532130D03*
X1905Y533400D03*
D36*
X790575Y533400D03*
D10*
X1320165Y533400D03*
X1905Y534670D03*
D45*
X791210Y534670D03*
D10*
X1320165Y534670D03*
X1905Y535940D03*
D35*
X790575Y535940D03*
D10*
X1320165Y535940D03*
X1905Y537210D03*
D35*
X790575Y537210D03*
D10*
X1320165Y537210D03*
X1905Y538480D03*
D46*
X791210Y538480D03*
D10*
X1320165Y538480D03*
X1905Y539750D03*
D34*
X790575Y539750D03*
D10*
X1320165Y539750D03*
X1905Y541020D03*
D47*
X791210Y541020D03*
D10*
X1320165Y541020D03*
X1905Y542290D03*
D48*
X790575Y542290D03*
D10*
X1320165Y542290D03*
X1905Y543560D03*
D49*
X791210Y543560D03*
D10*
X1320165Y543560D03*
X1905Y544830D03*
D33*
X790575Y544830D03*
D10*
X1320165Y544830D03*
X1905Y546100D03*
D33*
X790575Y546100D03*
D10*
X1320165Y546100D03*
X1905Y547370D03*
D50*
X790575Y547370D03*
D10*
X1320165Y547370D03*
X1905Y548640D03*
D50*
X790575Y548640D03*
D10*
X1320165Y548640D03*
X1905Y549910D03*
D32*
X790575Y549910D03*
D10*
X1320165Y549910D03*
X1905Y551180D03*
D51*
X791210Y551180D03*
D10*
X1320165Y551180D03*
X1905Y552450D03*
D52*
X790575Y552450D03*
D10*
X1320165Y552450D03*
X1905Y553720D03*
D53*
X791210Y553720D03*
D10*
X1320165Y553720D03*
X1905Y554990D03*
D54*
X790575Y554990D03*
D10*
X1320165Y554990D03*
X1905Y556260D03*
D55*
X791210Y556260D03*
D10*
X1320165Y556260D03*
X1905Y557530D03*
D56*
X790575Y557530D03*
D10*
X1320165Y557530D03*
X1905Y558800D03*
D57*
X790575Y558800D03*
D10*
X1320165Y558800D03*
X1905Y560070D03*
D58*
X791210Y560070D03*
D10*
X1320165Y560070D03*
X1905Y561340D03*
D59*
X790575Y561340D03*
D10*
X1320165Y561340D03*
X1905Y562610D03*
D60*
X791210Y562610D03*
D10*
X1320165Y562610D03*
X1905Y563880D03*
D61*
X790575Y563880D03*
D10*
X1320165Y563880D03*
X1905Y565150D03*
D62*
X790575Y565150D03*
D10*
X1320165Y565150D03*
X1905Y566420D03*
D63*
X791210Y566420D03*
D10*
X1320165Y566420D03*
X1905Y567690D03*
D64*
X790575Y567690D03*
D10*
X1320165Y567690D03*
X1905Y568960D03*
D65*
X790575Y568960D03*
D10*
X1320165Y568960D03*
X1905Y570230D03*
D66*
X791210Y570230D03*
D10*
X1320165Y570230D03*
X1905Y571500D03*
D67*
X790575Y571500D03*
D10*
X1320165Y571500D03*
X1905Y572770D03*
D68*
X790575Y572770D03*
D10*
X1320165Y572770D03*
X1905Y574040D03*
D69*
X791210Y574040D03*
D10*
X1320165Y574040D03*
X1905Y575310D03*
D70*
X791210Y575310D03*
D10*
X1320165Y575310D03*
X1905Y576580D03*
D71*
X790575Y576580D03*
D10*
X1320165Y576580D03*
X1905Y577850D03*
D72*
X790575Y577850D03*
D10*
X1320165Y577850D03*
X1905Y579120D03*
D73*
X791210Y579120D03*
D10*
X1320165Y579120D03*
X1905Y580390D03*
D74*
X791210Y580390D03*
D10*
X1320165Y580390D03*
X1905Y581660D03*
D75*
X790575Y581660D03*
D10*
X1320165Y581660D03*
X1905Y582930D03*
D76*
X790575Y582930D03*
D10*
X1320165Y582930D03*
X1905Y584200D03*
D77*
X790575Y584200D03*
D10*
X1320165Y584200D03*
X1905Y585470D03*
D78*
X791210Y585470D03*
D10*
X1320165Y585470D03*
X1905Y586740D03*
D79*
X791210Y586740D03*
D10*
X1320165Y586740D03*
X1905Y588010D03*
D80*
X791210Y588010D03*
D10*
X1320165Y588010D03*
X1905Y589280D03*
D81*
X790575Y589280D03*
D10*
X1320165Y589280D03*
X1905Y590550D03*
D82*
X790575Y590550D03*
D10*
X1320165Y590550D03*
X1905Y591820D03*
D83*
X790575Y591820D03*
D10*
X1320165Y591820D03*
X1905Y593090D03*
D84*
X790575Y593090D03*
D10*
X1320165Y593090D03*
X1905Y594360D03*
D85*
X790575Y594360D03*
D10*
X1320165Y594360D03*
X1905Y595630D03*
D86*
X791210Y595630D03*
D10*
X1320165Y595630D03*
X1905Y596900D03*
D87*
X791210Y596900D03*
D10*
X1320165Y596900D03*
X1905Y598170D03*
D88*
X791210Y598170D03*
D10*
X1320165Y598170D03*
X1905Y599440D03*
D89*
X791210Y599440D03*
D10*
X1320165Y599440D03*
X1905Y600710D03*
D90*
X791210Y600710D03*
D10*
X1320165Y600710D03*
X1905Y601980D03*
D91*
X791210Y601980D03*
D10*
X1320165Y601980D03*
X1905Y603250D03*
D92*
X791210Y603250D03*
D10*
X1320165Y603250D03*
X1905Y604520D03*
D93*
X791210Y604520D03*
D10*
X1320165Y604520D03*
X1905Y605790D03*
D94*
X791210Y605790D03*
D10*
X1320165Y605790D03*
X1905Y607060D03*
D95*
X791210Y607060D03*
D10*
X1320165Y607060D03*
X1905Y608330D03*
D96*
X791210Y608330D03*
D10*
X1320165Y608330D03*
X1905Y609600D03*
D97*
X790575Y609600D03*
D10*
X1320165Y609600D03*
X1905Y610870D03*
D98*
X790575Y610870D03*
D10*
X1320165Y610870D03*
X1905Y612140D03*
D99*
X790575Y612140D03*
D10*
X1320165Y612140D03*
X1905Y613410D03*
D100*
X790575Y613410D03*
D10*
X1320165Y613410D03*
X1905Y614680D03*
D101*
X790575Y614680D03*
D10*
X1320165Y614680D03*
X1905Y615950D03*
D102*
X791210Y615950D03*
D10*
X1320165Y615950D03*
X1905Y617220D03*
D103*
X791210Y617220D03*
D10*
X1320165Y617220D03*
X1905Y618490D03*
D104*
X790575Y618490D03*
D10*
X1320165Y618490D03*
X1905Y619760D03*
D105*
X790575Y619760D03*
D10*
X1320165Y619760D03*
X1905Y621030D03*
D106*
X790575Y621030D03*
D10*
X1320165Y621030D03*
X1905Y622300D03*
D107*
X791210Y622300D03*
D10*
X1320165Y622300D03*
X1905Y623570D03*
D108*
X790575Y623570D03*
D10*
X1320165Y623570D03*
X1905Y624840D03*
D109*
X790575Y624840D03*
D10*
X1320165Y624840D03*
X1905Y626110D03*
D110*
X791210Y626110D03*
D10*
X1320165Y626110D03*
X1905Y627380D03*
D111*
X790575Y627380D03*
D10*
X1320165Y627380D03*
X1905Y628650D03*
D112*
X790575Y628650D03*
D10*
X1320165Y628650D03*
X1905Y629920D03*
D113*
X791210Y629920D03*
D10*
X1320165Y629920D03*
X1905Y631190D03*
D114*
X790575Y631190D03*
D10*
X1320165Y631190D03*
X1905Y632460D03*
D115*
X791210Y632460D03*
D10*
X1320165Y632460D03*
X1905Y633730D03*
D116*
X790575Y633730D03*
D10*
X1320165Y633730D03*
X1905Y635000D03*
D117*
X791210Y635000D03*
D10*
X1320165Y635000D03*
X1905Y636270D03*
D118*
X790575Y636270D03*
D10*
X1320165Y636270D03*
X1905Y637540D03*
D119*
X790575Y637540D03*
D10*
X1320165Y637540D03*
X1905Y638810D03*
D120*
X791210Y638810D03*
D10*
X1320165Y638810D03*
X1905Y640080D03*
D121*
X790575Y640080D03*
D10*
X1320165Y640080D03*
X1905Y641350D03*
D122*
X790575Y641350D03*
D10*
X1320165Y641350D03*
X1905Y642620D03*
D123*
X791210Y642620D03*
D10*
X1320165Y642620D03*
X1905Y643890D03*
D124*
X791210Y643890D03*
D10*
X1320165Y643890D03*
X1905Y645160D03*
D125*
X790575Y645160D03*
D10*
X1320165Y645160D03*
X1905Y646430D03*
D126*
X790575Y646430D03*
D10*
X1320165Y646430D03*
X1905Y647700D03*
D127*
X790575Y647700D03*
D10*
X1320165Y647700D03*
X1905Y648970D03*
D128*
X790575Y648970D03*
D10*
X1320165Y648970D03*
X1905Y650240D03*
D129*
X791210Y650240D03*
D10*
X1320165Y650240D03*
X1905Y651510D03*
D130*
X791210Y651510D03*
D10*
X1320165Y651510D03*
X1905Y652780D03*
D131*
X791210Y652780D03*
D10*
X1320165Y652780D03*
X1905Y654050D03*
D132*
X790575Y654050D03*
D10*
X1320165Y654050D03*
X1905Y655320D03*
D133*
X790575Y655320D03*
D10*
X1320165Y655320D03*
X1905Y656590D03*
D134*
X790575Y656590D03*
D10*
X1320165Y656590D03*
X1905Y657860D03*
D135*
X790575Y657860D03*
D10*
X1320165Y657860D03*
X1905Y659130D03*
D136*
X791210Y659130D03*
D10*
X1320165Y659130D03*
X1905Y660400D03*
D137*
X791210Y660400D03*
D10*
X1320165Y660400D03*
X1905Y661670D03*
D138*
X790575Y661670D03*
D10*
X1320165Y661670D03*
X1905Y662940D03*
D139*
X791210Y662940D03*
D10*
X1320165Y662940D03*
X1905Y664210D03*
D140*
X790575Y664210D03*
D10*
X1320165Y664210D03*
X1905Y665480D03*
D141*
X791210Y665480D03*
D10*
X1320165Y665480D03*
X1905Y666750D03*
D142*
X791210Y666750D03*
D10*
X1320165Y666750D03*
X1905Y668020D03*
D143*
X790575Y668020D03*
D10*
X1320165Y668020D03*
X1905Y669290D03*
D144*
X790575Y669290D03*
D10*
X1320165Y669290D03*
X1905Y670560D03*
D145*
X790575Y670560D03*
D10*
X1320165Y670560D03*
X1905Y671830D03*
D146*
X791210Y671830D03*
D10*
X1320165Y671830D03*
X1905Y673100D03*
D147*
X791210Y673100D03*
D10*
X1320165Y673100D03*
X1905Y674370D03*
D148*
X791210Y674370D03*
D10*
X1320165Y674370D03*
X1905Y675640D03*
D149*
X791210Y675640D03*
D10*
X1320165Y675640D03*
X1905Y676910D03*
D150*
X791210Y676910D03*
D10*
X1320165Y676910D03*
X1905Y678180D03*
D151*
X791210Y678180D03*
D10*
X1320165Y678180D03*
X1905Y679450D03*
D152*
X791210Y679450D03*
D10*
X1320165Y679450D03*
X1905Y680720D03*
D153*
X791210Y680720D03*
D10*
X1320165Y680720D03*
X1905Y681990D03*
X1320165Y681990D03*
X1905Y683260D03*
X1320165Y683260D03*
X1905Y684530D03*
X1320165Y684530D03*
X1905Y685800D03*
X1320165Y685800D03*
X1905Y687070D03*
X1320165Y687070D03*
X1905Y688340D03*
X1320165Y688340D03*
X1905Y689610D03*
X1320165Y689610D03*
X1905Y690880D03*
X1320165Y690880D03*
X1905Y692150D03*
X1320165Y692150D03*
X1905Y693420D03*
X1320165Y693420D03*
X1905Y694690D03*
X1320165Y694690D03*
X1905Y695960D03*
X1320165Y695960D03*
X1905Y697230D03*
X1320165Y697230D03*
X1905Y698500D03*
X1320165Y698500D03*
X1905Y699770D03*
X1320165Y699770D03*
X1905Y701040D03*
X1320165Y701040D03*
X1905Y702310D03*
X1320165Y702310D03*
X1905Y703580D03*
X1320165Y703580D03*
X1905Y704850D03*
X1320165Y704850D03*
X1905Y706120D03*
X1320165Y706120D03*
X1905Y707390D03*
X1320165Y707390D03*
X1905Y708660D03*
X1320165Y708660D03*
X1905Y709930D03*
X1320165Y709930D03*
X1905Y711200D03*
X1320165Y711200D03*
X1905Y712470D03*
X1320165Y712470D03*
X1905Y713740D03*
X1320165Y713740D03*
X1905Y715010D03*
X1320165Y715010D03*
X1905Y716280D03*
X1320165Y716280D03*
X1905Y717550D03*
X1320165Y717550D03*
X1905Y718820D03*
X1320165Y718820D03*
X1905Y720090D03*
X1320165Y720090D03*
X1905Y721360D03*
X1320165Y721360D03*
X1905Y722630D03*
X1320165Y722630D03*
X1905Y723900D03*
X1320165Y723900D03*
X1905Y725170D03*
X1320165Y725170D03*
X1905Y726440D03*
X1320165Y726440D03*
X1905Y727710D03*
X1320165Y727710D03*
X1905Y728980D03*
X1320165Y728980D03*
X1905Y730250D03*
X1320165Y730250D03*
X1905Y731520D03*
X1320165Y731520D03*
X1905Y732790D03*
X1320165Y732790D03*
X1905Y734060D03*
X1320165Y734060D03*
X1905Y735330D03*
X1320165Y735330D03*
X1905Y736600D03*
X1320165Y736600D03*
X1905Y737870D03*
X1320165Y737870D03*
X1905Y739140D03*
X1320165Y739140D03*
X1905Y740410D03*
X1320165Y740410D03*
X1905Y741680D03*
X1320165Y741680D03*
X1905Y742950D03*
X1320165Y742950D03*
X1905Y744220D03*
X1320165Y744220D03*
X1905Y745490D03*
X1320165Y745490D03*
X1905Y746760D03*
X1320165Y746760D03*
X1905Y748030D03*
X1320165Y748030D03*
X1905Y749300D03*
X1320165Y749300D03*
X1905Y750570D03*
X1320165Y750570D03*
X1905Y751840D03*
X1320165Y751840D03*
X1905Y753110D03*
X1320165Y753110D03*
X1905Y754380D03*
X1320165Y754380D03*
X1905Y755650D03*
X1320165Y755650D03*
X1905Y756920D03*
X1320165Y756920D03*
X1905Y758190D03*
X1320165Y758190D03*
X1905Y759460D03*
X1320165Y759460D03*
X1905Y760730D03*
X1320165Y760730D03*
X1905Y762000D03*
X1320165Y762000D03*
X1905Y763270D03*
X1320165Y763270D03*
X1905Y764540D03*
X1320165Y764540D03*
X1905Y765810D03*
X1320165Y765810D03*
X1905Y767080D03*
X1320165Y767080D03*
X1905Y768350D03*
X1320165Y768350D03*
X1905Y769620D03*
X1320165Y769620D03*
X1905Y770890D03*
X1320165Y770890D03*
X1905Y772160D03*
X1320165Y772160D03*
X1905Y773430D03*
X1320165Y773430D03*
X1905Y774700D03*
X1320165Y774700D03*
X1905Y775970D03*
X1320165Y775970D03*
X1905Y777240D03*
X1320165Y777240D03*
X1905Y778510D03*
X1320165Y778510D03*
X1905Y779780D03*
X1320165Y779780D03*
X1905Y781050D03*
X1320165Y781050D03*
X1905Y782320D03*
X1320165Y782320D03*
X1905Y783590D03*
X1320165Y783590D03*
X1905Y784860D03*
X1320165Y784860D03*
X1905Y786130D03*
X1320165Y786130D03*
X1905Y787400D03*
X1320165Y787400D03*
X1905Y788670D03*
X1320165Y788670D03*
X1905Y789940D03*
X1320165Y789940D03*
X1905Y791210D03*
X1320165Y791210D03*
X1905Y792480D03*
X1320165Y792480D03*
X1905Y793750D03*
X1320165Y793750D03*
X1905Y795020D03*
X1320165Y795020D03*
X1905Y796290D03*
X1320165Y796290D03*
X1905Y797560D03*
X1320165Y797560D03*
X1905Y798830D03*
X1320165Y798830D03*
X1905Y800100D03*
X1320165Y800100D03*
X1905Y801370D03*
X1320165Y801370D03*
X1905Y802640D03*
X1320165Y802640D03*
X1905Y803910D03*
X1320165Y803910D03*
X1905Y805180D03*
X1320165Y805180D03*
X1905Y806450D03*
X1320165Y806450D03*
X1905Y807720D03*
X1320165Y807720D03*
X1905Y808990D03*
X1320165Y808990D03*
X1905Y810260D03*
X1320165Y810260D03*
X1905Y811530D03*
X1320165Y811530D03*
X1905Y812800D03*
X1320165Y812800D03*
X1905Y814070D03*
X1320165Y814070D03*
X1905Y815340D03*
X1320165Y815340D03*
X1905Y816610D03*
X1320165Y816610D03*
X1905Y817880D03*
X1320165Y817880D03*
X1905Y819150D03*
X1320165Y819150D03*
X1905Y820420D03*
X1320165Y820420D03*
X1905Y821690D03*
X1320165Y821690D03*
X1905Y822960D03*
X1320165Y822960D03*
X1905Y824230D03*
X1320165Y824230D03*
X1905Y825500D03*
X1320165Y825500D03*
X1905Y826770D03*
X1320165Y826770D03*
X1905Y828040D03*
X1320165Y828040D03*
X1905Y829310D03*
X1320165Y829310D03*
X1905Y830580D03*
X1320165Y830580D03*
X1905Y831850D03*
X1320165Y831850D03*
X1905Y833120D03*
X1320165Y833120D03*
X1905Y834390D03*
X1320165Y834390D03*
X1905Y835660D03*
X1320165Y835660D03*
X1905Y836930D03*
X1320165Y836930D03*
X1905Y838200D03*
X1320165Y838200D03*
X1905Y839470D03*
X1320165Y839470D03*
X1905Y840740D03*
X1320165Y840740D03*
X1905Y842010D03*
X1320165Y842010D03*
X1905Y843280D03*
X1320165Y843280D03*
X1905Y844550D03*
X1320165Y844550D03*
X1905Y845820D03*
X1320165Y845820D03*
X1905Y847090D03*
X1320165Y847090D03*
X1905Y848360D03*
X1320165Y848360D03*
X1905Y849630D03*
X1320165Y849630D03*
X1905Y850900D03*
X1320165Y850900D03*
X1905Y852170D03*
X1320165Y852170D03*
X1905Y853440D03*
X1320165Y853440D03*
X1905Y854710D03*
X1320165Y854710D03*
X1905Y855980D03*
X1320165Y855980D03*
X1905Y857250D03*
X1320165Y857250D03*
X1905Y858520D03*
X1320165Y858520D03*
X1905Y859790D03*
X1320165Y859790D03*
X1905Y861060D03*
X1320165Y861060D03*
X1905Y862330D03*
X1320165Y862330D03*
X1905Y863600D03*
X1320165Y863600D03*
X1905Y864870D03*
X1320165Y864870D03*
X1905Y866140D03*
X1320165Y866140D03*
X1905Y867410D03*
X1320165Y867410D03*
X1905Y868680D03*
X1320165Y868680D03*
X1905Y869950D03*
X1320165Y869950D03*
X1905Y871220D03*
X1320165Y871220D03*
X1905Y872490D03*
X1320165Y872490D03*
X1905Y873760D03*
X1320165Y873760D03*
X1905Y875030D03*
X1320165Y875030D03*
X1905Y876300D03*
X1320165Y876300D03*
X1905Y877570D03*
X1320165Y877570D03*
X1905Y878840D03*
X1320165Y878840D03*
X1905Y880110D03*
X1320165Y880110D03*
X1905Y881380D03*
X1320165Y881380D03*
X1905Y882650D03*
X1320165Y882650D03*
X1905Y883920D03*
X1320165Y883920D03*
X1905Y885190D03*
X1320165Y885190D03*
X1905Y886460D03*
X1320165Y886460D03*
X1905Y887730D03*
X1320165Y887730D03*
X1905Y889000D03*
X1320165Y889000D03*
X1905Y890270D03*
X1320165Y890270D03*
X1905Y891540D03*
X1320165Y891540D03*
X1905Y892810D03*
D149*
X105410Y892810D03*
D154*
X266065Y892810D03*
X428625Y892810D03*
X593725Y892810D03*
D149*
X753110Y892810D03*
D10*
X1320165Y892810D03*
X1905Y894080D03*
D155*
X105410Y894080D03*
D156*
X266065Y894080D03*
X428625Y894080D03*
X593725Y894080D03*
D155*
X753110Y894080D03*
D10*
X1320165Y894080D03*
X1905Y895350D03*
D157*
X105410Y895350D03*
D158*
X266065Y895350D03*
D157*
X427990Y895350D03*
X593090Y895350D03*
X753110Y895350D03*
D10*
X1320165Y895350D03*
X1905Y896620D03*
D148*
X105410Y896620D03*
X265430Y896620D03*
X427990Y896620D03*
X593090Y896620D03*
X753110Y896620D03*
D10*
X1320165Y896620D03*
X1905Y897890D03*
D159*
X105410Y897890D03*
D160*
X266065Y897890D03*
X428625Y897890D03*
D159*
X593090Y897890D03*
X753110Y897890D03*
D10*
X1320165Y897890D03*
X1905Y899160D03*
D161*
X105410Y899160D03*
D162*
X266065Y899160D03*
X428625Y899160D03*
X593725Y899160D03*
D161*
X753110Y899160D03*
D10*
X1320165Y899160D03*
X1905Y900430D03*
D147*
X105410Y900430D03*
D163*
X266065Y900430D03*
X428625Y900430D03*
X593725Y900430D03*
D147*
X753110Y900430D03*
D10*
X1320165Y900430D03*
X1905Y901700D03*
D147*
X105410Y901700D03*
D164*
X266065Y901700D03*
X428625Y901700D03*
X593725Y901700D03*
D147*
X753110Y901700D03*
D10*
X1320165Y901700D03*
X1905Y902970D03*
D147*
X105410Y902970D03*
D164*
X266065Y902970D03*
X428625Y902970D03*
X593725Y902970D03*
D147*
X753110Y902970D03*
D10*
X1320165Y902970D03*
X1905Y904240D03*
D147*
X105410Y904240D03*
D164*
X266065Y904240D03*
X428625Y904240D03*
X593725Y904240D03*
D147*
X753110Y904240D03*
D10*
X1320165Y904240D03*
X1905Y905510D03*
D147*
X105410Y905510D03*
D164*
X266065Y905510D03*
X428625Y905510D03*
X593725Y905510D03*
D147*
X753110Y905510D03*
D10*
X1320165Y905510D03*
X1905Y906780D03*
D147*
X105410Y906780D03*
D164*
X266065Y906780D03*
X428625Y906780D03*
X593725Y906780D03*
D147*
X753110Y906780D03*
D10*
X1320165Y906780D03*
X1905Y908050D03*
D147*
X105410Y908050D03*
D164*
X266065Y908050D03*
X428625Y908050D03*
X593725Y908050D03*
D147*
X753110Y908050D03*
D10*
X1320165Y908050D03*
X1905Y909320D03*
D147*
X105410Y909320D03*
D164*
X266065Y909320D03*
X428625Y909320D03*
X593725Y909320D03*
D147*
X753110Y909320D03*
D10*
X1320165Y909320D03*
X1905Y910590D03*
D147*
X105410Y910590D03*
D164*
X266065Y910590D03*
X428625Y910590D03*
X593725Y910590D03*
D147*
X753110Y910590D03*
D10*
X1320165Y910590D03*
X1905Y911860D03*
D147*
X105410Y911860D03*
D164*
X266065Y911860D03*
X428625Y911860D03*
X593725Y911860D03*
D147*
X753110Y911860D03*
D10*
X1320165Y911860D03*
X1905Y913130D03*
D147*
X105410Y913130D03*
D164*
X266065Y913130D03*
X428625Y913130D03*
X593725Y913130D03*
D147*
X753110Y913130D03*
D10*
X1320165Y913130D03*
X1905Y914400D03*
D147*
X105410Y914400D03*
D164*
X266065Y914400D03*
X428625Y914400D03*
X593725Y914400D03*
D147*
X753110Y914400D03*
D10*
X1320165Y914400D03*
X1905Y915670D03*
D147*
X105410Y915670D03*
D164*
X266065Y915670D03*
X428625Y915670D03*
D147*
X593090Y915670D03*
X753110Y915670D03*
D10*
X1320165Y915670D03*
X1905Y916940D03*
D165*
X105410Y916940D03*
D163*
X266065Y916940D03*
D165*
X427990Y916940D03*
X593090Y916940D03*
X753110Y916940D03*
D10*
X1320165Y916940D03*
X1905Y918210D03*
D161*
X105410Y918210D03*
D160*
X266065Y918210D03*
D161*
X427990Y918210D03*
X593090Y918210D03*
X753110Y918210D03*
D10*
X1320165Y918210D03*
X1905Y919480D03*
D159*
X105410Y919480D03*
D166*
X266065Y919480D03*
X428625Y919480D03*
X593725Y919480D03*
D159*
X753110Y919480D03*
D10*
X1320165Y919480D03*
X1905Y920750D03*
D157*
X105410Y920750D03*
D167*
X266065Y920750D03*
X428625Y920750D03*
X593725Y920750D03*
X752475Y920750D03*
D10*
X1320165Y920750D03*
X1905Y922020D03*
D155*
X105410Y922020D03*
D158*
X266065Y922020D03*
X428625Y922020D03*
X593725Y922020D03*
D155*
X753110Y922020D03*
D10*
X1320165Y922020D03*
X1905Y923290D03*
D168*
X105410Y923290D03*
D156*
X266065Y923290D03*
D168*
X427990Y923290D03*
X593090Y923290D03*
X753110Y923290D03*
D10*
X1320165Y923290D03*
X1905Y924560D03*
D149*
X105410Y924560D03*
D169*
X266065Y924560D03*
D149*
X427990Y924560D03*
X593090Y924560D03*
X753110Y924560D03*
D10*
X1320165Y924560D03*
X1905Y925830D03*
X1320165Y925830D03*
X1905Y927100D03*
X1320165Y927100D03*
X1905Y928370D03*
X1320165Y928370D03*
X1905Y929640D03*
X1320165Y929640D03*
X1905Y930910D03*
X1320165Y930910D03*
X1905Y932180D03*
X1320165Y932180D03*
X1905Y933450D03*
X1320165Y933450D03*
X1905Y934720D03*
X1320165Y934720D03*
X1905Y935990D03*
X1320165Y935990D03*
X1905Y937260D03*
X1320165Y937260D03*
X1905Y938530D03*
X1320165Y938530D03*
X1905Y939800D03*
X1320165Y939800D03*
X1905Y941070D03*
X1320165Y941070D03*
X1905Y942340D03*
X1320165Y942340D03*
X1905Y943610D03*
X1320165Y943610D03*
X1905Y944880D03*
X1320165Y944880D03*
X1905Y946150D03*
X1320165Y946150D03*
X1905Y947420D03*
X1320165Y947420D03*
X1905Y948690D03*
X1320165Y948690D03*
X1905Y949960D03*
X1320165Y949960D03*
X1905Y951230D03*
X1320165Y951230D03*
X1905Y952500D03*
X1320165Y952500D03*
X1905Y953770D03*
X1320165Y953770D03*
X1905Y955040D03*
X1320165Y955040D03*
X1905Y956310D03*
X1320165Y956310D03*
X1905Y957580D03*
X1320165Y957580D03*
X1905Y958850D03*
X1320165Y958850D03*
X1905Y960120D03*
X1320165Y960120D03*
X1905Y961390D03*
X1320165Y961390D03*
X1905Y962660D03*
X1320165Y962660D03*
X1905Y963930D03*
X1320165Y963930D03*
X1905Y965200D03*
X1320165Y965200D03*
X1905Y966470D03*
X1320165Y966470D03*
X1905Y967740D03*
X1320165Y967740D03*
X1905Y969010D03*
X1320165Y969010D03*
X1905Y970280D03*
X1320165Y970280D03*
X1905Y971550D03*
X1320165Y971550D03*
X1905Y972820D03*
X1320165Y972820D03*
X1905Y974090D03*
X1320165Y974090D03*
X1905Y975360D03*
X1320165Y975360D03*
X1905Y976630D03*
X1320165Y976630D03*
X1905Y977900D03*
X1320165Y977900D03*
X1905Y979170D03*
X1320165Y979170D03*
X1905Y980440D03*
X1320165Y980440D03*
X1905Y981710D03*
X1320165Y981710D03*
X1905Y982980D03*
X1320165Y982980D03*
X1905Y984250D03*
X1320165Y984250D03*
X1905Y985520D03*
X1320165Y985520D03*
X1905Y986790D03*
X1320165Y986790D03*
X1905Y988060D03*
X1320165Y988060D03*
X1905Y989330D03*
X1320165Y989330D03*
X1905Y990600D03*
X1320165Y990600D03*
X1905Y991870D03*
X1320165Y991870D03*
X1905Y993140D03*
X1320165Y993140D03*
X1905Y994410D03*
X1320165Y994410D03*
X1905Y995680D03*
X1320165Y995680D03*
X1905Y996950D03*
X1320165Y996950D03*
X1905Y998220D03*
X1320165Y998220D03*
X1905Y999490D03*
X1320165Y999490D03*
X1905Y1000760D03*
X1320165Y1000760D03*
X1905Y1002030D03*
X1320165Y1002030D03*
X1905Y1003300D03*
D149*
X105410Y1003300D03*
D10*
X1320165Y1003300D03*
X1905Y1004570D03*
D168*
X105410Y1004570D03*
D154*
X266065Y1004570D03*
X428625Y1004570D03*
X593725Y1004570D03*
X752475Y1004570D03*
D10*
X1320165Y1004570D03*
X1905Y1005840D03*
D158*
X106045Y1005840D03*
D156*
X266065Y1005840D03*
X428625Y1005840D03*
X593725Y1005840D03*
D155*
X753110Y1005840D03*
D10*
X1320165Y1005840D03*
X1905Y1007110D03*
D148*
X105410Y1007110D03*
D158*
X266065Y1007110D03*
D157*
X427990Y1007110D03*
X593090Y1007110D03*
X753110Y1007110D03*
D10*
X1320165Y1007110D03*
X1905Y1008380D03*
D159*
X105410Y1008380D03*
D166*
X266065Y1008380D03*
D148*
X427990Y1008380D03*
X593090Y1008380D03*
X753110Y1008380D03*
D10*
X1320165Y1008380D03*
X1905Y1009650D03*
D161*
X105410Y1009650D03*
D160*
X266065Y1009650D03*
X428625Y1009650D03*
X593725Y1009650D03*
D159*
X753110Y1009650D03*
D10*
X1320165Y1009650D03*
X1905Y1010920D03*
D165*
X105410Y1010920D03*
D162*
X266065Y1010920D03*
X428625Y1010920D03*
X593725Y1010920D03*
X752475Y1010920D03*
D10*
X1320165Y1010920D03*
X1905Y1012190D03*
D147*
X105410Y1012190D03*
D163*
X266065Y1012190D03*
X428625Y1012190D03*
X593725Y1012190D03*
D147*
X753110Y1012190D03*
D10*
X1320165Y1012190D03*
X1905Y1013460D03*
D147*
X105410Y1013460D03*
D164*
X266065Y1013460D03*
X428625Y1013460D03*
X593725Y1013460D03*
D147*
X753110Y1013460D03*
D10*
X1320165Y1013460D03*
X1905Y1014730D03*
D147*
X105410Y1014730D03*
D164*
X266065Y1014730D03*
X428625Y1014730D03*
X593725Y1014730D03*
D147*
X753110Y1014730D03*
D10*
X1320165Y1014730D03*
X1905Y1016000D03*
D147*
X105410Y1016000D03*
D164*
X266065Y1016000D03*
X428625Y1016000D03*
X593725Y1016000D03*
D147*
X753110Y1016000D03*
D10*
X1320165Y1016000D03*
X1905Y1017270D03*
D147*
X105410Y1017270D03*
D164*
X266065Y1017270D03*
X428625Y1017270D03*
X593725Y1017270D03*
D147*
X753110Y1017270D03*
D10*
X1320165Y1017270D03*
X1905Y1018540D03*
D147*
X105410Y1018540D03*
D164*
X266065Y1018540D03*
X428625Y1018540D03*
X593725Y1018540D03*
D147*
X753110Y1018540D03*
D10*
X1320165Y1018540D03*
X1905Y1019810D03*
D147*
X105410Y1019810D03*
D164*
X266065Y1019810D03*
X428625Y1019810D03*
X593725Y1019810D03*
D147*
X753110Y1019810D03*
D10*
X1320165Y1019810D03*
X1905Y1021080D03*
D147*
X105410Y1021080D03*
D164*
X266065Y1021080D03*
X428625Y1021080D03*
X593725Y1021080D03*
D147*
X753110Y1021080D03*
D10*
X1320165Y1021080D03*
X1905Y1022350D03*
D147*
X105410Y1022350D03*
D164*
X266065Y1022350D03*
X428625Y1022350D03*
X593725Y1022350D03*
D147*
X753110Y1022350D03*
D10*
X1320165Y1022350D03*
X1905Y1023620D03*
D147*
X105410Y1023620D03*
D164*
X266065Y1023620D03*
X428625Y1023620D03*
X593725Y1023620D03*
D147*
X753110Y1023620D03*
D10*
X1320165Y1023620D03*
X1905Y1024890D03*
D147*
X105410Y1024890D03*
D164*
X266065Y1024890D03*
X428625Y1024890D03*
X593725Y1024890D03*
D147*
X753110Y1024890D03*
D10*
X1320165Y1024890D03*
X1905Y1026160D03*
D147*
X105410Y1026160D03*
D164*
X266065Y1026160D03*
X428625Y1026160D03*
X593725Y1026160D03*
D147*
X753110Y1026160D03*
D10*
X1320165Y1026160D03*
X1905Y1027430D03*
D165*
X105410Y1027430D03*
D164*
X266065Y1027430D03*
D147*
X427990Y1027430D03*
X593090Y1027430D03*
X753110Y1027430D03*
D10*
X1320165Y1027430D03*
X1905Y1028700D03*
D161*
X105410Y1028700D03*
D162*
X266065Y1028700D03*
D165*
X427990Y1028700D03*
X593090Y1028700D03*
X753110Y1028700D03*
D10*
X1320165Y1028700D03*
X1905Y1029970D03*
D159*
X105410Y1029970D03*
D160*
X266065Y1029970D03*
X428625Y1029970D03*
X593725Y1029970D03*
D161*
X753110Y1029970D03*
D10*
X1320165Y1029970D03*
X1905Y1031240D03*
D148*
X105410Y1031240D03*
D166*
X266065Y1031240D03*
X428625Y1031240D03*
X593725Y1031240D03*
X752475Y1031240D03*
D10*
X1320165Y1031240D03*
X1905Y1032510D03*
D157*
X105410Y1032510D03*
D167*
X266065Y1032510D03*
X428625Y1032510D03*
X593725Y1032510D03*
D157*
X753110Y1032510D03*
D10*
X1320165Y1032510D03*
X1905Y1033780D03*
D168*
X105410Y1033780D03*
D158*
X266065Y1033780D03*
D155*
X427990Y1033780D03*
X593090Y1033780D03*
X753110Y1033780D03*
D10*
X1320165Y1033780D03*
X1905Y1035050D03*
D149*
X105410Y1035050D03*
D154*
X266065Y1035050D03*
D168*
X427990Y1035050D03*
X593090Y1035050D03*
X753110Y1035050D03*
D10*
X1320165Y1035050D03*
X1905Y1036320D03*
D169*
X266065Y1036320D03*
X428625Y1036320D03*
D149*
X593090Y1036320D03*
X753110Y1036320D03*
D10*
X1320165Y1036320D03*
X1905Y1037590D03*
X1320165Y1037590D03*
X1905Y1038860D03*
X1320165Y1038860D03*
X1905Y1040130D03*
X1320165Y1040130D03*
X1905Y1041400D03*
X1320165Y1041400D03*
X1905Y1042670D03*
X1320165Y1042670D03*
X1905Y1043940D03*
X1320165Y1043940D03*
X1905Y1045210D03*
X1320165Y1045210D03*
X1905Y1046480D03*
X1320165Y1046480D03*
X1905Y1047750D03*
X1320165Y1047750D03*
X1905Y1049020D03*
X1320165Y1049020D03*
X1905Y1050290D03*
X1320165Y1050290D03*
X1905Y1051560D03*
X1320165Y1051560D03*
X1905Y1052830D03*
X1320165Y1052830D03*
X1905Y1054100D03*
X1320165Y1054100D03*
X1905Y1055370D03*
X1320165Y1055370D03*
X1905Y1056640D03*
X1320165Y1056640D03*
X1905Y1057910D03*
X1320165Y1057910D03*
X1905Y1059180D03*
X1320165Y1059180D03*
X1905Y1060450D03*
X1320165Y1060450D03*
X1905Y1061720D03*
X1320165Y1061720D03*
X1905Y1062990D03*
X1320165Y1062990D03*
X1905Y1064260D03*
X1320165Y1064260D03*
X1905Y1065530D03*
X1320165Y1065530D03*
X1905Y1066800D03*
X1320165Y1066800D03*
X1905Y1068070D03*
X1320165Y1068070D03*
X1905Y1069340D03*
X1320165Y1069340D03*
X1905Y1070610D03*
X1320165Y1070610D03*
X1905Y1071880D03*
X1320165Y1071880D03*
X1905Y1073150D03*
X1320165Y1073150D03*
X1905Y1074420D03*
X1320165Y1074420D03*
X1905Y1075690D03*
X1320165Y1075690D03*
X1905Y1076960D03*
X1320165Y1076960D03*
X1905Y1078230D03*
X1320165Y1078230D03*
X1905Y1079500D03*
X1320165Y1079500D03*
X1905Y1080770D03*
X1320165Y1080770D03*
X1905Y1082040D03*
X1320165Y1082040D03*
X1905Y1083310D03*
X1320165Y1083310D03*
X1905Y1084580D03*
X1320165Y1084580D03*
X1905Y1085850D03*
X1320165Y1085850D03*
X1905Y1087120D03*
X1320165Y1087120D03*
X1905Y1088390D03*
X1320165Y1088390D03*
X1905Y1089660D03*
X1320165Y1089660D03*
X1905Y1090930D03*
X1320165Y1090930D03*
X1905Y1092200D03*
X1320165Y1092200D03*
X1905Y1093470D03*
X1320165Y1093470D03*
X1905Y1094740D03*
X1320165Y1094740D03*
X1905Y1096010D03*
X1320165Y1096010D03*
X1905Y1097280D03*
X1320165Y1097280D03*
X1905Y1098550D03*
X1320165Y1098550D03*
X1905Y1099820D03*
X1320165Y1099820D03*
X1905Y1101090D03*
X1320165Y1101090D03*
X1905Y1102360D03*
X1320165Y1102360D03*
X1905Y1103630D03*
X1320165Y1103630D03*
X1905Y1104900D03*
X1320165Y1104900D03*
X1905Y1106170D03*
X1320165Y1106170D03*
X1905Y1107440D03*
X1320165Y1107440D03*
X1905Y1108710D03*
X1320165Y1108710D03*
X1905Y1109980D03*
X1320165Y1109980D03*
X1905Y1111250D03*
X1320165Y1111250D03*
X1905Y1112520D03*
X1320165Y1112520D03*
X1905Y1113790D03*
X1320165Y1113790D03*
X1905Y1115060D03*
X1320165Y1115060D03*
X1905Y1116330D03*
X1320165Y1116330D03*
X1905Y1117600D03*
X1320165Y1117600D03*
X1905Y1118870D03*
X1320165Y1118870D03*
X1905Y1120140D03*
X1320165Y1120140D03*
X1905Y1121410D03*
X1320165Y1121410D03*
X1905Y1122680D03*
X1320165Y1122680D03*
X1905Y1123950D03*
X1320165Y1123950D03*
X1905Y1125220D03*
X1320165Y1125220D03*
X1905Y1126490D03*
X1320165Y1126490D03*
X1905Y1127760D03*
X1320165Y1127760D03*
X1905Y1129030D03*
X1320165Y1129030D03*
X1905Y1130300D03*
X1320165Y1130300D03*
X1905Y1131570D03*
X1320165Y1131570D03*
X1905Y1132840D03*
X1320165Y1132840D03*
X1905Y1134110D03*
X1320165Y1134110D03*
X1905Y1135380D03*
X1320165Y1135380D03*
X1905Y1136650D03*
X1320165Y1136650D03*
X1905Y1137920D03*
X1320165Y1137920D03*
X1905Y1139190D03*
X1320165Y1139190D03*
X1905Y1140460D03*
X1320165Y1140460D03*
X1905Y1141730D03*
X1320165Y1141730D03*
X1905Y1143000D03*
X1320165Y1143000D03*
X1905Y1144270D03*
X1320165Y1144270D03*
X1905Y1145540D03*
X1320165Y1145540D03*
X1905Y1146810D03*
X1320165Y1146810D03*
X1905Y1148080D03*
X1320165Y1148080D03*
X1905Y1149350D03*
X1320165Y1149350D03*
X1905Y1150620D03*
X1320165Y1150620D03*
X1905Y1151890D03*
X1320165Y1151890D03*
X1905Y1153160D03*
X1320165Y1153160D03*
X1905Y1154430D03*
X1320165Y1154430D03*
X1905Y1155700D03*
X1320165Y1155700D03*
X1905Y1156970D03*
X1320165Y1156970D03*
X1905Y1158240D03*
X1320165Y1158240D03*
X1905Y1159510D03*
X1320165Y1159510D03*
X1905Y1160780D03*
X1320165Y1160780D03*
X1905Y1162050D03*
X1320165Y1162050D03*
X1905Y1163320D03*
X1320165Y1163320D03*
X1905Y1164590D03*
X1320165Y1164590D03*
X1905Y1165860D03*
X1320165Y1165860D03*
X1905Y1167130D03*
X1320165Y1167130D03*
X1905Y1168400D03*
X1320165Y1168400D03*
X1905Y1169670D03*
X1320165Y1169670D03*
X1905Y1170940D03*
X1320165Y1170940D03*
X1905Y1172210D03*
X1320165Y1172210D03*
X1905Y1173480D03*
X1320165Y1173480D03*
X1905Y1174750D03*
X1320165Y1174750D03*
X1905Y1176020D03*
X1320165Y1176020D03*
X1905Y1177290D03*
X1320165Y1177290D03*
X1905Y1178560D03*
X1320165Y1178560D03*
X1905Y1179830D03*
X1320165Y1179830D03*
X1905Y1181100D03*
X1320165Y1181100D03*
X1905Y1182370D03*
X1320165Y1182370D03*
X1905Y1183640D03*
X1320165Y1183640D03*
X1905Y1184910D03*
X1320165Y1184910D03*
X1905Y1186180D03*
X1320165Y1186180D03*
X1905Y1187450D03*
X1320165Y1187450D03*
X1905Y1188720D03*
X1320165Y1188720D03*
X1905Y1189990D03*
X1320165Y1189990D03*
X1905Y1191260D03*
X1320165Y1191260D03*
X1905Y1192530D03*
X1320165Y1192530D03*
X1905Y1193800D03*
X1320165Y1193800D03*
X1905Y1195070D03*
X1320165Y1195070D03*
X1905Y1196340D03*
X1320165Y1196340D03*
X1905Y1197610D03*
X1320165Y1197610D03*
X1905Y1198880D03*
X1320165Y1198880D03*
X1905Y1200150D03*
X1320165Y1200150D03*
X1905Y1201420D03*
X1320165Y1201420D03*
X1905Y1202690D03*
X1320165Y1202690D03*
X1905Y1203960D03*
X1320165Y1203960D03*
X1905Y1205230D03*
X1320165Y1205230D03*
X1905Y1206500D03*
X1320165Y1206500D03*
X1905Y1207770D03*
X1320165Y1207770D03*
X1905Y1209040D03*
X1320165Y1209040D03*
X1905Y1210310D03*
X1320165Y1210310D03*
X1905Y1211580D03*
X1320165Y1211580D03*
X1905Y1212850D03*
X1320165Y1212850D03*
X1905Y1214120D03*
X1320165Y1214120D03*
X1905Y1215390D03*
X1320165Y1215390D03*
X1905Y1216660D03*
X1320165Y1216660D03*
X1905Y1217930D03*
X1320165Y1217930D03*
X1905Y1219200D03*
X1320165Y1219200D03*
X1905Y1220470D03*
X1320165Y1220470D03*
X1905Y1221740D03*
X1320165Y1221740D03*
X1905Y1223010D03*
X1320165Y1223010D03*
X1905Y1224280D03*
X1320165Y1224280D03*
X1905Y1225550D03*
X1320165Y1225550D03*
X1905Y1226820D03*
X1320165Y1226820D03*
X1905Y1228090D03*
X1320165Y1228090D03*
X1905Y1229360D03*
X1320165Y1229360D03*
X1905Y1230630D03*
X1320165Y1230630D03*
X1905Y1231900D03*
X1320165Y1231900D03*
X1905Y1233170D03*
X1320165Y1233170D03*
X1905Y1234440D03*
X1320165Y1234440D03*
X1905Y1235710D03*
X1320165Y1235710D03*
X1905Y1236980D03*
X1320165Y1236980D03*
X1905Y1238250D03*
X1320165Y1238250D03*
X1905Y1239520D03*
X1320165Y1239520D03*
X1905Y1240790D03*
X1320165Y1240790D03*
X1905Y1242060D03*
X1320165Y1242060D03*
X1905Y1243330D03*
X1320165Y1243330D03*
X1905Y1244600D03*
X1320165Y1244600D03*
X1905Y1245870D03*
X1320165Y1245870D03*
X1905Y1247140D03*
X1320165Y1247140D03*
X1905Y1248410D03*
X1320165Y1248410D03*
X1905Y1249680D03*
X1320165Y1249680D03*
X1905Y1250950D03*
X1320165Y1250950D03*
X1905Y1252220D03*
X1320165Y1252220D03*
X1905Y1253490D03*
X1320165Y1253490D03*
X1905Y1254760D03*
X1320165Y1254760D03*
X1905Y1256030D03*
X1320165Y1256030D03*
X1905Y1257300D03*
X1320165Y1257300D03*
X1905Y1258570D03*
X1320165Y1258570D03*
X1905Y1259840D03*
X1320165Y1259840D03*
X1905Y1261110D03*
X1320165Y1261110D03*
X1905Y1262380D03*
X1320165Y1262380D03*
X1905Y1263650D03*
X1320165Y1263650D03*
X1905Y1264920D03*
X1320165Y1264920D03*
X1905Y1266190D03*
X1320165Y1266190D03*
X1905Y1267460D03*
X1320165Y1267460D03*
X1905Y1268730D03*
X1320165Y1268730D03*
X1905Y1270000D03*
X1320165Y1270000D03*
X1905Y1271270D03*
X1320165Y1271270D03*
X1905Y1272540D03*
X1320165Y1272540D03*
X1905Y1273810D03*
X1320165Y1273810D03*
X1905Y1275080D03*
X1320165Y1275080D03*
X1905Y1276350D03*
X1320165Y1276350D03*
X1905Y1277620D03*
X1320165Y1277620D03*
X1905Y1278890D03*
X1320165Y1278890D03*
X1905Y1280160D03*
X1320165Y1280160D03*
X1905Y1281430D03*
X1320165Y1281430D03*
X1905Y1282700D03*
X1320165Y1282700D03*
X1905Y1283970D03*
X1320165Y1283970D03*
D11*
X661035Y1285240D03*
X661035Y1286510D03*
D170*
X1293577Y380203D03*
X1293577Y353025D03*
X1293577Y325847D03*
M02*
