M48
;Layer_Color=9474304
;FILE_FORMAT=2:5
INCH,LZ
;TYPE=PLATED
T1F00S00C0.01968
T2F00S00C0.01969
T3F00S00C0.02362
T4F00S00C0.02756
T5F00S00C0.02800
T6F00S00C0.03150
T7F00S00C0.03200
T8F00S00C0.03543
T9F00S00C0.03800
T10F00S00C0.04000
T11F00S00C0.04331
T12F00S00C0.04803
;TYPE=NON_PLATED
T13F00S00C0.03937
T14F00S00C0.11811
%
T01
X0099016Y0005217
X0153445Y0007776
X01247Y00399
X00964Y006
X0068898Y0065945
X0068701Y0073032
X00744Y00399
X0190551Y0024409
X0190745Y0073067
X0262894Y0075098
X0264665Y0034252
X0260531Y003435
X0254331
X0244783Y0034252
X0239665
X0248031Y0037992
X0269685Y0034252
X0274705
X02877Y00331
X02646Y00056
X0249705Y0013484
X0336122Y0026673
X03506Y00275
X035085Y000915
X0387795Y0037008
X0393405Y0063417
X0396555Y0073622
X0361886Y0064886
X04644Y00706
X0453051Y0037598
X047185Y0098524
X048435Y009941
X0495669Y0088878
X0454429Y011437
X0443602Y0103543
X0411909Y0084646
X03874Y0082777
X0346949Y0084547
X0373819Y0112795
Y0124606
X0362795Y0212992
X0357972Y0221063
X0280217Y0213386
X0276279Y0184646
X0275787Y0173228
X0266929Y015935
X0270768Y0153937
X0257382Y0129724
X0250984Y0116831
X0251083Y0098721
X0257382Y0103051
X0251083Y0086417
X0239665Y0084547
X0281988
X0208681Y0098546
X0174705Y0084646
X0178076Y0169677
X0159386Y0170314
X01092Y01697
X0109153Y0179232
X0059252Y0166043
X0052165Y0152067
X00228Y01712
X00369Y02154
X0130807Y0084153
X01141Y02428
X0129331Y0286713
X01048Y0328665
X0103642Y0356102
X0120965Y0362106
X0143799Y0373228
X0041Y03545
X00466Y0322441
X00537
X0168602Y0354528
X020502Y0390158
X0224508Y0386614
X0250492Y0387303
X0245669Y0369587
X0220965Y0304724
X0211713Y0287205
X0220965Y0277264
X0242815Y0277362
X0211713Y0262106
X0182579Y0267126
X018248Y0272047
X0182472Y0277208
X0182579Y0282185
X0163484Y0246161
X027559Y023937
X029065Y0240059
X0295212Y02505
X0305512Y0247539
X0310531Y0320965
X0309252Y0329331
X0295768Y0323721
X0347736Y0335728
X0368898Y0335236
X0374213
X0386Y03359
X037049Y0305333
X03626Y02491
X043563Y0252067
X0437008Y0321457
X0431988Y0376575
X0399114Y0392126
X0389665Y038563
X03418Y03515
X0352362Y0415748
X03284Y04256
X025374Y0395669
X0178543Y039941
T02
X0448051Y0386338
Y0408938
X0465551Y0397638
T03
X0314961Y0126969
X0271653
X018504
X018504Y0216535
X0141732
X0121064
X0077756
X0057087
X0013779
X0077755Y0126969
X0121063
X0141732
T04
X002748Y0266732
X003748
T05
X0296358Y0018898
X029311Y0057776
X04685Y00772
X04724Y00919
X0456398Y0140059
X0313878Y0161417
X0313976Y0177953
X0109449Y0157087
X003563Y0165256
X0100394Y0238386
X0158563
X01953Y02384
X02069Y02382
X021752Y0252559
X0212697Y028189
X0261122Y0279724
Y0257283
X0260925Y0246949
X0261122Y0237795
X0299803Y0272342
X0295276Y0279626
X0353642Y0346949
X04505Y03465
X04815Y0417794
X0252756Y041939
T06
X0089252Y0260827
X0099252
X0109252
X0153386
X0163386
X0173386
X0217205
X0227205
X0237205
X0281181
X0291181
X0301181
X0442559Y032815
X0462559
T07
X0505905Y0077883
Y0088583
Y0099283
X0302039Y0418307
X0291339
X0280639
X0238062
X0227362
X0216662
X0174086
X0163386
X0152686
X0110109
X009941
X0088709
T08
X0163386Y009941
X0173229
X0173229Y0188976
X0163386
X0283464Y009941
X0293307
X030315
X0153543
X0109252
X009941
X0089566
X0089567Y0188976
X009941
X0109253
X0153543
X0045276
X0035433
X002559
X0319882Y0255669
Y0265669
Y0275669
Y0285669
Y0295669
Y0305669
Y0315669
Y0325669
Y0335669
Y0345669
Y0355669
Y0365669
Y0375669
Y0385669
X0379882
Y0375669
Y0365669
Y0355669
Y0345669
Y0335669
Y0325669
Y0315669
Y0305669
Y0295669
Y0285669
Y0275669
Y0265669
Y0255669
Y0395669
Y0405669
Y0415669
X0319882
Y0405669
Y0395669
T09
X0362244Y0296102
Y0306102
Y0316102
Y0326102
Y0336102
Y0346102
Y0356102
Y0366102
Y0376102
Y0386102
X0422244
Y0376102
Y0366102
Y0356102
Y0346102
Y0336102
Y0326102
Y0316102
Y0306102
Y0296102
Y0396102
Y0406102
Y0416102
Y0426102
X0362244
Y0416102
Y0406102
Y0396102
T10
X0479289Y0109247
X0497089
Y0134847
X0479289
Y0160428
X0497089
Y0186028
X0479289
Y021161
X0497089
Y023721
X0479289
X0460709Y0233716
Y022441
X0450709
Y0233716
Y0214409
X0460709
Y0204409
Y0195103
X0450709
Y0204409
X0432128Y021161
X0414328
Y0186028
X0432128
Y0160428
X0414328
X0398452Y0157308
X0398327Y0147933
X0398452Y0138589
X0414328Y0134847
X0432128
Y0109247
X0414328
X0367168
X0349368
Y0134847
X0367168
X0414328Y023721
X0432128
X022252Y0232644
Y0223425
Y0214206
X021252
Y0223425
Y0232644
X0219446Y0134847
X0237246
Y0109247
X0219446
X0044333
X0026533
Y0134847
X0044333
X0348425Y0264449
Y0274449
Y0284449
Y0294449
Y0304449
Y0314449
X0371063Y0295276
X0347941Y0363032
Y0373031
Y0383032
Y0393032
X0442909Y0268742
Y0250942
X0468509
Y0268742
X0053666Y0418182
X0044291Y0418307
X0034947Y0418182
T11
X0006889Y0297244
X00187
X0052165
X0070866
X0082677
X0116142
X0134842
X0146653
Y0341535
X0134842
X0116142
X0082677
X0070866
X0052165
X00187
X0006889
Y0385827
X00187
X0052165
X0070866
X0082677
X0116142
X0134842
X0146653
X0180118
X0198819
X0210629
X0244094
X0262795
X0274606
X0308071
Y0341535
X0274606
X0262795
X0244094
X0210629
X0198819
X0180118
Y0297244
X0198819
X0210629
X0244094
X0262795
X0274606
X0308071
X0461614Y0385827
X0473425
X050689
X0489173Y0360236
Y0326771
Y031496
T12
X0020433Y0067165
X0040433Y0047165
X0084409Y0067165
X0104409Y0047165
X0148386Y0067165
X0168386Y0047165
X0213347Y0067165
X0233347Y0047165
X0278307Y0067165
X0298307Y0047165
X0343268Y0067165
X0363268Y0047165
T13
X0020433Y0037165
X0050433Y0057165
X0084409Y0037165
X0114409Y0057165
X0148386Y0037165
X0178386Y0057165
X0213347Y0037165
X0243347Y0057165
X0278307Y0037165
X0308307Y0057165
X0343268Y0037165
X0373268Y0057165
T14
X0012598Y0012598
X0452461Y0080728
X0499213Y0420472
X0012598
M30
