G04 EAGLE Gerber RS-274X export*
G75*
%MOMM*%
%FSLAX34Y34*%
%LPD*%
%INmaska Top*%
%IPPOS*%
%AMOC8*
5,1,8,0,0,1.08239X$1,22.5*%
G01*
%ADD10R,5.588000X0.127000*%
%ADD11R,5.842000X0.127000*%
%ADD12R,6.096000X0.127000*%
%ADD13R,0.508000X0.127000*%
%ADD14R,0.381000X0.127000*%
%ADD15R,0.635000X0.127000*%
%ADD16R,0.254000X0.127000*%
%ADD17R,0.889000X0.127000*%
%ADD18R,5.461000X0.127000*%
%ADD19R,5.334000X0.127000*%
%ADD20R,0.762000X0.127000*%
%ADD21R,1.016000X0.127000*%
%ADD22R,1.270000X0.127000*%
%ADD23R,4.953000X0.127000*%
%ADD24R,5.080000X0.127000*%
%ADD25R,5.715000X0.127000*%
%ADD26R,0.127000X0.127000*%
%ADD27R,5.969000X0.127000*%
%ADD28R,6.350000X0.127000*%
%ADD29R,4.064000X0.127000*%
%ADD30R,4.318000X0.127000*%
%ADD31R,4.572000X0.127000*%
%ADD32R,1.143000X0.127000*%
%ADD33R,3.302000X0.127000*%
%ADD34R,3.556000X0.127000*%
%ADD35R,3.810000X0.127000*%
%ADD36R,2.286000X0.127000*%
%ADD37R,2.540000X0.127000*%
%ADD38R,2.794000X0.127000*%
%ADD39R,4.826000X0.127000*%
%ADD40R,5.207000X0.127000*%
%ADD41C,1.853200*%
%ADD42C,1.981200*%
%ADD43C,1.411200*%
%ADD44P,1.759533X8X112.500000*%
%ADD45C,1.625600*%
%ADD46C,1.803200*%
%ADD47C,3.203200*%
%ADD48C,1.524000*%
%ADD49P,2.034460X8X292.500000*%
%ADD50C,1.611200*%
%ADD51C,1.879600*%
%ADD52C,1.903200*%
%ADD53P,1.869504X8X202.500000*%
%ADD54P,1.869504X8X112.500000*%
%ADD55C,1.676400*%
%ADD56C,2.082800*%
%ADD57C,2.033200*%
%ADD58C,1.203200*%
%ADD59P,1.869504X8X292.500000*%
%ADD60P,1.869504X8X22.500000*%
%ADD61P,0.984542X8X22.500000*%
%ADD62C,1.219200*%
%ADD63P,1.038661X8X22.500000*%
%ADD64C,0.909600*%
%ADD65P,1.319650X8X22.500000*%


D10*
X1224598Y67628D03*
D11*
X1224598Y68898D03*
D12*
X1224598Y70168D03*
D13*
X1195388Y71438D03*
D14*
X1223963Y71438D03*
D15*
X1253173Y71438D03*
D13*
X1194118Y72708D03*
D14*
X1223963Y72708D03*
D15*
X1254443Y72708D03*
D13*
X1192848Y73978D03*
D14*
X1223963Y73978D03*
D15*
X1255713Y73978D03*
D13*
X1191578Y75248D03*
D14*
X1223963Y75248D03*
D13*
X1256348Y75248D03*
X1190308Y76518D03*
D14*
X1223963Y76518D03*
D16*
X1256348Y76518D03*
D13*
X1189038Y77788D03*
D14*
X1223963Y77788D03*
D15*
X1188403Y79058D03*
D14*
X1223963Y79058D03*
D13*
X1261428Y79058D03*
D17*
X1188403Y80328D03*
D14*
X1212533Y80328D03*
X1223963Y80328D03*
X1235393Y80328D03*
D15*
X1262063Y80328D03*
D13*
X1185228Y81598D03*
X1191578Y81598D03*
D14*
X1212533Y81598D03*
X1235393Y81598D03*
D15*
X1263333Y81598D03*
D13*
X1183958Y82868D03*
X1192848Y82868D03*
D14*
X1212533Y82868D03*
X1235393Y82868D03*
D15*
X1264603Y82868D03*
X1183323Y84138D03*
X1193483Y84138D03*
D14*
X1212533Y84138D03*
X1235393Y84138D03*
D15*
X1265873Y84138D03*
X1182053Y85408D03*
X1194753Y85408D03*
D14*
X1212533Y85408D03*
X1235393Y85408D03*
D15*
X1267143Y85408D03*
X1180783Y86678D03*
X1196023Y86678D03*
D14*
X1212533Y86678D03*
X1235393Y86678D03*
D15*
X1268413Y86678D03*
X1179513Y87948D03*
X1197293Y87948D03*
D14*
X1212533Y87948D03*
X1235393Y87948D03*
D15*
X1269683Y87948D03*
X1178243Y89218D03*
D10*
X1223328Y89218D03*
D15*
X1270953Y89218D03*
X1176973Y90488D03*
D18*
X1223963Y90488D03*
D15*
X1272223Y90488D03*
X1175703Y91758D03*
D19*
X1224598Y91758D03*
D15*
X1273493Y91758D03*
X1174433Y93028D03*
D14*
X1223963Y93028D03*
D20*
X1274128Y93028D03*
D15*
X1173163Y94298D03*
D14*
X1223963Y94298D03*
D21*
X1274128Y94298D03*
D15*
X1171893Y95568D03*
D14*
X1223963Y95568D03*
D22*
X1274128Y95568D03*
D15*
X1170623Y96838D03*
D14*
X1223963Y96838D03*
D15*
X1269683Y96838D03*
D13*
X1279208Y96838D03*
D15*
X1169353Y98108D03*
D14*
X1223963Y98108D03*
D15*
X1268413Y98108D03*
D13*
X1280478Y98108D03*
D15*
X1168083Y99378D03*
D14*
X1223963Y99378D03*
D20*
X1266508Y99378D03*
D13*
X1281748Y99378D03*
D15*
X1166813Y100648D03*
D14*
X1223963Y100648D03*
D15*
X1264603Y100648D03*
D13*
X1283018Y100648D03*
D15*
X1165543Y101918D03*
D14*
X1212533Y101918D03*
X1235393Y101918D03*
D15*
X1263333Y101918D03*
D13*
X1284288Y101918D03*
D15*
X1164273Y103188D03*
D14*
X1212533Y103188D03*
X1235393Y103188D03*
D20*
X1261428Y103188D03*
D13*
X1285558Y103188D03*
D15*
X1163003Y104458D03*
D14*
X1212533Y104458D03*
X1235393Y104458D03*
D20*
X1260158Y104458D03*
D13*
X1286828Y104458D03*
D15*
X1161733Y105728D03*
D14*
X1212533Y105728D03*
X1235393Y105728D03*
D15*
X1258253Y105728D03*
D13*
X1288098Y105728D03*
D20*
X1162368Y106998D03*
D14*
X1212533Y106998D03*
X1235393Y106998D03*
D20*
X1256348Y106998D03*
X1286828Y106998D03*
D17*
X1163003Y108268D03*
D14*
X1212533Y108268D03*
X1235393Y108268D03*
D20*
X1255078Y108268D03*
D17*
X1286193Y108268D03*
D21*
X1163638Y109538D03*
D11*
X1227138Y109538D03*
D21*
X1285558Y109538D03*
D14*
X1160463Y110808D03*
D15*
X1166813Y110808D03*
D11*
X1225868Y110808D03*
D20*
X1281748Y110808D03*
D14*
X1288733Y110808D03*
X1160463Y112078D03*
D20*
X1168718Y112078D03*
D10*
X1224598Y112078D03*
D20*
X1280478Y112078D03*
D14*
X1288733Y112078D03*
X1160463Y113348D03*
D20*
X1169988Y113348D03*
D14*
X1212533Y113348D03*
X1235393Y113348D03*
D15*
X1278573Y113348D03*
D14*
X1288733Y113348D03*
X1160463Y114618D03*
D15*
X1171893Y114618D03*
D14*
X1212533Y114618D03*
X1235393Y114618D03*
D20*
X1276668Y114618D03*
D14*
X1288733Y114618D03*
X1160463Y115888D03*
D15*
X1173163Y115888D03*
D14*
X1212533Y115888D03*
X1235393Y115888D03*
D20*
X1275398Y115888D03*
D14*
X1288733Y115888D03*
X1160463Y117158D03*
D20*
X1175068Y117158D03*
D14*
X1212533Y117158D03*
X1235393Y117158D03*
D20*
X1272858Y117158D03*
D14*
X1288733Y117158D03*
X1160463Y118428D03*
D20*
X1176338Y118428D03*
D14*
X1212533Y118428D03*
X1235393Y118428D03*
D20*
X1271588Y118428D03*
D14*
X1288733Y118428D03*
X1160463Y119698D03*
D15*
X1178243Y119698D03*
D14*
X1212533Y119698D03*
X1235393Y119698D03*
D15*
X1269683Y119698D03*
D14*
X1288733Y119698D03*
X1160463Y120968D03*
D15*
X1179513Y120968D03*
D14*
X1212533Y120968D03*
X1225233Y120968D03*
X1235393Y120968D03*
D20*
X1267778Y120968D03*
D14*
X1288733Y120968D03*
X1160463Y122238D03*
D20*
X1181418Y122238D03*
D14*
X1212533Y122238D03*
X1225233Y122238D03*
X1235393Y122238D03*
D20*
X1266508Y122238D03*
D14*
X1288733Y122238D03*
X1160463Y123508D03*
D15*
X1182053Y123508D03*
D14*
X1225233Y123508D03*
D15*
X1264603Y123508D03*
D14*
X1288733Y123508D03*
X1160463Y124778D03*
D16*
X1182688Y124778D03*
D14*
X1225233Y124778D03*
D20*
X1262698Y124778D03*
D14*
X1288733Y124778D03*
X1160463Y126048D03*
X1225233Y126048D03*
D20*
X1261428Y126048D03*
D14*
X1288733Y126048D03*
X1160463Y127318D03*
X1225233Y127318D03*
D20*
X1258888Y127318D03*
D14*
X1288733Y127318D03*
X1160463Y128588D03*
X1225233Y128588D03*
D20*
X1257618Y128588D03*
D14*
X1288733Y128588D03*
X1160463Y129858D03*
X1225233Y129858D03*
D15*
X1255713Y129858D03*
D14*
X1288733Y129858D03*
X1160463Y131128D03*
X1225233Y131128D03*
D17*
X1240473Y131128D03*
D20*
X1253808Y131128D03*
D14*
X1288733Y131128D03*
X1160463Y132398D03*
D23*
X1220153Y132398D03*
D15*
X1253173Y132398D03*
D14*
X1288733Y132398D03*
X1160463Y133668D03*
D24*
X1219518Y133668D03*
D16*
X1252538Y133668D03*
D14*
X1288733Y133668D03*
X1160463Y134938D03*
D23*
X1216343Y134938D03*
D14*
X1288733Y134938D03*
X1160463Y136208D03*
D20*
X1194118Y136208D03*
D14*
X1223963Y136208D03*
X1288733Y136208D03*
X1160463Y137478D03*
D15*
X1192213Y137478D03*
D14*
X1223963Y137478D03*
X1288733Y137478D03*
X1160463Y138748D03*
D20*
X1190308Y138748D03*
D14*
X1223963Y138748D03*
X1288733Y138748D03*
X1160463Y140018D03*
D20*
X1189038Y140018D03*
D14*
X1223963Y140018D03*
X1288733Y140018D03*
X1160463Y141288D03*
D20*
X1186498Y141288D03*
D14*
X1223963Y141288D03*
X1288733Y141288D03*
X1160463Y142558D03*
D20*
X1185228Y142558D03*
D14*
X1212533Y142558D03*
X1223963Y142558D03*
X1235393Y142558D03*
X1288733Y142558D03*
X1160463Y143828D03*
D15*
X1183323Y143828D03*
D14*
X1212533Y143828D03*
X1223963Y143828D03*
X1235393Y143828D03*
X1288733Y143828D03*
X1160463Y145098D03*
D20*
X1181418Y145098D03*
D14*
X1212533Y145098D03*
X1223963Y145098D03*
X1235393Y145098D03*
X1288733Y145098D03*
X1160463Y146368D03*
D20*
X1180148Y146368D03*
D14*
X1212533Y146368D03*
X1235393Y146368D03*
X1288733Y146368D03*
X1160463Y147638D03*
D20*
X1177608Y147638D03*
D14*
X1212533Y147638D03*
X1235393Y147638D03*
X1288733Y147638D03*
X1160463Y148908D03*
D20*
X1176338Y148908D03*
D14*
X1212533Y148908D03*
X1235393Y148908D03*
X1288733Y148908D03*
X1160463Y150178D03*
D15*
X1174433Y150178D03*
D14*
X1212533Y150178D03*
X1235393Y150178D03*
X1288733Y150178D03*
X1160463Y151448D03*
D20*
X1172528Y151448D03*
D14*
X1212533Y151448D03*
X1235393Y151448D03*
X1288733Y151448D03*
X1160463Y152718D03*
D20*
X1171258Y152718D03*
D14*
X1212533Y152718D03*
X1235393Y152718D03*
X1288733Y152718D03*
X1160463Y153988D03*
D20*
X1168718Y153988D03*
D10*
X1225868Y153988D03*
D14*
X1288733Y153988D03*
X1160463Y155258D03*
D20*
X1167448Y155258D03*
D25*
X1226503Y155258D03*
D14*
X1288733Y155258D03*
D21*
X1163638Y156528D03*
D11*
X1227138Y156528D03*
D14*
X1288733Y156528D03*
D17*
X1163003Y157798D03*
D14*
X1212533Y157798D03*
X1235393Y157798D03*
D15*
X1254443Y157798D03*
D14*
X1288733Y157798D03*
D20*
X1162368Y159068D03*
D14*
X1212533Y159068D03*
X1235393Y159068D03*
D15*
X1255713Y159068D03*
D13*
X1288098Y159068D03*
X1161098Y160338D03*
D14*
X1212533Y160338D03*
X1235393Y160338D03*
D15*
X1256983Y160338D03*
X1287463Y160338D03*
D13*
X1162368Y161608D03*
D26*
X1187133Y161608D03*
D14*
X1212533Y161608D03*
X1235393Y161608D03*
D15*
X1258253Y161608D03*
X1286193Y161608D03*
D13*
X1163638Y162878D03*
X1186498Y162878D03*
D14*
X1223963Y162878D03*
X1235393Y162878D03*
D13*
X1258888Y162878D03*
D15*
X1284923Y162878D03*
D13*
X1164908Y164148D03*
D15*
X1185863Y164148D03*
D14*
X1223963Y164148D03*
X1235393Y164148D03*
D13*
X1260158Y164148D03*
D15*
X1283653Y164148D03*
D13*
X1166178Y165418D03*
D15*
X1184593Y165418D03*
D14*
X1223963Y165418D03*
D13*
X1261428Y165418D03*
D15*
X1282383Y165418D03*
D13*
X1167448Y166688D03*
D15*
X1183323Y166688D03*
D14*
X1223963Y166688D03*
D13*
X1262698Y166688D03*
D15*
X1281113Y166688D03*
D13*
X1168718Y167958D03*
D15*
X1182053Y167958D03*
D14*
X1223963Y167958D03*
D13*
X1263968Y167958D03*
D15*
X1279843Y167958D03*
D13*
X1169988Y169228D03*
D20*
X1180148Y169228D03*
D14*
X1223963Y169228D03*
D13*
X1265238Y169228D03*
D15*
X1278573Y169228D03*
D13*
X1171258Y170498D03*
D20*
X1178878Y170498D03*
D14*
X1223963Y170498D03*
D13*
X1266508Y170498D03*
D15*
X1277303Y170498D03*
D21*
X1175068Y171768D03*
D14*
X1223963Y171768D03*
D13*
X1267778Y171768D03*
D15*
X1276033Y171768D03*
D20*
X1175068Y173038D03*
D10*
X1224598Y173038D03*
D22*
X1271588Y173038D03*
D15*
X1175703Y174308D03*
D11*
X1223328Y174308D03*
D21*
X1271588Y174308D03*
D15*
X1176973Y175578D03*
D27*
X1222693Y175578D03*
D20*
X1271588Y175578D03*
D15*
X1178243Y176848D03*
X1194753Y176848D03*
D14*
X1212533Y176848D03*
X1235393Y176848D03*
D15*
X1270953Y176848D03*
X1179513Y178118D03*
X1193483Y178118D03*
D14*
X1212533Y178118D03*
X1235393Y178118D03*
D15*
X1269683Y178118D03*
X1180783Y179388D03*
X1192213Y179388D03*
D14*
X1212533Y179388D03*
X1235393Y179388D03*
D15*
X1268413Y179388D03*
X1182053Y180658D03*
X1190943Y180658D03*
D14*
X1212533Y180658D03*
X1235393Y180658D03*
D15*
X1267143Y180658D03*
D22*
X1186498Y181928D03*
D14*
X1212533Y181928D03*
X1235393Y181928D03*
D13*
X1266508Y181928D03*
D21*
X1186498Y183198D03*
D14*
X1212533Y183198D03*
X1235393Y183198D03*
D13*
X1265238Y183198D03*
D20*
X1186498Y184468D03*
D13*
X1263968Y184468D03*
X1186498Y185738D03*
D14*
X1223963Y185738D03*
D13*
X1262698Y185738D03*
D16*
X1186498Y187008D03*
D14*
X1223963Y187008D03*
D13*
X1261428Y187008D03*
D14*
X1223963Y188278D03*
D13*
X1260158Y188278D03*
D14*
X1223963Y189548D03*
D13*
X1258888Y189548D03*
X1192848Y190818D03*
D14*
X1223963Y190818D03*
D13*
X1257618Y190818D03*
D15*
X1193483Y192088D03*
D14*
X1223963Y192088D03*
D13*
X1256348Y192088D03*
D15*
X1194753Y193358D03*
D14*
X1223963Y193358D03*
D13*
X1255078Y193358D03*
D15*
X1196023Y194628D03*
D14*
X1223963Y194628D03*
D13*
X1253808Y194628D03*
D12*
X1224598Y195898D03*
D11*
X1224598Y197168D03*
D10*
X1224598Y198438D03*
D11*
X1062673Y64770D03*
D12*
X1062673Y66040D03*
D28*
X1062673Y67310D03*
D15*
X1032828Y68580D03*
X1092518Y68580D03*
X1031558Y69850D03*
X1093788Y69850D03*
X1030288Y71120D03*
X1095058Y71120D03*
X1029018Y72390D03*
X1096328Y72390D03*
X1027748Y73660D03*
D24*
X1062673Y73660D03*
D15*
X1097598Y73660D03*
X1026478Y74930D03*
D19*
X1062673Y74930D03*
D15*
X1098868Y74930D03*
X1025208Y76200D03*
D10*
X1062673Y76200D03*
D15*
X1100138Y76200D03*
X1023938Y77470D03*
X1036638Y77470D03*
D14*
X1063308Y77470D03*
D15*
X1088708Y77470D03*
X1101408Y77470D03*
X1022668Y78740D03*
X1035368Y78740D03*
D13*
X1062673Y78740D03*
D15*
X1089978Y78740D03*
X1102678Y78740D03*
X1021398Y80010D03*
X1034098Y80010D03*
D14*
X1062038Y80010D03*
D15*
X1091248Y80010D03*
X1103948Y80010D03*
X1020128Y81280D03*
X1032828Y81280D03*
D14*
X1062038Y81280D03*
D15*
X1092518Y81280D03*
X1105218Y81280D03*
X1018858Y82550D03*
X1031558Y82550D03*
D14*
X1062038Y82550D03*
D15*
X1093788Y82550D03*
D13*
X1105853Y82550D03*
D15*
X1017588Y83820D03*
X1030288Y83820D03*
D29*
X1062673Y83820D03*
D15*
X1095058Y83820D03*
D16*
X1105853Y83820D03*
D15*
X1016318Y85090D03*
X1029018Y85090D03*
D30*
X1062673Y85090D03*
D15*
X1096328Y85090D03*
X1015048Y86360D03*
X1027748Y86360D03*
D31*
X1062673Y86360D03*
D15*
X1097598Y86360D03*
D17*
X1015048Y87630D03*
D13*
X1027113Y87630D03*
X1041083Y87630D03*
D15*
X1083628Y87630D03*
X1098868Y87630D03*
D16*
X1113473Y87630D03*
D32*
X1015048Y88900D03*
D14*
X1026478Y88900D03*
D13*
X1039813Y88900D03*
D15*
X1084898Y88900D03*
X1100138Y88900D03*
D13*
X1113473Y88900D03*
D15*
X1011238Y90170D03*
X1018858Y90170D03*
X1039178Y90170D03*
X1086168Y90170D03*
X1101408Y90170D03*
X1114108Y90170D03*
X1009968Y91440D03*
X1020128Y91440D03*
X1037908Y91440D03*
X1087438Y91440D03*
X1102678Y91440D03*
X1115378Y91440D03*
X1008698Y92710D03*
X1021398Y92710D03*
X1036638Y92710D03*
D13*
X1088073Y92710D03*
D15*
X1103948Y92710D03*
X1116648Y92710D03*
X1007428Y93980D03*
X1022668Y93980D03*
X1035368Y93980D03*
D14*
X1088708Y93980D03*
D15*
X1105218Y93980D03*
X1117918Y93980D03*
X1006158Y95250D03*
X1023938Y95250D03*
X1034098Y95250D03*
D33*
X1062673Y95250D03*
D15*
X1106488Y95250D03*
X1119188Y95250D03*
X1004888Y96520D03*
D14*
X1016318Y96520D03*
D15*
X1025208Y96520D03*
X1032828Y96520D03*
D34*
X1062673Y96520D03*
D15*
X1107758Y96520D03*
X1120458Y96520D03*
X1003618Y97790D03*
D13*
X1015683Y97790D03*
D32*
X1029018Y97790D03*
D35*
X1062673Y97790D03*
D26*
X1096328Y97790D03*
D15*
X1109028Y97790D03*
X1121728Y97790D03*
X1002348Y99060D03*
X1015048Y99060D03*
D17*
X1029018Y99060D03*
D15*
X1045528Y99060D03*
X1079818Y99060D03*
D14*
X1096328Y99060D03*
D15*
X1110298Y99060D03*
X1122998Y99060D03*
X1001078Y100330D03*
X1013778Y100330D03*
X1029018Y100330D03*
X1044258Y100330D03*
X1081088Y100330D03*
X1096328Y100330D03*
X1111568Y100330D03*
X1124268Y100330D03*
X999808Y101600D03*
X1012508Y101600D03*
X1027748Y101600D03*
X1042988Y101600D03*
X1082358Y101600D03*
D17*
X1096328Y101600D03*
D15*
X1112838Y101600D03*
X1125538Y101600D03*
X998538Y102870D03*
X1011238Y102870D03*
X1026478Y102870D03*
X1041718Y102870D03*
X1083628Y102870D03*
D32*
X1096328Y102870D03*
D15*
X1114108Y102870D03*
X1126808Y102870D03*
D13*
X997903Y104140D03*
D15*
X1009968Y104140D03*
X1025208Y104140D03*
X1040448Y104140D03*
X1084898Y104140D03*
X1092518Y104140D03*
X1100138Y104140D03*
X1115378Y104140D03*
D13*
X1127443Y104140D03*
D14*
X997268Y105410D03*
D15*
X1008698Y105410D03*
X1023938Y105410D03*
X1039178Y105410D03*
D32*
X1088708Y105410D03*
D15*
X1101408Y105410D03*
X1116648Y105410D03*
D14*
X1128078Y105410D03*
X997268Y106680D03*
D13*
X1008063Y106680D03*
D15*
X1022668Y106680D03*
X1037908Y106680D03*
D36*
X1062673Y106680D03*
D17*
X1088708Y106680D03*
D15*
X1102678Y106680D03*
D13*
X1117283Y106680D03*
D14*
X1128078Y106680D03*
X997268Y107950D03*
X1007428Y107950D03*
D15*
X1021398Y107950D03*
D20*
X1037273Y107950D03*
D37*
X1062673Y107950D03*
D15*
X1088708Y107950D03*
X1103948Y107950D03*
D14*
X1117918Y107950D03*
X1128078Y107950D03*
X997268Y109220D03*
X1007428Y109220D03*
D15*
X1020128Y109220D03*
D21*
X1037273Y109220D03*
D38*
X1062673Y109220D03*
D14*
X1088708Y109220D03*
D15*
X1105218Y109220D03*
D14*
X1117918Y109220D03*
X1128078Y109220D03*
X997268Y110490D03*
X1007428Y110490D03*
D15*
X1018858Y110490D03*
D22*
X1037273Y110490D03*
D15*
X1050608Y110490D03*
X1074738Y110490D03*
D13*
X1107123Y110490D03*
D14*
X1117918Y110490D03*
X1128078Y110490D03*
X997268Y111760D03*
X1007428Y111760D03*
D15*
X1017588Y111760D03*
X1032828Y111760D03*
X1041718Y111760D03*
X1049338Y111760D03*
X1076008Y111760D03*
D13*
X1108393Y111760D03*
D14*
X1117918Y111760D03*
X1128078Y111760D03*
X997268Y113030D03*
X1007428Y113030D03*
D13*
X1016953Y113030D03*
D15*
X1031558Y113030D03*
D32*
X1045528Y113030D03*
D15*
X1077278Y113030D03*
D16*
X1095693Y113030D03*
D14*
X1109028Y113030D03*
X1117918Y113030D03*
X1128078Y113030D03*
X997268Y114300D03*
X1007428Y114300D03*
X1016318Y114300D03*
D15*
X1030288Y114300D03*
D17*
X1045528Y114300D03*
D15*
X1078548Y114300D03*
D13*
X1095693Y114300D03*
D14*
X1109028Y114300D03*
X1117918Y114300D03*
X1128078Y114300D03*
X997268Y115570D03*
X1007428Y115570D03*
X1016318Y115570D03*
D15*
X1029018Y115570D03*
X1045528Y115570D03*
X1079818Y115570D03*
X1096328Y115570D03*
D14*
X1109028Y115570D03*
X1117918Y115570D03*
X1128078Y115570D03*
X997268Y116840D03*
X1007428Y116840D03*
X1016318Y116840D03*
D13*
X1028383Y116840D03*
X1044893Y116840D03*
D15*
X1081088Y116840D03*
D13*
X1096963Y116840D03*
D14*
X1109028Y116840D03*
X1117918Y116840D03*
X1128078Y116840D03*
X997268Y118110D03*
X1007428Y118110D03*
X1016318Y118110D03*
X1027748Y118110D03*
X1044258Y118110D03*
D15*
X1082358Y118110D03*
D14*
X1097598Y118110D03*
X1109028Y118110D03*
X1117918Y118110D03*
X1128078Y118110D03*
X997268Y119380D03*
X1007428Y119380D03*
X1016318Y119380D03*
X1027748Y119380D03*
D15*
X1083628Y119380D03*
D14*
X1097598Y119380D03*
X1109028Y119380D03*
X1117918Y119380D03*
X1128078Y119380D03*
X997268Y120650D03*
X1007428Y120650D03*
X1016318Y120650D03*
X1027748Y120650D03*
D15*
X1084898Y120650D03*
D14*
X1097598Y120650D03*
X1109028Y120650D03*
X1117918Y120650D03*
X1128078Y120650D03*
X997268Y121920D03*
X1007428Y121920D03*
X1016318Y121920D03*
X1027748Y121920D03*
X1039178Y121920D03*
D13*
X1085533Y121920D03*
D14*
X1097598Y121920D03*
X1109028Y121920D03*
X1117918Y121920D03*
X1128078Y121920D03*
X997268Y123190D03*
X1007428Y123190D03*
X1016318Y123190D03*
X1027748Y123190D03*
X1039178Y123190D03*
X1086168Y123190D03*
X1097598Y123190D03*
X1109028Y123190D03*
X1117918Y123190D03*
X1128078Y123190D03*
X997268Y124460D03*
X1007428Y124460D03*
X1016318Y124460D03*
X1027748Y124460D03*
X1039178Y124460D03*
X1086168Y124460D03*
X1097598Y124460D03*
X1109028Y124460D03*
X1117918Y124460D03*
X1128078Y124460D03*
X997268Y125730D03*
X1007428Y125730D03*
X1016318Y125730D03*
X1027748Y125730D03*
X1039178Y125730D03*
X1086168Y125730D03*
X1097598Y125730D03*
X1109028Y125730D03*
X1117918Y125730D03*
X1128078Y125730D03*
X997268Y127000D03*
X1007428Y127000D03*
X1016318Y127000D03*
X1027748Y127000D03*
X1039178Y127000D03*
X1086168Y127000D03*
X1097598Y127000D03*
X1109028Y127000D03*
X1117918Y127000D03*
X1128078Y127000D03*
X997268Y128270D03*
X1007428Y128270D03*
X1016318Y128270D03*
X1027748Y128270D03*
X1039178Y128270D03*
X1086168Y128270D03*
X1097598Y128270D03*
X1109028Y128270D03*
X1117918Y128270D03*
X1128078Y128270D03*
X997268Y129540D03*
X1007428Y129540D03*
X1016318Y129540D03*
X1027748Y129540D03*
X1039178Y129540D03*
X1086168Y129540D03*
X1097598Y129540D03*
X1109028Y129540D03*
X1117918Y129540D03*
X1128078Y129540D03*
X997268Y130810D03*
X1007428Y130810D03*
X1016318Y130810D03*
X1027748Y130810D03*
X1039178Y130810D03*
X1086168Y130810D03*
X1097598Y130810D03*
X1109028Y130810D03*
X1117918Y130810D03*
X1128078Y130810D03*
X997268Y132080D03*
X1007428Y132080D03*
X1016318Y132080D03*
X1027748Y132080D03*
X1039178Y132080D03*
X1086168Y132080D03*
X1097598Y132080D03*
X1109028Y132080D03*
X1117918Y132080D03*
X1128078Y132080D03*
X997268Y133350D03*
X1007428Y133350D03*
X1016318Y133350D03*
X1027748Y133350D03*
X1039178Y133350D03*
X1086168Y133350D03*
X1097598Y133350D03*
X1109028Y133350D03*
X1117918Y133350D03*
X1128078Y133350D03*
X997268Y134620D03*
X1007428Y134620D03*
X1016318Y134620D03*
X1027748Y134620D03*
X1039178Y134620D03*
X1086168Y134620D03*
X1097598Y134620D03*
X1109028Y134620D03*
X1117918Y134620D03*
X1128078Y134620D03*
X997268Y135890D03*
X1007428Y135890D03*
X1016318Y135890D03*
X1027748Y135890D03*
X1039178Y135890D03*
X1086168Y135890D03*
X1097598Y135890D03*
X1109028Y135890D03*
X1117918Y135890D03*
X1128078Y135890D03*
X997268Y137160D03*
X1007428Y137160D03*
X1016318Y137160D03*
X1027748Y137160D03*
X1039178Y137160D03*
X1086168Y137160D03*
X1097598Y137160D03*
X1109028Y137160D03*
X1117918Y137160D03*
X1128078Y137160D03*
X997268Y138430D03*
X1007428Y138430D03*
X1016318Y138430D03*
X1027748Y138430D03*
X1039178Y138430D03*
X1086168Y138430D03*
X1097598Y138430D03*
X1109028Y138430D03*
X1117918Y138430D03*
X1128078Y138430D03*
X997268Y139700D03*
X1007428Y139700D03*
X1016318Y139700D03*
X1027748Y139700D03*
X1039178Y139700D03*
X1086168Y139700D03*
X1097598Y139700D03*
X1109028Y139700D03*
X1117918Y139700D03*
X1128078Y139700D03*
X997268Y140970D03*
X1007428Y140970D03*
X1016318Y140970D03*
X1027748Y140970D03*
D13*
X1039813Y140970D03*
D14*
X1086168Y140970D03*
X1097598Y140970D03*
X1109028Y140970D03*
X1117918Y140970D03*
X1128078Y140970D03*
X997268Y142240D03*
X1007428Y142240D03*
X1016318Y142240D03*
X1027748Y142240D03*
D15*
X1040448Y142240D03*
D14*
X1097598Y142240D03*
X1109028Y142240D03*
X1117918Y142240D03*
X1128078Y142240D03*
X997268Y143510D03*
X1007428Y143510D03*
X1016318Y143510D03*
X1027748Y143510D03*
D15*
X1041718Y143510D03*
D14*
X1097598Y143510D03*
X1109028Y143510D03*
X1117918Y143510D03*
X1128078Y143510D03*
X997268Y144780D03*
X1007428Y144780D03*
X1016318Y144780D03*
X1027748Y144780D03*
D15*
X1042988Y144780D03*
D14*
X1097598Y144780D03*
X1109028Y144780D03*
X1117918Y144780D03*
X1128078Y144780D03*
X997268Y146050D03*
X1007428Y146050D03*
X1016318Y146050D03*
D13*
X1028383Y146050D03*
D15*
X1044258Y146050D03*
D14*
X1079818Y146050D03*
D13*
X1096963Y146050D03*
D14*
X1109028Y146050D03*
X1117918Y146050D03*
X1128078Y146050D03*
X997268Y147320D03*
X1007428Y147320D03*
X1016318Y147320D03*
D15*
X1029018Y147320D03*
X1045528Y147320D03*
D13*
X1079183Y147320D03*
D15*
X1096328Y147320D03*
D14*
X1109028Y147320D03*
X1117918Y147320D03*
X1128078Y147320D03*
X997268Y148590D03*
X1007428Y148590D03*
X1016318Y148590D03*
D15*
X1030288Y148590D03*
X1046798Y148590D03*
D20*
X1079183Y148590D03*
D15*
X1095058Y148590D03*
D14*
X1109028Y148590D03*
X1117918Y148590D03*
X1128078Y148590D03*
X997268Y149860D03*
X1007428Y149860D03*
D13*
X1016953Y149860D03*
D15*
X1031558Y149860D03*
X1048068Y149860D03*
D21*
X1079183Y149860D03*
D15*
X1093788Y149860D03*
D13*
X1108393Y149860D03*
D14*
X1117918Y149860D03*
X1128078Y149860D03*
X997268Y151130D03*
X1007428Y151130D03*
D15*
X1017588Y151130D03*
D13*
X1032193Y151130D03*
D15*
X1049338Y151130D03*
D22*
X1079183Y151130D03*
D15*
X1092518Y151130D03*
X1107758Y151130D03*
D14*
X1117918Y151130D03*
X1128078Y151130D03*
X997268Y152400D03*
X1007428Y152400D03*
D15*
X1018858Y152400D03*
D14*
X1032828Y152400D03*
D15*
X1050608Y152400D03*
X1074738Y152400D03*
X1083628Y152400D03*
X1091248Y152400D03*
X1106488Y152400D03*
D14*
X1117918Y152400D03*
X1128078Y152400D03*
X997268Y153670D03*
D13*
X1008063Y153670D03*
D15*
X1020128Y153670D03*
D26*
X1032828Y153670D03*
D38*
X1062673Y153670D03*
D32*
X1087438Y153670D03*
D15*
X1105218Y153670D03*
D13*
X1117283Y153670D03*
D14*
X1128078Y153670D03*
X997268Y154940D03*
D15*
X1008698Y154940D03*
X1021398Y154940D03*
D37*
X1062673Y154940D03*
D17*
X1087438Y154940D03*
D15*
X1103948Y154940D03*
D13*
X1116013Y154940D03*
D14*
X1128078Y154940D03*
X997268Y156210D03*
D15*
X1009968Y156210D03*
X1022668Y156210D03*
D14*
X1039178Y156210D03*
D36*
X1062673Y156210D03*
D15*
X1087438Y156210D03*
X1102678Y156210D03*
D13*
X1114743Y156210D03*
D14*
X1128078Y156210D03*
X997268Y157480D03*
D15*
X1011238Y157480D03*
X1023938Y157480D03*
D13*
X1039813Y157480D03*
D15*
X1086168Y157480D03*
X1101408Y157480D03*
D13*
X1113473Y157480D03*
D14*
X1128078Y157480D03*
D13*
X997903Y158750D03*
D15*
X1012508Y158750D03*
X1025208Y158750D03*
D20*
X1039813Y158750D03*
D15*
X1084898Y158750D03*
X1100138Y158750D03*
D13*
X1112203Y158750D03*
X1127443Y158750D03*
D15*
X998538Y160020D03*
X1013778Y160020D03*
X1026478Y160020D03*
D21*
X1039813Y160020D03*
D15*
X1083628Y160020D03*
X1098868Y160020D03*
D13*
X1110933Y160020D03*
D15*
X1126808Y160020D03*
X999808Y161290D03*
X1015048Y161290D03*
X1027748Y161290D03*
D22*
X1039813Y161290D03*
D15*
X1082358Y161290D03*
X1097598Y161290D03*
D13*
X1109663Y161290D03*
D15*
X1125538Y161290D03*
X1001078Y162560D03*
X1016318Y162560D03*
D22*
X1032193Y162560D03*
D15*
X1044258Y162560D03*
X1081088Y162560D03*
X1096328Y162560D03*
D13*
X1108393Y162560D03*
D15*
X1124268Y162560D03*
X1002348Y163830D03*
X1017588Y163830D03*
D21*
X1032193Y163830D03*
D15*
X1045528Y163830D03*
X1079818Y163830D03*
X1095058Y163830D03*
D13*
X1107123Y163830D03*
D15*
X1122998Y163830D03*
X1003618Y165100D03*
X1018858Y165100D03*
D20*
X1032193Y165100D03*
D35*
X1062673Y165100D03*
D15*
X1093788Y165100D03*
D13*
X1105853Y165100D03*
D15*
X1121728Y165100D03*
X1004888Y166370D03*
X1020128Y166370D03*
D13*
X1032193Y166370D03*
D34*
X1062673Y166370D03*
D20*
X1093153Y166370D03*
D13*
X1104583Y166370D03*
D15*
X1120458Y166370D03*
X1006158Y167640D03*
X1021398Y167640D03*
D16*
X1032193Y167640D03*
D33*
X1062673Y167640D03*
D21*
X1093153Y167640D03*
D13*
X1104583Y167640D03*
D15*
X1119188Y167640D03*
X1007428Y168910D03*
X1022668Y168910D03*
X1089978Y168910D03*
D13*
X1096963Y168910D03*
D16*
X1104583Y168910D03*
D15*
X1117918Y168910D03*
X1008698Y170180D03*
X1023938Y170180D03*
X1088708Y170180D03*
D13*
X1098233Y170180D03*
D15*
X1116648Y170180D03*
X1009968Y171450D03*
X1025208Y171450D03*
D16*
X1039813Y171450D03*
D15*
X1087438Y171450D03*
D13*
X1099503Y171450D03*
D15*
X1115378Y171450D03*
X1011238Y172720D03*
X1026478Y172720D03*
D13*
X1039813Y172720D03*
D15*
X1086168Y172720D03*
D13*
X1100773Y172720D03*
D15*
X1114108Y172720D03*
X1012508Y173990D03*
X1027748Y173990D03*
X1040448Y173990D03*
X1084898Y173990D03*
D26*
X1095058Y173990D03*
D13*
X1102043Y173990D03*
D15*
X1112838Y173990D03*
X1013778Y175260D03*
X1029018Y175260D03*
D39*
X1062673Y175260D03*
D14*
X1095058Y175260D03*
D13*
X1103313Y175260D03*
D15*
X1111568Y175260D03*
D13*
X1014413Y176530D03*
X1030923Y176530D03*
D31*
X1062673Y176530D03*
D13*
X1094423Y176530D03*
D22*
X1107123Y176530D03*
D14*
X1015048Y177800D03*
D13*
X1032193Y177800D03*
D30*
X1062673Y177800D03*
D15*
X1093788Y177800D03*
D21*
X1107123Y177800D03*
D13*
X1033463Y179070D03*
D14*
X1062038Y179070D03*
D15*
X1092518Y179070D03*
D20*
X1107123Y179070D03*
D13*
X1034733Y180340D03*
D14*
X1062038Y180340D03*
D15*
X1091248Y180340D03*
X1106488Y180340D03*
D13*
X1036003Y181610D03*
D14*
X1062038Y181610D03*
D15*
X1089978Y181610D03*
X1105218Y181610D03*
D14*
X1022668Y182880D03*
D13*
X1037273Y182880D03*
D14*
X1062038Y182880D03*
D15*
X1088708Y182880D03*
X1103948Y182880D03*
D13*
X1023303Y184150D03*
D18*
X1063308Y184150D03*
D15*
X1102678Y184150D03*
X1023938Y185420D03*
D40*
X1063308Y185420D03*
D15*
X1101408Y185420D03*
X1025208Y186690D03*
D23*
X1063308Y186690D03*
D15*
X1100138Y186690D03*
X1026478Y187960D03*
X1098868Y187960D03*
X1027748Y189230D03*
X1097598Y189230D03*
X1029018Y190500D03*
X1096328Y190500D03*
X1030288Y191770D03*
X1095058Y191770D03*
X1031558Y193040D03*
X1093788Y193040D03*
X1032828Y194310D03*
X1092518Y194310D03*
D28*
X1062673Y195580D03*
D12*
X1062673Y196850D03*
D11*
X1062673Y198120D03*
D41*
X784060Y774700D03*
X699060Y774700D03*
X669060Y774700D03*
X621500Y774700D03*
X536500Y774700D03*
X506500Y774700D03*
X456400Y774700D03*
X371400Y774700D03*
X341400Y774700D03*
X291300Y774700D03*
X206300Y774700D03*
X176300Y774700D03*
X128740Y774700D03*
X43740Y774700D03*
X13740Y774700D03*
X1274280Y934720D03*
X1189280Y934720D03*
X1159280Y934720D03*
X1224280Y872960D03*
X1224280Y787960D03*
X1224280Y757960D03*
X784060Y990600D03*
X699060Y990600D03*
X669060Y990600D03*
D42*
X101029Y375730D03*
X101029Y310706D03*
X55817Y375730D03*
X55817Y310706D03*
X548577Y310706D03*
X548577Y375730D03*
X593789Y310706D03*
X593789Y375730D03*
X923989Y375730D03*
X923989Y310706D03*
X878777Y375730D03*
X878777Y310706D03*
X1093915Y447612D03*
X1028891Y447612D03*
X1093915Y492824D03*
X1028891Y492824D03*
X1256475Y447612D03*
X1191451Y447612D03*
X1256475Y492824D03*
X1191451Y492824D03*
X1256475Y320612D03*
X1191451Y320612D03*
X1256475Y365824D03*
X1191451Y365824D03*
X1093915Y320612D03*
X1028891Y320612D03*
X1093915Y365824D03*
X1028891Y365824D03*
D43*
X66040Y698180D03*
X91440Y698180D03*
D44*
X215900Y685800D03*
X241300Y685800D03*
X266700Y685800D03*
X381000Y685800D03*
X406400Y685800D03*
X431800Y685800D03*
X546418Y686118D03*
X571818Y686118D03*
X597218Y686118D03*
X708660Y685800D03*
X734060Y685800D03*
X759460Y685800D03*
D45*
X53423Y500698D03*
X78423Y500698D03*
X103423Y500698D03*
D46*
X23423Y562698D02*
X23423Y578698D01*
X133423Y578698D02*
X133423Y562698D01*
D45*
X709060Y279400D03*
X734060Y279400D03*
X759060Y279400D03*
D46*
X679060Y341400D02*
X679060Y357400D01*
X789060Y357400D02*
X789060Y341400D01*
D45*
X381083Y279718D03*
X406083Y279718D03*
X431083Y279718D03*
D46*
X351083Y341718D02*
X351083Y357718D01*
X461083Y357718D02*
X461083Y341718D01*
D45*
X215983Y279718D03*
X240983Y279718D03*
X265983Y279718D03*
D46*
X185983Y341718D02*
X185983Y357718D01*
X295983Y357718D02*
X295983Y341718D01*
D45*
X381083Y500698D03*
X406083Y500698D03*
X431083Y500698D03*
D46*
X351083Y562698D02*
X351083Y578698D01*
X461083Y578698D02*
X461083Y562698D01*
D45*
X215983Y500698D03*
X240983Y500698D03*
X265983Y500698D03*
D46*
X185983Y562698D02*
X185983Y578698D01*
X295983Y578698D02*
X295983Y562698D01*
D47*
X1263333Y1073468D03*
X31433Y1073468D03*
D48*
X213805Y1067118D03*
X240983Y1067118D03*
X268161Y1067118D03*
X378905Y1067118D03*
X406083Y1067118D03*
X433261Y1067118D03*
X544005Y1067118D03*
X571183Y1067118D03*
X598361Y1067118D03*
X709105Y1067118D03*
X736283Y1067118D03*
X763461Y1067118D03*
D47*
X31433Y32068D03*
X1141413Y217488D03*
D49*
X1156970Y849455D03*
X1131570Y849455D03*
X1156970Y825818D03*
X1131570Y825818D03*
X1156970Y800418D03*
X1131570Y800418D03*
X1156970Y775018D03*
X1131570Y775018D03*
X1156970Y751380D03*
X1131570Y751380D03*
D50*
X825183Y1067118D03*
X825183Y1041718D03*
X825183Y1016318D03*
X825183Y990918D03*
X825183Y965518D03*
X825183Y940118D03*
X825183Y914718D03*
X825183Y889318D03*
X825183Y863918D03*
X825183Y838518D03*
X825183Y813118D03*
X825183Y787718D03*
X825183Y762318D03*
X825183Y736918D03*
X825183Y711518D03*
X825183Y686118D03*
X825183Y660718D03*
X977583Y1067118D03*
X977583Y1041718D03*
X977583Y1016318D03*
X977583Y990918D03*
X977583Y965518D03*
X977583Y940118D03*
X977583Y914718D03*
X977583Y889318D03*
X977583Y863918D03*
X977583Y838518D03*
X977583Y813118D03*
X977583Y787718D03*
X977583Y762318D03*
X977583Y736918D03*
X977583Y711518D03*
X977583Y686118D03*
X977583Y660718D03*
D51*
X1127951Y983171D02*
X1144715Y983171D01*
D52*
X1144833Y1040575D02*
X1127833Y1040575D01*
D51*
X1180783Y1020255D02*
X1180783Y1003491D01*
D42*
X1256475Y574612D03*
X1191451Y574612D03*
X1256475Y619824D03*
X1191451Y619824D03*
X1028891Y619824D03*
X1093915Y619824D03*
X1028891Y574612D03*
X1093915Y574612D03*
D53*
X902653Y952818D03*
X902653Y978218D03*
X901383Y1003618D03*
X902653Y1029018D03*
D54*
X901383Y698818D03*
X903923Y724218D03*
X901383Y749618D03*
X903923Y775018D03*
X901383Y800418D03*
X903923Y825818D03*
D55*
X1079183Y1092518D03*
X1079183Y1067118D03*
X1079183Y1041718D03*
X1079183Y1016318D03*
X1079183Y990918D03*
X1079183Y965518D03*
X1079183Y940118D03*
X1079183Y914718D03*
X1079183Y889318D03*
X1079183Y863918D03*
X1079183Y838518D03*
X1079183Y813118D03*
X1079183Y787718D03*
X1079183Y762318D03*
X926783Y762318D03*
X926783Y787718D03*
X926783Y813118D03*
X926783Y838518D03*
X926783Y863918D03*
X926783Y889318D03*
X926783Y914718D03*
X926783Y940118D03*
X926783Y965518D03*
X926783Y990918D03*
X926783Y1016318D03*
X926783Y1041718D03*
X926783Y1067118D03*
X926783Y1092518D03*
D56*
X952183Y762318D03*
D57*
X116523Y170498D03*
X65723Y119698D03*
D58*
X91123Y94298D03*
X40323Y170498D03*
D57*
X279083Y170498D03*
X228283Y119698D03*
D58*
X253683Y94298D03*
X202883Y170498D03*
D57*
X444183Y170498D03*
X393383Y119698D03*
D58*
X418783Y94298D03*
X367983Y170498D03*
D57*
X609283Y170498D03*
X558483Y119698D03*
D58*
X583883Y94298D03*
X533083Y170498D03*
D57*
X774700Y170180D03*
X723900Y119380D03*
D58*
X749300Y93980D03*
X698500Y170180D03*
D57*
X939483Y170498D03*
X888683Y119698D03*
D58*
X914083Y94298D03*
X863283Y170498D03*
D48*
X1280478Y236030D03*
X1280478Y263208D03*
X1280478Y290386D03*
D54*
X1085136Y414338D03*
X1061403Y414655D03*
X1037590Y414338D03*
D59*
X502603Y620633D03*
X528003Y620633D03*
X502603Y597218D03*
X528003Y597218D03*
X502603Y573802D03*
X528003Y573802D03*
D54*
X77549Y1068388D03*
X101283Y1068705D03*
X125095Y1068388D03*
D41*
X291300Y881380D03*
X206300Y881380D03*
X176300Y881380D03*
X456400Y881380D03*
X371400Y881380D03*
X341400Y881380D03*
X621500Y881380D03*
X536500Y881380D03*
X506500Y881380D03*
X784060Y881380D03*
X699060Y881380D03*
X669060Y881380D03*
X128740Y881380D03*
X43740Y881380D03*
X13740Y881380D03*
X621500Y990600D03*
X536500Y990600D03*
X506500Y990600D03*
X456400Y990600D03*
X371400Y990600D03*
X341400Y990600D03*
X291300Y990600D03*
X206300Y990600D03*
X176300Y990600D03*
X128740Y990600D03*
X43740Y990600D03*
X13740Y990600D03*
D42*
X1172972Y663194D03*
X1107948Y663194D03*
X1172972Y708406D03*
X1107948Y708406D03*
D60*
X797560Y1081691D03*
X797560Y1053814D03*
D61*
X177800Y1031240D03*
X144780Y1033780D03*
X637540Y589280D03*
X657860Y523240D03*
X406400Y78740D03*
X317500Y43180D03*
X429260Y25400D03*
X815340Y48260D03*
X886460Y45720D03*
X157480Y355600D03*
X78740Y472440D03*
X147320Y528320D03*
X314960Y609600D03*
X480060Y467360D03*
X650240Y485140D03*
X845820Y477520D03*
X932180Y599440D03*
X840740Y640080D03*
X1219200Y1016000D03*
X1033780Y1082040D03*
X845820Y1089660D03*
X960120Y1076960D03*
X629920Y1059180D03*
X492760Y812800D03*
X477520Y617220D03*
X477520Y513080D03*
X556260Y447040D03*
X490220Y297180D03*
X886460Y81280D03*
X1150620Y635000D03*
X1216660Y637540D03*
X1254760Y553720D03*
X1259840Y513080D03*
X1170940Y502920D03*
X1127760Y495300D03*
X1102360Y472440D03*
X1143000Y485140D03*
X1059180Y538480D03*
X1087120Y551180D03*
X914400Y662940D03*
X845820Y734060D03*
X144780Y408940D03*
X193040Y414020D03*
X190500Y439420D03*
X208280Y459740D03*
X134620Y480060D03*
X254000Y459740D03*
X297180Y472440D03*
X342900Y467360D03*
X368300Y467360D03*
X393700Y467360D03*
X429260Y464820D03*
X236220Y414020D03*
X1145540Y358140D03*
X1173480Y259080D03*
X1198880Y289560D03*
X1165860Y317500D03*
X1064260Y650240D03*
X1112520Y944880D03*
X850900Y1059180D03*
X800100Y1031240D03*
X774700Y1046480D03*
X736600Y1038860D03*
X891540Y1071880D03*
X906780Y919480D03*
X886460Y909320D03*
X894080Y889000D03*
X873760Y845820D03*
X881380Y810260D03*
X861060Y784860D03*
X843280Y759460D03*
X868680Y726440D03*
X1013460Y1036320D03*
X1041400Y1036320D03*
X1041400Y805180D03*
X1018540Y728980D03*
X1021080Y701040D03*
X965200Y591820D03*
X1049020Y650240D03*
X1198880Y767080D03*
X1229360Y805180D03*
X1231900Y835660D03*
X1028700Y528320D03*
X116840Y909320D03*
X45720Y911860D03*
X93980Y759460D03*
X127000Y746760D03*
X68580Y391160D03*
X121920Y355600D03*
X314960Y284480D03*
X144780Y58420D03*
X220980Y88900D03*
X299720Y60960D03*
X482600Y165100D03*
X662940Y203200D03*
X683260Y678180D03*
X731520Y622300D03*
X734060Y655320D03*
X629920Y568960D03*
X716280Y520700D03*
X706120Y480060D03*
X673100Y480060D03*
X566420Y546100D03*
X553720Y591820D03*
X558800Y533400D03*
X670560Y843280D03*
X665480Y802640D03*
X86360Y546100D03*
X650240Y170180D03*
X574040Y167640D03*
X734060Y167640D03*
X665480Y58420D03*
X947420Y525780D03*
X838200Y513080D03*
X779780Y538480D03*
X749300Y480060D03*
X393700Y175260D03*
X314960Y129540D03*
X358140Y121920D03*
X391160Y91440D03*
X342900Y157480D03*
X1145540Y129540D03*
X457200Y670560D03*
X492760Y396240D03*
X665480Y406400D03*
X947420Y408940D03*
X830580Y358140D03*
X850900Y431800D03*
X779780Y807720D03*
X871220Y982980D03*
D62*
X1112520Y548640D03*
X1226820Y647700D03*
D63*
X764540Y424180D03*
X689293Y425133D03*
X309880Y388620D03*
X314960Y363220D03*
X957580Y817880D03*
X447040Y916940D03*
D62*
X261620Y718820D03*
D63*
X365760Y513080D03*
X447040Y640080D03*
D61*
X896620Y1054100D03*
D64*
X596900Y739140D03*
D61*
X944880Y812800D03*
D63*
X739140Y414020D03*
X886460Y764540D03*
X858520Y764540D03*
X861060Y622300D03*
X889000Y591820D03*
D64*
X1008380Y1003300D03*
D61*
X858520Y975360D03*
D64*
X863600Y939800D03*
D61*
X982980Y436880D03*
D65*
X637540Y370840D03*
D61*
X635000Y228600D03*
X635000Y101600D03*
D63*
X781777Y109220D03*
X817880Y144780D03*
X38100Y96520D03*
X71120Y99060D03*
X419100Y142240D03*
X180340Y127000D03*
X713740Y58420D03*
X703580Y30480D03*
X160020Y88900D03*
X779780Y429260D03*
D61*
X863600Y914400D03*
X792480Y665480D03*
X756920Y622046D03*
D63*
X698500Y223520D03*
X749300Y35560D03*
D61*
X866140Y868680D03*
X866140Y881380D03*
X802640Y657860D03*
D63*
X759460Y22860D03*
X838200Y48260D03*
X767080Y233680D03*
D61*
X307340Y701040D03*
X284480Y807720D03*
X459740Y716280D03*
X459740Y741680D03*
X609600Y810260D03*
X637540Y795020D03*
D65*
X769620Y124460D03*
D61*
X800100Y66040D03*
D63*
X858520Y924560D03*
X812800Y924560D03*
X770037Y850900D03*
X861060Y894080D03*
X650240Y868680D03*
X650240Y762000D03*
X838200Y132080D03*
X838200Y226060D03*
X807720Y337820D03*
X850900Y124460D03*
X850900Y231140D03*
X770890Y387350D03*
D64*
X868680Y1031240D03*
D61*
X998220Y439420D03*
X998220Y408940D03*
D63*
X1198880Y688340D03*
X1176020Y688340D03*
X1028700Y762000D03*
D61*
X876300Y858520D03*
D63*
X1104900Y78740D03*
X220980Y726440D03*
X220980Y746760D03*
X1016000Y817880D03*
D61*
X1023620Y843280D03*
D63*
X1010920Y698500D03*
D61*
X848360Y787400D03*
D63*
X998220Y858520D03*
X1036320Y833120D03*
X1021080Y784860D03*
X111760Y789940D03*
X115796Y434340D03*
X589280Y452120D03*
X617220Y589280D03*
X355600Y104140D03*
X952500Y12700D03*
X342900Y58420D03*
X342900Y109220D03*
D62*
X330200Y327660D03*
D63*
X1120140Y299720D03*
X1145540Y299720D03*
X576580Y764540D03*
X721360Y762000D03*
X695960Y586740D03*
X713740Y462280D03*
X657860Y1026160D03*
M02*
