(footprint "RCL_0204_5" (version 20211014) (generator pcbnew)
  (layer "F.Cu")
  (tedit 0)
  (descr "<b>RESISTOR</b><p>\ntype 0204, grid 5 mm")
  (fp_text reference "REF**" (at -0.1016 -1.5494) (layer "F.SilkS")
    (effects (font (size 0.68 0.68) (thickness 0.12)))
    (tstamp 74796a55-82bc-4f74-9e9c-c7cb232069e3)
  )
  (fp_text value ">VALUE" (at 0 0) (layer "F.Fab")
    (effects (font (size 0.68 0.68) (thickness 0.12)))
    (tstamp 325006ce-4c23-4f07-9871-dc0cd047f7fd)
  )
  (fp_line (start 1.524 0.889) (end 1.27 0.889) (layer "F.SilkS") (width 0.1524) (tstamp 2415334a-b998-4d19-a8b5-e60e8af2aff4))
  (fp_line (start 1.143 0.762) (end -1.143 0.762) (layer "F.SilkS") (width 0.1524) (tstamp 345a9ac1-be31-400b-9c5d-4af388112d4b))
  (fp_line (start -1.524 0.889) (end -1.27 0.889) (layer "F.SilkS") (width 0.1524) (tstamp 4b1dbc88-c8c5-476c-80ac-830e56684be9))
  (fp_line (start 1.143 0.762) (end 1.27 0.889) (layer "F.SilkS") (width 0.1524) (tstamp 835ada2e-dc88-46f5-b472-12f6a1e8c9f4))
  (fp_line (start 1.524 -0.889) (end 1.27 -0.889) (layer "F.SilkS") (width 0.1524) (tstamp 9421d8ab-ec24-4783-b746-a12fbd00100e))
  (fp_line (start -1.143 -0.762) (end -1.27 -0.889) (layer "F.SilkS") (width 0.1524) (tstamp 9a7ade3c-a81d-4038-a57c-b220b9c3cd90))
  (fp_line (start 1.143 -0.762) (end 1.27 -0.889) (layer "F.SilkS") (width 0.1524) (tstamp c60ba6ae-e013-424d-bb59-f3de27f735b1))
  (fp_line (start 1.143 -0.762) (end -1.143 -0.762) (layer "F.SilkS") (width 0.1524) (tstamp c7a7077f-9289-4bb4-8f3b-a449cb499057))
  (fp_line (start -1.524 -0.889) (end -1.27 -0.889) (layer "F.SilkS") (width 0.1524) (tstamp d2d83bcc-f2f8-4838-be35-0f2248bff3b6))
  (fp_line (start -1.143 0.762) (end -1.27 0.889) (layer "F.SilkS") (width 0.1524) (tstamp f587f477-194d-41ae-8a6d-91fbd85f9d3f))
  (fp_arc (start 1.524 -0.889) (mid 1.703605 -0.814605) (end 1.778 -0.635) (layer "F.SilkS") (width 0.1524) (tstamp 240fde71-00e0-458d-bf75-b4d973cb180b))
  (fp_arc (start 1.778 0.635) (mid 1.703605 0.814605) (end 1.524 0.889) (layer "F.SilkS") (width 0.1524) (tstamp 511ddebd-9f54-463b-bc54-5ebdd708d33d))
  (fp_arc (start -1.778 -0.635) (mid -1.703605 -0.814605) (end -1.524 -0.889) (layer "F.SilkS") (width 0.1524) (tstamp 764ce9a2-c363-448f-a68c-a7dbf5cd80c1))
  (fp_arc (start -1.524 0.889) (mid -1.703605 0.814605) (end -1.778 0.635) (layer "F.SilkS") (width 0.1524) (tstamp adfaccc9-bb80-495a-9038-d58935037d76))
  (fp_line (start -1.778 0.635) (end -1.778 -0.635) (layer "F.Fab") (width 0.1524) (tstamp 20d6997e-64c7-454b-9573-baf26e1ad11b))
  (fp_line (start 1.778 0.635) (end 1.778 -0.635) (layer "F.Fab") (width 0.1524) (tstamp 88ec470b-1595-4040-bc2a-91476c84ca2e))
  (fp_line (start 2.54 0) (end 2.032 0) (layer "F.Fab") (width 0.508) (tstamp 96930a67-6215-4f2b-a9cc-16f78c9fd164))
  (fp_line (start -2.54 0) (end -2.032 0) (layer "F.Fab") (width 0.508) (tstamp b08a146a-6e43-46ac-8c31-9d5442623eb3))
  (fp_poly (pts
      (xy 1.778 0.254)
      (xy 2.032 0.254)
      (xy 2.032 -0.254)
      (xy 1.778 -0.254)
    ) (layer "F.Fab") (width 0) (fill solid) (tstamp 9cdc04e7-a7c1-410b-8dd7-1b5a287afb98))
  (fp_poly (pts
      (xy -2.032 0.254)
      (xy -1.778 0.254)
      (xy -1.778 -0.254)
      (xy -2.032 -0.254)
    ) (layer "F.Fab") (width 0) (fill solid) (tstamp a5e5a32b-d259-4833-9676-56ada82e83c2))
  (pad "1" thru_hole roundrect (at -2.54 0) (size 1.208 1.208) (drill 0.7) (layers *.Cu *.Mask) (roundrect_rratio 0.25)
    (chamfer_ratio 0.25) (chamfer top_left top_right bottom_left bottom_right)
    (solder_mask_margin 0.1016) (tstamp 05fda319-28dc-4877-8331-02cb10501361))
  (pad "2" thru_hole roundrect (at 2.54 0) (size 1.208 1.208) (drill 0.7) (layers *.Cu *.Mask) (roundrect_rratio 0.25)
    (chamfer_ratio 0.25) (chamfer top_left top_right bottom_left bottom_right)
    (solder_mask_margin 0.1016) (tstamp 1330eb77-c16f-4a58-a897-f5af49736826))
)
